Sal_id,Monday,Tuesday,Wednesday,Thursday,Friday,Saturday,Sunday,Mobile Number,Sal_profile_pic,Website,Facebook,Twitter,Instagram,Sal_zip
14206,Closed,09:00-20:00,09:00-20:00,09:00-20:00,09:00-20:00,09:00-20:00,10:00-17:00,,14206.jpg,www.spaclinique.co.uk,NULL,,,SW6 5NT
14294,09:30-15:00,09:30-15:00,09:30-15:00,09:30-20:00,09:30-18:00,Closed,Closed,7949782099,14294.jpg,www.dreamgirlcreations.com,NULL,,,N20 0AQ
14306,08:30-19:30,08:30-19:30,08:30-19:30,08:30-19:30,08:30-16:00,Closed,08:30-19:30,7816918745,14306.jpg,www.laser-beautypoint.co.uk,NULL,,,N3 3EY
14340,10:00-08:00,10:00-08:00,10:00-08:00,10:00-08:00,10:00-16:00,10:00-16:00,Closed,,14340.jpg,www.appleonia.co.uk,https://web.facebook.com/appleoniabeautystudio/,,,AL2 1RE
14387,10:00-17:00,10:00-17:00,10:00-17:00,10:00-17:00,10:00-17:00,10:00-17:00,10:00-17:00,7933712526,14387.jpg,lash-e5.co.uk,NULL,,,E5 8SR
14446,Closed,11:00-20:30,11:00-20:30,11:00-20:30,11:00-20:30,11:00-20:30,11:00-20:30,7814663798,14446.jpg,https://www.treatwell.co.uk/place/manuel-guerra-skin-care/,NULL,,,SE17 1AY
14492,09:00-20:30,09:00-20:30,09:00-16:00,09:00-20:30,09:00-20:30,09:00-16:00,10:00-17:00,,14492.jpg,www.martinebeauty.com,NULL,,,E13 9LB
14539,10:30-21:00,10:30-21:00,10:30-21:00,10:30-21:00,10:30-19:30,13:00-17:00,13:00-17:00,7966579598,14539.jpg,www.sunkissedspraytanning.co.uk,https://web.facebook.com/pg/londonspraytan1/about/?ref=page_internal,https://twitter.com/londonspraytan,,NW3 6NT
14543,Closed,10:00-20:00,10:00-20:00,10:00-20:00,10:00-20:00,11:00-17:00,Closed,7889569333,14543.jpg,www.beautyprima.co.uk,https://web.facebook.com/BeautyPrimaLondon/,https://twitter.com/@BeautyPrima,,W1F 8HS
14545,09:00-18:00,09:00-18:00,09:00-18:00,09:00-18:00,09:00-18:00,09:00-18:00,11:00-17:00,7968576977,14545.jpg,www.makemeupmidlands.co.uk,https://www.facebook.com/makemeupmidlands/,,https://www.instagram.com/makemeupmidlands/,CV3 4EN
14552,10:00-21:15,10:00-21:15,10:00-21:15,09:00-21:15,09:00-21:15,09:00-18:00,10:30-17:30,,14552.jpg,www.shineholistic.co.uk,https://www.facebook.com/ShineGroup-282156651347/,https://twitter.com/ShineHolistic,https://www.instagram.com/shine_holistic/,N16 9PU
14570,09:00-17:00,09:00-17:00,09:00-20:00,09:00-17:00,09:00-20:00,09:00-17:00,Closed,7470193752,14570.jpg,www.faceupbeautyuk.com,NULL,https://twitter.com/faceupbeautyuk,https://www.instagram.com/faceupbeautyuk/,W7 1QJ
14596,09:00-17:00,09:00-17:00,09:00-17:00,09:00-17:00,09:00-17:00,09:00-17:00,09:00-17:00,,14596.jpg,www.secretspa.co.uk,https://www.facebook.com/secretspauk/,https://twitter.com/SecretSpaUK,https://www.instagram.com/secretspauk/,SW12 8HG
14608,09:00-19:30,09:00-19:30,09:00-19:30,09:00-19:30,09:00-19:30,09:00-18:00,10:30-15:00,7704564506,14608.jpg,www.suzistherapy.co.uk,NULL,,,N20 9EW
14619,10:00-19:00,10:00-19:00,10:00-19:00,10:00-19:00,10:00-19:00,10:00-18:00,11:00-17:00,7951459297,14619.jpg,www.csgmakeupandbeauty.co.uk,https://www.facebook.com/csgmakeupandbeautyuk/,https://twitter.com/csg_bosslady?lang=en,https://www.instagram.com/csg_bosslady/,WC1X 8BP
14621,09:30-19:00,09:30-19:00,09:30-19:00,09:30-19:00,09:30-19:00,09:30-19:00,11:00-17:00,,14621.jpg,inoabeauty.com,https://www.facebook.com/inoabeauty/,https://twitter.com/inoa_beauty,,RM6 6AP
14726,09:00-21:00,09:00-21:00,09:00-21:00,09:00-21:00,09:00-16:00,Closed,09:00-21:00,7787854462,14726.jpg,yaelsbeautytreatments.com,https://www.facebook.com/Yaels-Beauty-Treatments-136286063092897/,,,NW11 8SG
14731,10:00-19:00,10:00-19:00,10:00-20:00,10:00-20:00,10:00-19:00,10:00-18:00,Closed,7939434458,14731.jpg,www.solebeautysalon.co.uk,https://www.facebook.com/Sole-Beauty-353927584736952/,https://twitter.com/Sole_beauty,,W1U 2QW
14735,Closed,10:00-19:00,10:00-19:00,10:00-19:00,10:00-19:00,10:00-19:00,11:00-17:00,,14735.jpg,www.candysnailandtattoo.co.uk,NULL,,,NW8 0RG
14739,09:00-17:00,09:00-17:00,09:00-17:00,09:00-17:00,09:00-17:00,09:00-17:00,Closed,7738150328,14739.jpg,www.makeupbyjuancy.co.uk,NULL,https://twitter.com/makeupbyjuancy,,N21 2DS
14748,10:00-21:00,10:00-21:00,09:30-21:00,10:00-21:00,10:00-17:30,09:30-18:00,09:30-19:30,,14748.jpg,https://embodywellness.co.uk/,https://www.facebook.com/embodywellness/,https://twitter.com/embodyvauxhall,https://www.instagram.com/embodyvauxhall/,SW8 2LE
14800,Closed,11:00-20:00,11:00-20:00,11:00-20:00,10:00-19:00,09:30-18:00,Closed,,14800.jpg,www.aquariusbeauty.co.uk,https://www.facebook.com/Aquarius-Beauty-332788923527441/,,,N4 2DQ
14827,10:00-20:00,10:00-20:00,10:00-20:00,10:00-20:00,10:00-20:00,10:00-18:00,Closed,7428539636,14827.jpg,www.netala.co.uk,https://www.facebook.com/Netalaspa/,,,W1F 8SH
14907,10:00-20:00,10:00-20:00,10:00-20:00,10:00-20:00,10:00-20:00,10:00-18:00,Closed,,14907.jpg,www.laurasmobilebeautytreats.com,https://www.facebook.com/LaurasMobileBeautyTreats/,https://twitter.com/MobileBeauty_,,SW18 2RW
14911,09:00-19:00,09:00-19:00,09:00-19:00,09:00-19:00,09:00-19:00,10:00-16:00,Closed,7411068541,14911.jpg,Www.perfectwaxing.uk,https://www.facebook.com/PerfectWaxing,https://twitter.com/PerfectWaxing,,E15 1SA
14961,09:00-19:00,09:00-19:00,09:00-19:00,09:00-19:00,09:00-19:00,10:00-16:00,Closed,7830030393,14961.jpg,raffineebylola.co.uk,https://www.facebook.com/raffineebylola/,https://twitter.com/raffineebylola,https://www.instagram.com/browsbyraffineelola/?hl=en,NW6 1NL
15070,10:00-19:00,10:00-19:00,10:00-19:00,10:00-19:00,10:00-19:00,10:00-19:00,10:00-19:00,,15070.jpg,http://www.renatajon.com/,https://web.facebook.com/Hair-by-Renata-Jon-127097150680927/,https://twitter.com/renata_jon,,NW3 6UG
15085,08:00-22:00,08:00-22:00,Closed,Closed,08:00-17:00,08:00-22:00,08:00-18:00,7958251364,15085.jpg,juneesmobilebeauty.setmore.com,NULL,,,SW8 1PP
15094,09:30-18:00,09:30-18:00,09:30-18:00,09:30-18:00,09:30-17:00,09:00-17:00,Closed,,15094.jpg,www.thepeacockrooms.co.uk,NULL,https://twitter.com/thepeacockrooms,https://www.instagram.com/thepeacockrooms/,TN13 1AS
