693,Sterling Hair,Ladies hairdressing,Cut and finish,42,30
693,Sterling Hair,Ladies hairdressing,Wet cut,34,30
693,Sterling Hair,Ladies hairdressing,Dry cut,22,30
693,Sterling Hair,Ladies hair styling,Blowdry or set,22,30
693,Sterling Hair,Ladies hair styling,Straighten,12,25
693,Sterling Hair,Ladies hair styling,Curls,15,25
693,Sterling Hair,Brazilian blowdry,Short hair,9,15
693,Sterling Hair,Brazilian blowdry,Long hair,130,60
693,Sterling Hair,Gentlemen,Cut and finish,18,30
693,Sterling Hair,Gentlemen,Dry cut,14,30
693,Sterling Hair,Senior citizens Ladies,Cut and finish,38,40
693,Sterling Hair,Senior citizens Ladies,Wash and cut,30,35
693,Sterling Hair,Senior citizens Ladies,Dry cut,20,25
693,Sterling Hair,Senior citizens Ladies,Bowdry,20,30
693,Sterling Hair,Senior citizens Ladies,Perm,50,45
693,Sterling Hair,Senior citizens Gentlemen,Cut and finish,17,25
693,Sterling Hair,Senior citizens Gentlemen,Dry cut,11.75,20
693,Sterling Hair,Children,Under 7,9.5,20
693,Sterling Hair,Children,Dry cut 7-12,10.5,20
693,Sterling Hair,Children,Dry cut 12-16,15,25
693,Sterling Hair,Children,Girls restyle,15,25
693,Sterling Hair,Children,Girls cut and blowdry,29,35
693,Sterling Hair,Highlight,Full head,78,40
693,Sterling Hair,Highlight,Half head,65,30
693,Sterling Hair,Highlight,Hop spot partial head,55,30
693,Sterling Hair,Tinting,Regrowth refresh,42,30
693,Sterling Hair,Tinting,Full head refresh,47,30
693,Sterling Hair,Tinting,INOA regrowth,45,30
693,Sterling Hair,Tinting,INOA full head refresh,50,35
693,Sterling Hair,Colour correction,Colour toner,20,30
693,Sterling Hair,Colour correction,Colour glossing,20,30
693,Sterling Hair,Colour correction,Men colour,15,30
693,Sterling Hair,Colour correction,Smart bond treatment,12,25
693,Sterling Hair,Conditioning treatments,Sterling Express Condition and Shine,10,10
693,Sterling Hair,Beauty,Eyebrow Wax,5.5,15
693,Sterling Hair,Beauty,Eyelash Tint,12,25
693,Sterling Hair,Beauty,Lip Wax or Chin Wax,5,15
693,Sterling Hair,Beauty,Eyebrow Tint,7,15
693,Sterling Hair,Beauty,Eyebrow & Upper Lip or Chin,10,20
693,Sterling Hair,Beauty,Eyes Package,20,30
693,Sterling Hair,Beauty,Lip and Chin Wax,8,20
693,Sterling Hair,Beauty,Shellac Manicure,25,30
71,Charles Salon,Women Haircut,Cut and finish (Stylist),50,35
71,Charles Salon,Women Haircut,Blowdry (Stylist),30,30
71,Charles Salon,Women Haircut,Children upto 15 (Stylist),35,30
71,Charles Salon,Women Haircut,15 minute dry styling (Stylist),20,25
71,Charles Salon,Women Haircut,Specialist hair up (Stylist),50,34
71,Charles Salon,Women Haircut,Fringe trim (Stylist),15,25
71,Charles Salon,Women Haircut,Cut and finish (Advanced Stylist),75,40
71,Charles Salon,Women Haircut,Blowdry (Advanced Stylist),35,30
71,Charles Salon,Women Haircut,Children upto 15 (Advanced Stylist),40,30
71,Charles Salon,Women Haircut,15 minute dry styling (Advanced Stylist),20,30
71,Charles Salon,Women Haircut,Specialist hair up (Advanced Stylist),55,40
71,Charles Salon,Women Haircut,Fringe trim (Advanced Stylist),15,25
71,Charles Salon,Women Haircut,Cut and finish (Senior Stylist),85,50
71,Charles Salon,Women Haircut,Blowdry (Senior Stylist),35,30
71,Charles Salon,Colour,Shine on (Stylist),25,35
71,Charles Salon,Colour,Colour gloss (Stylist),50,40
71,Charles Salon,Colour,Re-growth (Stylist),60,40
71,Charles Salon,Colour,Full head (Stylist),75,40
71,Charles Salon,Colour,Foil high/lowlights 1/4 head (Stylist),75,40
71,Charles Salon,Colour,Foil high/lowlights 1/2 head (Stylist),110,60
71,Charles Salon,Colour,Foil high/lowlights full head (Stylist),140,60
71,Charles Salon,Colour,CW colour contouring (Stylist),80,40
71,Charles Salon,Treatments,Express conditioning treatment (Stylist),10,25
71,Charles Salon,Treatments,Hot towel deep conditioning treatment (Stylist),15,30
71,Charles Salon,Treatments,Smoothing conditioning treatment (Stylist),60,40
71,Charles Salon,Treatments,At home service (Per hour) (Stylist),115,60
71,Charles Salon,Treatments,Express conditioning treatment (Advanced Stylist),10,25
71,Charles Salon,Treatments,Hot towel deep conditioning treatment (Advanced Stylist),15,30
71,Charles Salon,Treatments,Smoothing conditioning treatment (Advanced Stylist),60,40
71,Charles Salon,Treatments,At home service (Per hour) (Advanced Stylist),120,60
71,Charles Salon,Smoothing and volumising,Nanopure smoothing,200,90
71,Charles Salon,Smoothing and volumising,Hair smoothing,150,80
71,Charles Salon,Smoothing and volumising,Hair straightening half head,240,120
71,Charles Salon,Smoothing and volumising,Hair straightening full head,350,120
71,Charles Salon,Men Haircut,"Wash, cut and finish (Advance Stylist)",40,30
71,Charles Salon,Men Haircut,"Wash, cut and finish (Senior Stylist)",58,40
71,Charles Salon,Men Haircut,"Wash, cut and finish (Master Stylist)",58,40
71,Charles Salon,Men Haircut,"Wash, cut and finish (Barber Specialist)",60,45
71,Charles Salon,Men Haircut,"Wash, cut and finish (Senior Master)",68,45
71,Charles Salon,Men Haircut,"Wash, cut and finish (Principle)",74,50
