495,Prestige Hair Extensions,Wash and blowdry,Short hair ,50,60
495,Prestige Hair Extensions,Wash and blowdry,Mid length,55,60
495,Prestige Hair Extensions,Wash and blowdry,Long Hair,62,60
495,Prestige Hair Extensions,Cut and blowdry,Short hair ,75,60
495,Prestige Hair Extensions,Cut and blowdry,Mid length,80,60
495,Prestige Hair Extensions,Cut and blowdry,Long hair,90,60
495,Prestige Hair Extensions,Others,Tint regrowth,60,45
495,Prestige Hair Extensions,Tint virgin head,Short hair ,70,50
495,Prestige Hair Extensions,Tint virgin head,Mid length,75,50
495,Prestige Hair Extensions,Tint virgin head,Long hair,85,60
495,Prestige Hair Extensions,Gloss colour refresh,Short hair ,70,50
495,Prestige Hair Extensions,Gloss colour refresh,Mid length,75,50
495,Prestige Hair Extensions,Gloss colour refresh,Long hair,85,60
495,Prestige Hair Extensions,Others,Balayage,150,90
495,Prestige Hair Extensions,Others,Indulgment conditioning treatment,25,30
495,Prestige Hair Extensions,Men hair dressing,Cut and finish,45,45
495,Prestige Hair Extensions,Men hair dressing,Dry cut,35,30
13602,Singhar Beauty,Eye treatments,Eyelash lift,35,30
13602,Singhar Beauty,Eye treatments,Flare Lashes,25,30
13602,Singhar Beauty,Eye treatments,Luxury strip lashes,15,30
13602,Singhar Beauty,Eye treatments,Take off,20,15
13602,Singhar Beauty,Facial,Back facial,85,90
13602,Singhar Beauty,Facial,Ultrasonic facial,30,30
13602,Singhar Beauty,Make-up,Bridal makeup,150,90
13602,Singhar Beauty,Make-up,Day makeup,50,45
13602,Singhar Beauty,Make-up,Party makeup,70,45
13602,Singhar Beauty,Nails,Gel nails,35,30
13602,Singhar Beauty,Nails,Gel toe nails,40,30
13602,Singhar Beauty,Nails,In fills,35,30
13602,Singhar Beauty,Nails,Nail design,10,15
13602,Singhar Beauty,Threading,Cheesks,8,15
13602,Singhar Beauty,Threading,Forehead,8,15
13602,Singhar Beauty,Threading,Full face and neck,30,30
13602,Singhar Beauty,Threading,Neck,8,15
13602,Singhar Beauty,Threading,Sides,10,15
