71,Charles Salon,Women Haircut,Cut and finish (Stylist),50,35
71,Charles Salon,Women Haircut,Blowdry (Stylist),30,30
71,Charles Salon,Women Haircut,Children upto 15 (Stylist),35,30
71,Charles Salon,Women Haircut,15 minute dry styling (Stylist),20,25
71,Charles Salon,Women Haircut,Specialist hair up (Stylist),50,34
71,Charles Salon,Women Haircut,Fringe trim (Stylist),15,25
71,Charles Salon,Women Haircut,Cut and finish (Advanced Stylist),75,40
71,Charles Salon,Women Haircut,Blowdry (Advanced Stylist),35,30
71,Charles Salon,Women Haircut,Children upto 15 (Advanced Stylist),40,30
71,Charles Salon,Women Haircut,15 minute dry styling (Advanced Stylist),20,30
71,Charles Salon,Women Haircut,Specialist hair up (Advanced Stylist),55,40
71,Charles Salon,Women Haircut,Fringe trim (Advanced Stylist),15,25
71,Charles Salon,Women Haircut,Cut and finish (Senior Stylist),85,50
71,Charles Salon,Women Haircut,Blowdry (Senior Stylist),35,30
71,Charles Salon,Women Haircut,15 minute dry styling (Senior Stylist),20,30
71,Charles Salon,Women Haircut,Specialist hair up (Senior Stylist),65,35
71,Charles Salon,Women Haircut,Fringe trim (Senior Stylist),15,25
71,Charles Salon,Women Haircut,Cut and finish (Master Stylist),100,60
71,Charles Salon,Women Haircut,Blowdry (Master Stylist),40,35
71,Charles Salon,Women Haircut,15 minute dry styling (Master Stylist),25,30
71,Charles Salon,Women Haircut,Specialist hair up (Master Stylist),65,40
71,Charles Salon,Women Haircut,Fringe trim (Master Stylist),15,25
71,Charles Salon,Women Haircut,Cut and finish (Senior Master),110,55
71,Charles Salon,Women Haircut,Blowdry (Senior Master),45,35
71,Charles Salon,Women Haircut,15 minute dry styling (Senior Master),25,30
71,Charles Salon,Women Haircut,Specialist hair up (Senior Master),65,40
71,Charles Salon,Women Haircut,Fringe trim (Senior Master),15,30
71,Charles Salon,Women Haircut,Cut and finish (Principle),125,60
71,Charles Salon,Women Haircut,Blowdry (Principle),55,40
71,Charles Salon,Women Haircut,15 minute dry styling (Principle),25,30
71,Charles Salon,Women Haircut,Specialist hair up (Principle),70,40
71,Charles Salon,Women Haircut,Fringe trim (Principle),15,30
71,Charles Salon,Colour,Shine on (Stylist),25,35
71,Charles Salon,Colour,Colour gloss (Stylist),50,40
71,Charles Salon,Colour,Re-growth (Stylist),60,40
71,Charles Salon,Colour,Full head (Stylist),75,40
71,Charles Salon,Colour,Foil high/lowlights 1/4 head (Stylist),75,40
71,Charles Salon,Colour,Foil high/lowlights 1/2 head (Stylist),110,60
71,Charles Salon,Colour,Foil high/lowlights full head (Stylist),140,60
71,Charles Salon,Colour,CW colour contouring (Stylist),80,40
71,Charles Salon,Colour,Balayage half head (Stylist),110,60
71,Charles Salon,Colour,balayage full head (Stylist),140,60
71,Charles Salon,Colour,Shine on (Advanced Stylist),25,30
71,Charles Salon,Colour,Colour gloss (Advanced Stylist),55,35
71,Charles Salon,Colour,Re-growth (Advanced Stylist),65,40
71,Charles Salon,Colour,Full head (Advanced Stylist),85,45
71,Charles Salon,Colour,Foil high/lowlights 1/4 head (Advanced Stylist),85,45
71,Charles Salon,Colour,Foil high/lowlights 1/2 head (Advanced Stylist),115,60
71,Charles Salon,Colour,Foil high/lowlights full head (Advanced Stylist),145,70
71,Charles Salon,Colour,CW colour contouring (Advanced Stylist),90,55
71,Charles Salon,Colour,Balayage half head (Advanced Stylist),115,60
71,Charles Salon,Colour,balayage full head (Advanced Stylist),145,60
71,Charles Salon,Colour,Shine on (Senior Master),25,30
71,Charles Salon,Colour,Colour gloss (Senior Master),60,40
71,Charles Salon,Colour,Re-growth (Senior Master),80,45
71,Charles Salon,Colour,Full head (Senior Master),95,45
71,Charles Salon,Colour,Foil high/lowlights 1/4 head (Senior Master),90,45
71,Charles Salon,Colour,Foil high/lowlights 1/2 head (Senior Master),130,60
71,Charles Salon,Colour,Foil high/lowlights full head (Senior Master),155,80
71,Charles Salon,Colour,CW colour contouring (Senior Master),95,55
71,Charles Salon,Colour,Balayage half head (Senior Master),130,60
71,Charles Salon,Colour,balayage full head (Senior Master),155,80
71,Charles Salon,Colour,Shine on (Colour Expert),25,30
71,Charles Salon,Colour,Colour gloss (Colour Expert),65,40
71,Charles Salon,Colour,Re-growth (Colour Expert),85,45
71,Charles Salon,Colour,Full head (Colour Expert),105,60
71,Charles Salon,Colour,Foil high/lowlights 1/4 head (Colour Expert),105,60
71,Charles Salon,Colour,Foil high/lowlights 1/2 head (Colour Expert),145,60
71,Charles Salon,Colour,Foil high/lowlights full head (Colour Expert),180,60
71,Charles Salon,Colour,Blonde full head (Colour Expert),130,60
71,Charles Salon,Colour,CW colour contouring (Colour Expert),110,60
71,Charles Salon,Colour,Balayage half head (Colour Expert),145,60
71,Charles Salon,Colour,balayage full head (Colour Expert),180,60
71,Charles Salon,Colour,Shine on (Principle),25,30
71,Charles Salon,Colour,Colour gloss (Principle),70,40
71,Charles Salon,Colour,Re-growth (Principle),90,50
71,Charles Salon,Colour,Full head (Principle),110,60
71,Charles Salon,Colour,Foil high/lowlights 1/4 head (Principle),110,60
71,Charles Salon,Colour,Foil high/lowlights 1/2 head (Principle),155,60
71,Charles Salon,Colour,Foil high/lowlights full head (Principle),190,60
71,Charles Salon,Colour,Blonde full head (Principle),130,60
71,Charles Salon,Colour,CW colour contouring (Principle),125,60
71,Charles Salon,Colour,Balayage half head (Principle),155,60
71,Charles Salon,Colour,balayage full head (Principle),190,120
71,Charles Salon,Treatments,Express conditioning treatment (Stylist),10,25
71,Charles Salon,Treatments,Hot towel deep conditioning treatment (Stylist),15,30
71,Charles Salon,Treatments,Smoothing conditioning treatment (Stylist),60,40
71,Charles Salon,Treatments,At home service (Per hour) (Stylist),115,60
71,Charles Salon,Treatments,Express conditioning treatment (Advanced Stylist),10,25
71,Charles Salon,Treatments,Hot towel deep conditioning treatment (Advanced Stylist),15,30
71,Charles Salon,Treatments,Smoothing conditioning treatment (Advanced Stylist),60,40
71,Charles Salon,Treatments,At home service (Per hour) (Advanced Stylist),120,60
71,Charles Salon,Treatments,Express conditioning treatment (Senior Stylist),10,20
71,Charles Salon,Treatments,Hot towel deep conditioning treatment (Senior Stylist),15,30
71,Charles Salon,Treatments,Smoothing conditioning treatment (Senior Stylist),65,40
71,Charles Salon,Treatments,At home service (Per hour) (Senior Stylist),130,60
71,Charles Salon,Treatments,Express conditioning treatment (Master),10,25
71,Charles Salon,Treatments,Hot towel deep conditioning treatment (Master),15,30
71,Charles Salon,Treatments,Smoothing conditioning treatment (Master),65,40
71,Charles Salon,Treatments,At home service (Per hour) (Master),140,60
71,Charles Salon,Treatments,Express conditioning treatment (Principle),10,25
71,Charles Salon,Treatments,Hot towel deep conditioning treatment (Principle),15,30
71,Charles Salon,Treatments,Smoothing conditioning treatment (Principle),65,40
71,Charles Salon,Treatments,At home service (Per hour) (Principle),155,60
71,Charles Salon,Smoothing and volumising,Nanopure smoothing,200,90
71,Charles Salon,Smoothing and volumising,Hair smoothing,150,80
71,Charles Salon,Smoothing and volumising,Hair straightening half head,240,120
71,Charles Salon,Smoothing and volumising,Hair straightening full head,350,120
71,Charles Salon,Hair extensions,Super Boost,250,120
71,Charles Salon,Hair extensions,Be colourful,250,120
71,Charles Salon,Hair extensions,Express endless,500,120
71,Charles Salon,Men Haircut,"Wash, cut and finish (Stylist)",35,30
71,Charles Salon,Men Haircut,"Wash, cut and finish (Advance Stylist)",40,30
71,Charles Salon,Men Haircut,"Wash, cut and finish (Senior Stylist)",58,40
71,Charles Salon,Men Haircut,"Wash, cut and finish (Master Stylist)",58,40
71,Charles Salon,Men Haircut,"Wash, cut and finish (Barber Specialist)",60,45
71,Charles Salon,Men Haircut,"Wash, cut and finish (Senior Master)",68,45
71,Charles Salon,Men Haircut,"Wash, cut and finish (Principle)",74,50
71,Charles Salon,Men Clipper Services,Clipper cut effect (Stylist),30,30
71,Charles Salon,Men Clipper Services,Skin fading (Stylist),35,45
71,Charles Salon,Men Clipper Services,Clipper crop (Stylist),20,15
71,Charles Salon,Men Clipper Services,Hairline tidy up (Stylist),10,15
71,Charles Salon,Men Clipper Services,Clipper cut effect (Advanced Stylist),32,30
71,Charles Salon,Men Clipper Services,Skin fading (Advanced Stylist),40,45
71,Charles Salon,Men Clipper Services,Clipper crop (Advanced Stylist),20,15
71,Charles Salon,Men Clipper Services,Hairline tidy up (Advanced Stylist),10,15
71,Charles Salon,Men Clipper Services,Clipper cut effect (Senior Stylist),33,30
71,Charles Salon,Men Clipper Services,Skin fading (Senior Stylist),58,45
71,Charles Salon,Men Clipper Services,Clipper crop (Senior Stylist),20,15
71,Charles Salon,Men Clipper Services,Hairline tidy up (Senior Stylist),10,15
71,Charles Salon,Men Clipper Services,Clipper cut effect (Master Stylist),33,30
71,Charles Salon,Men Clipper Services,Skin fading (Master Stylist),58,45
71,Charles Salon,Men Clipper Services,Clipper crop (Master Stylist),20,15
71,Charles Salon,Men Clipper Services,Hairline tidy up (Master Stylist),10,15
71,Charles Salon,Men Clipper Services,Clipper cut effect (Barber Specialist),40,30
71,Charles Salon,Men Clipper Services,Skin fading (Barber Specialist),60,45
71,Charles Salon,Men Clipper Services,Clipper crop (Barber Specialist),20,15
71,Charles Salon,Men Clipper Services,Hairline tidy up (Barber Specialist),10,15
71,Charles Salon,Men Clipper Services,Clipper cut effect (Senior Master),42,30
71,Charles Salon,Men Clipper Services,Skin fading (Senior Master),68,45
71,Charles Salon,Men Clipper Services,Clipper crop (Senior Master),20,15
71,Charles Salon,Men Clipper Services,Hairline tidy up (Senior Master),10,15
71,Charles Salon,Men Clipper Services,Clipper cut effect (Principle),47,30
71,Charles Salon,Men Clipper Services,Skin fading (Principle),74,45
71,Charles Salon,Men Clipper Services,Clipper crop (Principle),25,15
71,Charles Salon,Men Clipper Services,Hairline tidy up (Principle),10,15
71,Charles Salon,Men Colour Services,Full head permanent (Stylist),35,30
71,Charles Salon,Men Colour Services,Grey blending (Stylist),20,30
71,Charles Salon,Men Colour Services,Highlights (Stylist),35,30
71,Charles Salon,Men Colour Services,Full head permanent (Advanced Stylist),37,35
71,Charles Salon,Men Colour Services,Grey blending (Advanced Stylist),23,30
71,Charles Salon,Men Colour Services,Highlights (Advanced Stylist),37,35
71,Charles Salon,Men Colour Services,Full head permanent (Senior Stylist),47,35
71,Charles Salon,Men Colour Services,Grey blending (Senior Stylist),26,30
71,Charles Salon,Men Colour Services,Highlights (Senior Stylist),47,35
71,Charles Salon,Men Colour Services,Full head permanent (Master Stylist),47,35
71,Charles Salon,Men Colour Services,Grey blending (Master Stylist),26,30
71,Charles Salon,Men Colour Services,Highlights (Master Stylist),47,35
71,Charles Salon,Men Colour Services,Full head permanent (Barber Specialist),50,35
71,Charles Salon,Men Colour Services,Grey blending (Barber Specialist),26,30
71,Charles Salon,Men Colour Services,Highlights (Barber Specialist),50,35
71,Charles Salon,Men Colour Services,Full head permanent (Senior master),53,35
71,Charles Salon,Men Colour Services,Grey blending (Senior master),32,30
71,Charles Salon,Men Colour Services,Highlights (Senior master),53,35
71,Charles Salon,Men Colour Services,Full head permanent (Principle),58,35
71,Charles Salon,Men Colour Services,Grey blending (Principle),37,30
71,Charles Salon,Men Colour Services,Highlights (Principle),58,35
71,Charles Salon,Men Treatments,Deep Head massage (Stylist),16,30
71,Charles Salon,Men Treatments,Deep Head massage (Advanced Stylist),16,30
71,Charles Salon,Men Treatments,Deep Head massage (Senior Stylist),16,30
71,Charles Salon,Men Treatments,Deep Head massage (Master Stylist),16,30
71,Charles Salon,Men Treatments,Deep Head massage (Barber Specialist),16,30
71,Charles Salon,Men Treatments,Deep Head massage (Senior Master),16,30
71,Charles Salon,Men Treatments,Deep Head massage (Principle),16,30
500,"Sean Hanna, Bristol",Ladies,Cut and finish,44,50
500,"Sean Hanna, Bristol",Ladies,Blowdry,20,30
500,"Sean Hanna, Bristol",Men ,Cut and finish,34,30
500,"Sean Hanna, Bristol",Others,Perming,85,55
500,"Sean Hanna, Bristol",Colouring,Full Head Foils,100,60
500,"Sean Hanna, Bristol",Colouring,Half Head Foils,80,60
500,"Sean Hanna, Bristol",Colouring,T-Section Foils,70,50
500,"Sean Hanna, Bristol",Colouring,Colour And Foils (36 - 60),115,60
500,"Sean Hanna, Bristol",Colouring,Colour And Foils (16 - 35),95,60
500,"Sean Hanna, Bristol",Colouring,Colour And Foils (1 - 15),75,55
500,"Sean Hanna, Bristol",Colouring,Permanent Colour,45,40
500,"Sean Hanna, Bristol",Colouring,Pre-Lightener,85,60
500,"Sean Hanna, Bristol",Colouring,Colour Wash / Toner,13,30
500,"Sean Hanna, Bristol",Colouring,Quatrolights,130,60
500,"Sean Hanna, Bristol",Colouring,Colour Melt Or Kiss,80,50
670,Headquarters Hair Salon,Junior Stylist,Ladies cut And blowdry,30,35
670,Headquarters Hair Salon,Junior Stylist,Ladies shampoo and blowdry,18,25
670,Headquarters Hair Salon,Junior Stylist,Mens cut And blowdry,20,30
670,Headquarters Hair Salon,Stylist,Ladies cut And blowdry,50,35
670,Headquarters Hair Salon,Stylist,Ladies shampoo and blowdry,25,20
670,Headquarters Hair Salon,Stylist,Mens cut And blowdry,37,30
670,Headquarters Hair Salon,Senior Stylist,Ladies cut And blowdry,50,40
670,Headquarters Hair Salon,Senior Stylist,Ladies shampoo and blowdry,30,20
670,Headquarters Hair Salon,Senior Stylist,Mens cut And blowdry,43,30
670,Headquarters Hair Salon,Seniour Consultant,Ladies cut And blowdry,61,35
670,Headquarters Hair Salon,Seniour Consultant,Ladies shampoo and blowdry,35,20
670,Headquarters Hair Salon,Seniour Consultant,Mens cut And blowdry,49,25
670,Headquarters Hair Salon,Ladies,Ladies shampoo and blowdry,25,30
670,Headquarters Hair Salon,Men,Mens cut And blowdry,37,30
70,Joe and Co Salon,Haircut and Style,Wash cut and style (Lead Men Stylist),54,45
70,Joe and Co Salon,Haircut and Style,Wash cut and style (Senior Men Stylist),49,45
70,Joe and Co Salon,Haircut and Style,Wash cut and style (Men Stylist),44,45
70,Joe and Co Salon,Haircut and Style,Clipper crop. One grade All over,30,30
70,Joe and Co Salon,Face,Express beard Tidy Maintenance,20,15
70,Joe and Co Salon,Face,"Beard shape, cleanse, condition",30,30
70,Joe and Co Salon,Face,"Luxury beard shape, line out, cleanse, condition",45,45
70,Joe and Co Salon,Face,Moustache shape and style,15,15
70,Joe and Co Salon,Face,Traditional wet shave,48,45
70,Joe and Co Salon,Face,Express facial,28,30
70,Joe and Co Salon,Technical,Express grey hair blending,28,15
70,Joe and Co Salon,Technical,Hair straightening,65,60
70,Joe and Co Salon,Full Services,Taditional wet shave and express facial,70,70
70,Joe and Co Salon,Full Services,"Wash, cut, style and traditional wet shave",90,90
70,Joe and Co Salon,Full Services,"Wash, cut, style and traditional wet shave and express facial",118,115
70,Joe and Co Salon,Maintenance,Hairline tidy,15,15
70,Joe and Co Salon,Maintenance,Hair treatment and massage,15,15
70,Joe and Co Salon,Maintenance,Ear wax,10,5
70,Joe and Co Salon,Maintenance,Nose wax,10,5
13602,Singhar Beauty,Eye treatments,Eyelash lift,35,30
13602,Singhar Beauty,Eye treatments,Flare Lashes,25,30
13602,Singhar Beauty,Eye treatments,Luxury strip lashes,15,30
13602,Singhar Beauty,Eye treatments,Take off,20,15
13602,Singhar Beauty,Facial,Back facial,85,90
13602,Singhar Beauty,Facial,Ultrasonic facial,30,30
13602,Singhar Beauty,Make-up,Bridal makeup,150,90
13602,Singhar Beauty,Make-up,Day makeup,50,45
13602,Singhar Beauty,Make-up,Party makeup,70,45
13602,Singhar Beauty,Nails,Gel nails,35,30
13602,Singhar Beauty,Nails,Gel toe nails,40,30
13602,Singhar Beauty,Nails,In fills,35,30
13602,Singhar Beauty,Nails,Nail design,10,15
13602,Singhar Beauty,Threading,Cheesks,8,15
13602,Singhar Beauty,Threading,Forehead,8,15
13602,Singhar Beauty,Threading,Full face and neck,30,30
13602,Singhar Beauty,Threading,Neck,8,15
13602,Singhar Beauty,Threading,Sides,10,15
