12996	Simply Beauty Of Chiswick	Face treatments	Bio Peel treatment	62	60	0	0	0
12996	Simply Beauty Of Chiswick	Face treatments	Deep pore cleanse	70	75			
12996	Simply Beauty Of Chiswick	Face treatments	Relaxation treatment	48	45			
12996	Simply Beauty Of Chiswick	Face treatments	Microneedling	62	45			
12996	Simply Beauty Of Chiswick	Threading	Eyebrow threading	15	15			
12996	Simply Beauty Of Chiswick	Threading	Lip/Chin threading	9	15			
12996	Simply Beauty Of Chiswick	Threading	Full face threading	40	45			
12996	Simply Beauty Of Chiswick	Threading	Eyebrow tint	15	15			
12996	Simply Beauty Of Chiswick	Make-up	Ombre/ Powder brow	365	120			
12996	Simply Beauty Of Chiswick	Make-up	Natural lip contour	395	120			
12996	Simply Beauty Of Chiswick	Make-up	Lash definer	310	120			
12996	Simply Beauty Of Chiswick	Make-up	Fine eyeliner	365	120			
12996	Simply Beauty Of Chiswick	Make-up	Sensous beauty mark	50	45			
13017	Tammy Becker Make-Up and Beauty Salon	Eyelash tinting	Eyelash	12	15			
13017	Tammy Becker Make-Up and Beauty Salon	Eyelash tinting	Eyebrow	8	15			
13017	Tammy Becker Make-Up and Beauty Salon	Eyelash tinting	Full eyebrow shape	15	15			
13017	Tammy Becker Make-Up and Beauty Salon	Others	Oxygen therapy	65	60			
13017	Tammy Becker Make-Up and Beauty Salon	Facial treatment	The relaxer	45	60			
13017	Tammy Becker Make-Up and Beauty Salon	Facial treatment	The eye zone	35	30			
13017	Tammy Becker Make-Up and Beauty Salon	Facial treatment	Beauty express	35	30			
13017	Tammy Becker Make-Up and Beauty Salon	Hair removal	Sides of face	60	60			
13017	Tammy Becker Make-Up and Beauty Salon	Hair removal	Lip or chin	40	45			
13017	Tammy Becker Make-Up and Beauty Salon	Hair removal	Eyebrows	30	30			
13017	Tammy Becker Make-Up and Beauty Salon	Hair removal	Bikini	60	45			
13017	Tammy Becker Make-Up and Beauty Salon	Hair removal	Full leg	230	75			
13017	Tammy Becker Make-Up and Beauty Salon	Hair removal	Full arm	120	60			
13035	Bloomsbury Beauty	Facial treatments	Express facial	30	30			
13035	Bloomsbury Beauty	Facial treatments	Super beauty treatment	45	60			
13035	Bloomsbury Beauty	Facial treatments	Electrical facials	45	60			
13035	Bloomsbury Beauty	Facial treatments	Wax facials	45	60			
13035	Bloomsbury Beauty	Facial treatments	Back cleanse	45	60			
13035	Bloomsbury Beauty	Facial treatments	Eyebrow shape	7	15			
13035	Bloomsbury Beauty	Facial treatments	Eyebrow tint	10	15			
13035	Bloomsbury Beauty	Massage	"Back, neck and shoulder"	30	30			
13035	Bloomsbury Beauty	Massage	Full body	55	60			
13035	Bloomsbury Beauty	Massage	Oil candle massage	55	60			
13035	Bloomsbury Beauty	Massage	Chocolate back cleanse	45	60			
13035	Bloomsbury Beauty	Massage	Chocolate massage	30	30			
13035	Bloomsbury Beauty	Waxing	Full leg	28	30			
13035	Bloomsbury Beauty	Waxing	Underarm wax	5	15			
13035	Bloomsbury Beauty	Waxing	Full arm	22	30			
13035	Bloomsbury Beauty	Waxing	Nostrills	5	15			
13035	Bloomsbury Beauty	Waxing	Lip	7	15			
13035	Bloomsbury Beauty	Waxing	Chin	7	15			
13035	Bloomsbury Beauty	Waxing	Stomach	15	15			
13035	Bloomsbury Beauty	Waxing	Braziian	25	30			
13035	Bloomsbury Beauty	Waxing	Hollywood	27	30			
13046	The Cove Spa	Spa rituals	Facial and massage	65	75			
13046	The Cove Spa	Spa rituals	Facial and file and polish	65	75			
13046	The Cove Spa	Spa rituals	Massage and file and polish	65	75			
13046	The Cove Spa	Spa rituals	Glow ritual	150	180			
13046	The Cove Spa	Massage	Indian head massage	48	60			
13046	The Cove Spa	Massage	Deep tissue massage	65	60			
13046	The Cove Spa	Massage	Express massage	35	30			
13046	The Cove Spa	Massage	Thai oil massage	65	60			
13046	The Cove Spa	Massage	Environ facial	80	60			
13046	The Cove Spa	Eye treatments	Eyebrow threading	10	15			
13046	The Cove Spa	Eye treatments	Eyebrow wax	12	15			
13046	The Cove Spa	Eye treatments	Eyebrow hot wax	15	15			
13046	The Cove Spa	Hair removal	Electrolysis	20	30			
13046	The Cove Spa	Hair removal	Upperlip	10	15			
13046	The Cove Spa	Hair removal	Chin	10	15			
13046	The Cove Spa	Hair removal	Face	35	30			
13047	Jaxon Wax & Nail Bar	Waxing	Full leg	28	30			
13047	Jaxon Wax & Nail Bar	Waxing	Underarm wax	5	15			
13047	Jaxon Wax & Nail Bar	Waxing	Full arm	22	30			
13047	Jaxon Wax & Nail Bar	Waxing	Nostrills	5	15			
13047	Jaxon Wax & Nail Bar	Waxing	Lip	7	15			
13047	Jaxon Wax & Nail Bar	Waxing	Chin	7	15			
13047	Jaxon Wax & Nail Bar	Waxing	Stomach	15	15			
13047	Jaxon Wax & Nail Bar	Waxing	Braziian	25	30			
13047	Jaxon Wax & Nail Bar	Waxing	Hollywood	27	30			
13102	Beautyfini	Nails	Manicure	18	30			
13102	Beautyfini	Nails	Pedicure	25	30			
13102	Beautyfini	Shellac	Polish change	12	15			
13102	Beautyfini	Shellac	Full manicure	18	30			
13102	Beautyfini	Shellac	Full pedicure	28	30			
13102	Beautyfini	Ombre	Treatment	45	45			
13102	Beautyfini	Ombre	Full set	42	45			
13102	Beautyfini	Ombre	Overlay	42	45			
13102	Beautyfini	Ombre	Maintain	40	45			
13102	Beautyfini	Hollywood waxing	Bikini line	20	30			
13102	Beautyfini	Hollywood waxing	Brazilian	38	45			
13102	Beautyfini	Hollywood waxing	Hollywood	42	45			
13152	Irinas Beauty Salon	Facial treatments	Mini facial	35	30			
13152	Irinas Beauty Salon	Facial treatments	Teenage facial	45	45			
13152	Irinas Beauty Salon	Facial treatments	Radiant facial	55	45			
13152	Irinas Beauty Salon	Facial treatments	Deep cleansing facial	55	60			
13152	Irinas Beauty Salon	Eye treatments	Eyebrow shape	13	15			
13152	Irinas Beauty Salon	Eye treatments	Eyebrow tint	10	15			
13152	Irinas Beauty Salon	Eye treatments	Eyelash tint	15	15			
13152	Irinas Beauty Salon	Waxing	Full leg	30	30			
13152	Irinas Beauty Salon	Waxing	Bikini	15	15			
13152	Irinas Beauty Salon	Waxing	Brazilian	30	30			
13152	Irinas Beauty Salon	Waxing	Underarm wax	15	10			
13152	Irinas Beauty Salon	Waxing	Full arm	22	30			
13152	Irinas Beauty Salon	Waxing	Face	20	15			
13160	No1 Hair and Beauty	Men Hair	Haircut	14	30			
13160	No1 Hair and Beauty	Men Hair	"Wash, cut and style"	14	30			
13160	No1 Hair and Beauty	Men Hair	Full head colour	25	30			
13160	No1 Hair and Beauty	Ladies hair	Wash and blowdry	18	30			
13160	No1 Hair and Beauty	Ladies hair	Wash and cut	20	30			
13160	No1 Hair and Beauty	Ladies hair	"Wash, cut and blowdry"	23	30			
13160	No1 Hair and Beauty	Ladies hair	Hairup with wash blowdry	40	45			
13160	No1 Hair and Beauty	Hair Colour	Root colour and blowdry	35	45			
13160	No1 Hair and Beauty	Hair Colour	Root colour cut and blowdry	45	45			
13160	No1 Hair and Beauty	Hair Colour	Ombre and blowdry	70	60			
13160	No1 Hair and Beauty	Hair Colour	Olaplex	20	30			
13191	Beauty Avenue	Dermalogica facial	Skin solver	10	15			
13191	Beauty Avenue	Dermalogica facial	Pro skin	30	30			
13191	Beauty Avenue	Dermalogica facial	Eyebrow lifting	195	120			
13191	Beauty Avenue	Nails	Manicure	22	30			
13191	Beauty Avenue	Nails	Pedicure	25	30			
13191	Beauty Avenue	Nails	Spa manicure	35	30			
13191	Beauty Avenue	Nails	Spa pedicure	42	30			
13191	Beauty Avenue	Nails	Callus peel	22	30			
13191	Beauty Avenue	Make-up	Bridal make-up	75	60			
13191	Beauty Avenue	Make-up	Bridal hair	75	60			
13191	Beauty Avenue	Make-up	Special make-up	60	60			
13191	Beauty Avenue	Make-up	Make-up lesson	60	60			
13195	Lush Hair & Beauty Salon	Ladies dry haircut	Long hair	15	60			
13195	Lush Hair & Beauty Salon	Ladies dry haircut	Short hair	15	60			
13195	Lush Hair & Beauty Salon	Ladies dry haircut	Medium	15	45			
13195	Lush Hair & Beauty Salon	Ladies wet haircut	Long hair	18	45			
13195	Lush Hair & Beauty Salon	Ladies wet haircut	Short hair	18	45			
13195	Lush Hair & Beauty Salon	Ladies wet haircut	Medium	18	45			
13195	Lush Hair & Beauty Salon	Manicure	File and polish	6	15			
13195	Lush Hair & Beauty Salon	Manicure	Deluxe manicure	15	15			
13195	Lush Hair & Beauty Salon	Manicure	Basic manicure	12	30			
13195	Lush Hair & Beauty Salon	Pedicure	File and polish	6	15			
13195	Lush Hair & Beauty Salon	Pedicure	Deluxe pedicure	20	45			
13195	Lush Hair & Beauty Salon	Pedicure	Basic pedicure	20	30			
13195	Lush Hair & Beauty Salon	Waxing	Brazilian wax	15	15			
13195	Lush Hair & Beauty Salon	Waxing	Bikini wax	6	15			
13195	Lush Hair & Beauty Salon	Waxing	Hollywood wax	25	30			
13269	FreshFaces	Facials	Vitamin treatment	60	60			
13269	FreshFaces	Facials	Hydrating boost	80	45			
13269	FreshFaces	Facials	Dermalogica facials	55	60			
13269	FreshFaces	Hair removal	Mono brow	30	30			
13269	FreshFaces	Hair removal	Upperlip	50	45			
13269	FreshFaces	Hair removal	Full face 	150	90			
13269	FreshFaces	Hair removal	Full arm	160	90			
13269	FreshFaces	Hair removal	Chest	170	90			
13269	FreshFaces	Hair removal	Bikini	80	75			
13269	FreshFaces	Hair removal	Brazilian	150	90			
13269	FreshFaces	Hair removal	Buttocks	125	60			
13269	FreshFaces	Waxing	Full leg	35	30			
13269	FreshFaces	Waxing	Full arm	20	30			
13269	FreshFaces	Waxing	Back	30	30			
13269	FreshFaces	Waxing	Chest	30	30			
13274	Ashanti Treatment Room	Eye treatments	Eyebrow tint	12	15			
13274	Ashanti Treatment Room	Eye treatments	Eyelash tint	12	15			
13274	Ashanti Treatment Room	Eye treatments	Eye contour treatment	25	30			
13274	Ashanti Treatment Room	Facials	Repechage facial	45	30			
13274	Ashanti Treatment Room	Facials	Classic facial	50	60			
13274	Ashanti Treatment Room	Facials	Express moisture mask	45	45			
13274	Ashanti Treatment Room	Facials	Refine perfecting facial	50	60			
13274	Ashanti Treatment Room	Facials	Hydra 4 facial	50	60			
13274	Ashanti Treatment Room	Facials	Four layer facial	65	60			
13274	Ashanti Treatment Room	Nails	Spa manicure	19	30			
13274	Ashanti Treatment Room	Nails	Classic spa manicure	25	45			
13274	Ashanti Treatment Room	Nails	Luxury spa manicure	34	60			
13274	Ashanti Treatment Room	Nails	Express spa pedicure	25	30			
13274	Ashanti Treatment Room	Nails	Clasic spa pedicure	30	45			
13274	Ashanti Treatment Room	Nails	Luxury spa pedicure	39	60			
13285	Warwick Beauty Spot	Face Hair removal	Unibrows	21	30			
13285	Warwick Beauty Spot	Face Hair removal	Upperlip	35	30			
13285	Warwick Beauty Spot	Face Hair removal	Chin	39	45			
13285	Warwick Beauty Spot	Face Hair removal	Full face	125	60			
13285	Warwick Beauty Spot	Body hair removal	Brazilian	99	60			
13285	Warwick Beauty Spot	Body hair removal	Hollywood	119	60			
13285	Warwick Beauty Spot	Body hair removal	Full arm	124	60			
13285	Warwick Beauty Spot	Body hair removal	Half arm	99	60			
13285	Warwick Beauty Spot	Body hair removal	Stomach	124	60			
13285	Warwick Beauty Spot	Body hair removal	Chest	99	60			
13285	Warwick Beauty Spot	Massage	Swedish massage	25	30			
13285	Warwick Beauty Spot	Massage	Aroma massage	25	30			
13285	Warwick Beauty Spot	Massage	Deep tissue massage	25	30			
13285	Warwick Beauty Spot	Massage	Indian head massage	25	30			
13285	Warwick Beauty Spot	Waxing	Brazilian	30	30			
13285	Warwick Beauty Spot	Waxing	Hollywood	30	30			
13285	Warwick Beauty Spot	Waxing	Chin	6	15			
13285	Warwick Beauty Spot	Waxing	Upperlip	6	15			
13285	Warwick Beauty Spot	Waxing	Full arm	18	30			
13285	Warwick Beauty Spot	Waxing	Full leg	25	30			
13296	ID Health & Beauty	Facial	Exclusive facial	52	60			
13296	ID Health & Beauty	Facial	Express facial	46	45			
13296	ID Health & Beauty	Facial	Mini facial	41	30			
13296	ID Health & Beauty	Manicure	Gel manicure	35	30			
13296	ID Health & Beauty	Manicure	Deluxe manicure	33	45			
13296	ID Health & Beauty	Manicure	Express manicure	24	30			
13296	ID Health & Beauty	Manicure	Shaoe and polish	13	15			
13296	ID Health & Beauty	Pedicure	Gel pedicure	41	30			
13296	ID Health & Beauty	Pedicure	Deluxe pedicure	38	60			
13296	ID Health & Beauty	Pedicure	Expess pedicure	33	45			
13296	ID Health & Beauty	Pedicure	Shape and polish	14	15			
13296	ID Health & Beauty	Massage	Full body massage	61	60			
13296	ID Health & Beauty	Massage	"Back, neck and shoulder"	45	30			
13296	ID Health & Beauty	Massage	Stone therapy	62	60			
13298	La Belle Jolie	Facials	Stress facial	34	30			
13298	La Belle Jolie	Facials	Anti pollution facial	52	45			
13298	La Belle Jolie	Facials	Advanced facial	72	60			
13298	La Belle Jolie	Facials	Signature facial	82	90			
13298	La Belle Jolie	Massage	Indian head massage	34	30			
13298	La Belle Jolie	Massage	Hot stone massage	70	80			
13298	La Belle Jolie	Waxing	Half leg	22	30			
13298	La Belle Jolie	Waxing	Full leg	33	45			
13298	La Belle Jolie	Waxing	Bikini	16	15			
13298	La Belle Jolie	Waxing	Buttocks	18	30			
13298	La Belle Jolie	Waxing	Full arm	19	30			
13298	La Belle Jolie	Waxing	Lip or chin	10	15			
13304	Kamini Beauty	Facials	Stress facial	34	30			
13304	Kamini Beauty	Facials	Anti pollution facial	52	45			
13304	Kamini Beauty	Facials	Advanced facial	72	60			
13304	Kamini Beauty	Facials	Signature facial	82	90			
13304	Kamini Beauty	Massage	Indian head massage	34	30			
13304	Kamini Beauty	Massage	Hot stone massage	70	80			
13304	Kamini Beauty	Waxing	Half leg	22	30			
13304	Kamini Beauty	Waxing	Full leg	33	45			
13304	Kamini Beauty	Waxing	Bikini	16	15			
13304	Kamini Beauty	Waxing	Buttocks	18	30			
13304	Kamini Beauty	Waxing	Full arm	19	30			
13304	Kamini Beauty	Waxing	Lip or chin	10	15			
13311	Wealden Health and Beauty	Facials	Face lift facial	45	45			
13311	Wealden Health and Beauty	Facials	Collage face mask	45	45			
13311	Wealden Health and Beauty	Facials	Grace deep cleansing facial	30	30			
13311	Wealden Health and Beauty	Facials	Aromatherapy facial	45	60			
13311	Wealden Health and Beauty	Men Grooming	Facials	45	60			
13311	Wealden Health and Beauty	Men Grooming	Chest or Back	35	45			
13311	Wealden Health and Beauty	Men Grooming	Upper arms	14	30			
13311	Wealden Health and Beauty	Eye treatments	Eyebrow tinting	11	30			
13311	Wealden Health and Beauty	Eye treatments	Eyelash tinting	15	30			
13311	Wealden Health and Beauty	Eye treatments	Eyebrow tinting and shaping	22	30			
13311	Wealden Health and Beauty	Eye treatments	Eyelash and eyebrow tinting	25	30			
13311	Wealden Health and Beauty	Hair removal	Eyebrows	25	30			
13311	Wealden Health and Beauty	Hair removal	Lip	25	30			
13311	Wealden Health and Beauty	Hair removal	Chin	20	30			
13330	The Body Toning Studio	Men facial	Men intensive facial	70	60			
13330	The Body Toning Studio	Men facial	Express facial	50	45			
13330	The Body Toning Studio	Massage	Full body massage	60	60			
13330	The Body Toning Studio	Massage	Hot stone massage	70	60			
13330	The Body Toning Studio	Massage	Back and shoulder	40	30			
13330	The Body Toning Studio	Massage	Indian head massage	40	30			
13330	The Body Toning Studio	Waxing	Bikini	18	30			
13330	The Body Toning Studio	Waxing	Full leg	33	30			
13330	The Body Toning Studio	Waxing	Underarm wax	18	30			
13330	The Body Toning Studio	Waxing	Full arm	30	30			
13330	The Body Toning Studio	Waxing	Lip and chin	15	30			
13330	The Body Toning Studio	Waxing	Eyebrow 	17	15			
13330	The Body Toning Studio	Eye treatments	Eyelash tint	23	30			
13330	The Body Toning Studio	Eye treatments	Eyebrow tint	14	30			
13330	The Body Toning Studio	Eye treatments	Eyelash perming	40	30			
13388	Beauty and Detox Spa	Facials	Japanese facial	60	60			
13388	Beauty and Detox Spa	Facials	Microdermabrasion	55	60			
13388	Beauty and Detox Spa	Facials	Drainage massage	60	60			
13388	Beauty and Detox Spa	Facials	High frequency	60	60			
13388	Beauty and Detox Spa	Massage	Swedish massage	50	60			
13388	Beauty and Detox Spa	Massage	Deep tissue massage	50	60			
13388	Beauty and Detox Spa	Massage	Aromatherapy	55	60			
13388	Beauty and Detox Spa	Massage	"Back, neck and shoulder"	30	30			
13388	Beauty and Detox Spa	Massage	Warm candle	60	60			
13388	Beauty and Detox Spa	Colon Hydrotherapy	Colon irrigation	75	60			
13388	Beauty and Detox Spa	Colon Hydrotherapy	Full body detox	140	75			
13388	Beauty and Detox Spa	Colon Hydrotherapy	Unblock and cleanse	120	60			
13388	Beauty and Detox Spa	Colon Hydrotherapy	Mini health test	90	60			
13388	Beauty and Detox Spa	Men massage	"Back, neck and shoulder"	30	30			
13388	Beauty and Detox Spa	Men massage	Swedish massage	50	45			
13388	Beauty and Detox Spa	Men massage	Deep tissue massage	50	45			
13388	Beauty and Detox Spa	Men massage	Hot stone massage	60	60			
13432	Mimosa Beauty	Facials	Vitage facial treatment	35	30			
13432	Mimosa Beauty	Facials	Luxury Vitage facial treatment	55	60			
13432	Mimosa Beauty	Body treatment	Hopi ear candling	30	30			
13432	Mimosa Beauty	Body treatment	Full body scrub	38	45			
13432	Mimosa Beauty	Body treatment	Cleansing back treatment	32	30			
13432	Mimosa Beauty	Eye treatments	Eyelash tint	25	30			
13432	Mimosa Beauty	Eye treatments	Eyebrow tint	10	15			
13432	Mimosa Beauty	Eye treatments	Eyelash lift	30	30			
13432	Mimosa Beauty	Men waxing	Shoulder	12	15			
13432	Mimosa Beauty	Men waxing	Chest	22	30			
13432	Mimosa Beauty	Men waxing	Back	22	30			
13432	Mimosa Beauty	Men waxing	Arm	17	30			
13432	Mimosa Beauty	Men waxing	Underarm wax	12	15			
13432	Mimosa Beauty	Men waxing	Full leg	26	30			
13432	Mimosa Beauty	Manicure	Gel manicure	33	30			
13432	Mimosa Beauty	Manicure	Soak off	15	15			
13432	Mimosa Beauty	Manicure	Deluxe manicure	35	30			
13432	Mimosa Beauty	Pedicure	Gel pedicure	40	30			
13432	Mimosa Beauty	Pedicure	Soak off	15	15			
13432	Mimosa Beauty	Pedicure	Deluxe pedicure	40	30			
13439	Brows by Bennett	Others	Microblading	30	30			
13439	Brows by Bennett	Others	HD brows	30	30			
13439	Brows by Bennett	Others	LVL lashes	30	30			
13439	Brows by Bennett	Others	Yummy lashes	30	30			
13454	Moon and Stars Beauty Therapy	Facial	Skin removal	20	20			
13454	Moon and Stars Beauty Therapy	Facial	Candle back massage	30	30			
13454	Moon and Stars Beauty Therapy	Facial	Spa facial	25	30			
13454	Moon and Stars Beauty Therapy	Facial	Sensitive skin facial	50	60			
13454	Moon and Stars Beauty Therapy	Facial	Deep cleansing facial	50	60			
13454	Moon and Stars Beauty Therapy	Waxing	Full leg	28	45			
13454	Moon and Stars Beauty Therapy	Waxing	Full arm	20	30			
13454	Moon and Stars Beauty Therapy	Waxing	Stomach	15	15			
13454	Moon and Stars Beauty Therapy	Waxing	Full back	28	30			
13454	Moon and Stars Beauty Therapy	Eye treatments	Eyebrow tint	10	15			
13454	Moon and Stars Beauty Therapy	Eye treatments	Eyelash tint	14	30			
13454	Moon and Stars Beauty Therapy	Eye treatments	Eyebrow design	22	30			
13454	Moon and Stars Beauty Therapy	Men facial	Deep cleansing facial	50	60			
13454	Moon and Stars Beauty Therapy	Men facial	Facial and scalp massage	25	30			
13454	Moon and Stars Beauty Therapy	Men Hair removal	Eyebrow tidy	10	15			
13454	Moon and Stars Beauty Therapy	Men Hair removal	Nose	10	15			
13454	Moon and Stars Beauty Therapy	Men Hair removal	Ears	14	15			
13454	Moon and Stars Beauty Therapy	Men Hair removal	Stomach	22	30			
13454	Moon and Stars Beauty Therapy	Men Hair removal	Full back	32	45			
13475	Lash Lab	Lash Services	Classic full set	85	60			
13475	Lash Lab	Lash Services	Classic infill	50	45			
13475	Lash Lab	Lash Services	Russian volume	120	60			
13475	Lash Lab	Lash Services	Russian volume infill	70	60			
13475	Lash Lab	Lash Services	Hybrid lashes	100	60			
13475	Lash Lab	Lash Services	Professional removal	100	60			
13475	Lash Lab	Lash Services	Lash lift	55	60			
13500	Baigal Beauty Salon	Facial	Reviver facial	40	45			
13500	Baigal Beauty Salon	Facial	Pomegranate hydrator	55	45			
13500	Baigal Beauty Salon	Facial	Honey smoothing facial	55	60			
13500	Baigal Beauty Salon	Facial	Lifting facial	70	60			
13500	Baigal Beauty Salon	Facial	Comcumber eye refiner	40	45			
13500	Baigal Beauty Salon	Body Massage	Back and shoulder	35	30			
13500	Baigal Beauty Salon	Body Massage	Full body	50	60			
13500	Baigal Beauty Salon	Body Massage	Aromatherapy massage	40	45			
13500	Baigal Beauty Salon	Hand and foot care	Shape and polish	12	30			
13500	Baigal Beauty Salon	Hand and foot care	Express manicure	16	30			
13500	Baigal Beauty Salon	Hand and foot care	Full manicure	22	60			
13500	Baigal Beauty Salon	Hand and foot care	Gel manicure	30	60			
13500	Baigal Beauty Salon	Hand and foot care	Pedicure	30	60			
13500	Baigal Beauty Salon	Hand and foot care	Foot massage	15	15			
13500	Baigal Beauty Salon	Waxing	Full leg	27	30			
13500	Baigal Beauty Salon	Waxing	Bikini	12	15			
13500	Baigal Beauty Salon	Waxing	Brazilian	30	30			
13500	Baigal Beauty Salon	Waxing	Hollywood	32	30			
13500	Baigal Beauty Salon	Waxing	Full arm	20	30			
13500	Baigal Beauty Salon	Waxing	Full face	25	30			
13504	Serene Goddess London	Others	Basic manicure	20	30			
13504	Serene Goddess London	Others	Luxury manicure	25	30			
13504	Serene Goddess London	Others	Aromatherapy massage	35	45			
13504	Serene Goddess London	Others	Personalized body massage	50	60			
13531	Selfie nail & beauty bar	Nails	Shape and polish	8	15			
13531	Selfie nail & beauty bar	Nails	Shellac shape and polish	20	30			
13531	Selfie nail & beauty bar	Nails	Shellac manicure	30	30			
13531	Selfie nail & beauty bar	Make-up	Light makeup	25	30			
13531	Selfie nail & beauty bar	Make-up	Party makeup	35	30			
13531	Selfie nail & beauty bar	Make-up	Wedding makeup	100	60			
13531	Selfie nail & beauty bar	Feet	Shape and polish	11	15			
13531	Selfie nail & beauty bar	Feet	Pedicure	25	30			
13531	Selfie nail & beauty bar	Feet	Shellac toes and polish	30	30			
13531	Selfie nail & beauty bar	Facial	Gylcolic peel	45	30			
13531	Selfie nail & beauty bar	Facial	Mini facial	25	30			
13531	Selfie nail & beauty bar	Facial	Deep cleansing facial	50	60			
13531	Selfie nail & beauty bar	Facial	Anti aging facial	60	60			
13533	City Beauty Room	Female waxing	Brazilian	30	30			
13533	City Beauty Room	Female waxing	Hollywood	30	30			
13533	City Beauty Room	Female waxing	Bikini wax	20	30			
13533	City Beauty Room	Female facial waxing	Eyebrow	15	15			
13533	City Beauty Room	Female facial waxing	Cheek	15	15			
13533	City Beauty Room	Female facial waxing	Upperlip	10	15			
13533	City Beauty Room	Female facial waxing	Chin	10	15			
13533	City Beauty Room	Female facial waxing	Forehead	10	15			
13533	City Beauty Room	Female facial waxing	Neck	10	15			
13533	City Beauty Room	Male facial waxing	Eyebrow	20	30			
13533	City Beauty Room	Male facial waxing	Nose	10	15			
13533	City Beauty Room	Male facial waxing	Ears	10	15			
13533	City Beauty Room	Male facial waxing	Neck	10	15			
13533	City Beauty Room	Male body waxing	Hands	15	15			
13533	City Beauty Room	Male body waxing	Chest	30	30			
13533	City Beauty Room	Male body waxing	Abs	25	30			
13533	City Beauty Room	Male body waxing	Full back	30	30			
13533	City Beauty Room	Male body waxing	Full arms	30	30			
13533	City Beauty Room	Male body waxing	Full legs	30	30			
13539	Juju Beauty Salon	Face	Eyebrow	10	15			
13539	Juju Beauty Salon	Face	Middle brow	6	15			
13539	Juju Beauty Salon	Face	Nose	10	15			
13539	Juju Beauty Salon	Face	Upper lip	10	15			
13539	Juju Beauty Salon	Body	Underarms	14	15			
13539	Juju Beauty Salon	Body	Bikini	24	30			
13539	Juju Beauty Salon	Body	Brazilian	39	45			
13539	Juju Beauty Salon	Body	Hollywood	43	45			
13539	Juju Beauty Salon	Waxing	Underarm	14	15			
13539	Juju Beauty Salon	Waxing	Full arm	22	30			
13539	Juju Beauty Salon	Waxing	Forearms	15	15			
13539	Juju Beauty Salon	Waxing	Hands	6	15			
13539	Juju Beauty Salon	Waxing	Full stomach	15	15			
13539	Juju Beauty Salon	Waxing	Bikini	19	30			
13539	Juju Beauty Salon	Waxing	Hollywod	36	30			
13560	Glam Laser Hair & Beauty Salon	Hair 	Blowdry short	18	30			
13560	Glam Laser Hair & Beauty Salon	Hair 	Wash and cut	27	30			
13560	Glam Laser Hair & Beauty Salon	Hair 	Children haircut	15	30			
13560	Glam Laser Hair & Beauty Salon	Hair 	Gents haircut	17	30			
13560	Glam Laser Hair & Beauty Salon	Hair 	Hairup	45	45			
13560	Glam Laser Hair & Beauty Salon	Hair 	Perm long hair	85	60			
13560	Glam Laser Hair & Beauty Salon	Hair colouring	Highlight short hair	65	45			
13560	Glam Laser Hair & Beauty Salon	Hair colouring	Highlight long hair	95	60			
13560	Glam Laser Hair & Beauty Salon	Hair colouring	T-section	50	45			
13560	Glam Laser Hair & Beauty Salon	Hair colouring	Dip dye	55	45			
13560	Glam Laser Hair & Beauty Salon	Bridal package	Bridal hair and makeup	130	75			
13560	Glam Laser Hair & Beauty Salon	Bridal package	Makeup	60	45			
13560	Glam Laser Hair & Beauty Salon	Bridal package	Hair and manicure and pedicure	250	120			
13561	IMAGES Nails & Beauty	Others	Manicure	25	30			
13561	IMAGES Nails & Beauty	Others	Pedicure	35	30			
13561	IMAGES Nails & Beauty	Others	Gel colour	40	30			
13561	IMAGES Nails & Beauty	Waxing	Underarm	14	15			
13561	IMAGES Nails & Beauty	Waxing	Full arm	22	30			
13561	IMAGES Nails & Beauty	Waxing	Forearms	15	15			
13561	IMAGES Nails & Beauty	Waxing	Hands	6	15			
13561	IMAGES Nails & Beauty	Waxing	Full stomach	15	15			
13561	IMAGES Nails & Beauty	Waxing	Bikini	19	30			
13561	IMAGES Nails & Beauty	Waxing	Hollywod	36	30			
13561	IMAGES Nails & Beauty	Facial	Gylcolic peel	45	30			
13561	IMAGES Nails & Beauty	Facial	Mini facial	25	30			
13561	IMAGES Nails & Beauty	Facial	Deep cleansing facial	50	60			
13561	IMAGES Nails & Beauty	Facial	Anti aging facial	60	60			
13597	Superior Lashes	Others	Superior volume 1d set	65	60			
13597	Superior Lashes	Others	Superior volume 2d set	75	60			
13597	Superior Lashes	Others	Superior volume 6d set	100	75			
13597	Superior Lashes	Others	Superior volume 3d-6d set	90	60			
13597	Superior Lashes	Others	LVL lashes	45	45			
13597	Superior Lashes	Others	1D infills	25	30			
13602	Singhar Beauty	Eye treatments	Eyelash lift	35	30			
13602	Singhar Beauty	Eye treatments	Flare Lashes	25	30			
13602	Singhar Beauty	Eye treatments	Luxury strip lashes	15	30			
13602	Singhar Beauty	Eye treatments	Take off	20	15			
13602	Singhar Beauty	Facial	Back facial	85	90			
13602	Singhar Beauty	Facial	Ultrasonic facial	30	30			
13602	Singhar Beauty	Make-up	Bridal makeup	150	90			
13602	Singhar Beauty	Make-up	Day makeup	50	45			
13602	Singhar Beauty	Make-up	Party makeup	70	45			
13602	Singhar Beauty	Nails	Gel nails	35	30			
13602	Singhar Beauty	Nails	Gel toe nails	40	30			
13602	Singhar Beauty	Nails	In fills	35	30			
13602	Singhar Beauty	Nails	Nail design	10	15			
13602	Singhar Beauty	Threading	Cheesks	8	15			
13602	Singhar Beauty	Threading	Forehead	8	15			
13602	Singhar Beauty	Threading	Full face and neck	30	30			
13602	Singhar Beauty	Threading	Neck	8	15			
13602	Singhar Beauty	Threading	Sides	10	15			
13621	Gusto Hairdressing 	Women Hair	Cut and style	22	30			
13621	Gusto Hairdressing 	Women Hair	Wash and blowdry	15	15			
13621	Gusto Hairdressing 	Women Hair	Shampoo cut and blowdry	35	30			
13621	Gusto Hairdressing 	Women Hair	HIghlights	43	30			
13621	Gusto Hairdressing 	Women Hair	T-section	49	45			
13621	Gusto Hairdressing 	Women Hair	Regrowth root	34	30			
13621	Gusto Hairdressing 	Women Hair	Toner	15	15			
13621	Gusto Hairdressing 	Men Hair	Clipper cut	24	30			
13621	Gusto Hairdressing 	Men Hair	Clippers and scissor cut	14	30			
13621	Gusto Hairdressing 	Men Hair	Scissor cut	25	30			
13937	Gusto Hairdressing	Women Hair	Cut and style	22	30			
13937	Gusto Hairdressing 	Women Hair	Wash and blowdry	15	15			
13937	Gusto Hairdressing 	Women Hair	Shampoo cut and blowdry	35	30			
13937	Gusto Hairdressing 	Women Hair	HIghlights	43	30			
13937	Gusto Hairdressing 	Women Hair	T-section	49	45			
13937	Gusto Hairdressing 	Women Hair	Regrowth root	34	30			
13937	Gusto Hairdressing 	Women Hair	Toner	15	15			
13937	Gusto Hairdressing 	Men Hair	Clipper cut	24	30			
13937	Gusto Hairdressing 	Men Hair	Clippers and scissor cut	14	30			
13937	Gusto Hairdressing 	Men Hair	Scissor cut	25	30			
13816	Xit Body Hair Removal	Men Hair Removal	Full leg	50	45			
13816	Xit Body Hair Removal	Men Hair Removal	Butt	40	45			
13816	Xit Body Hair Removal	Men Hair Removal	Arms	40	45			
13816	Xit Body Hair Removal	Men Hair Removal	Underarm	15	15			
13816	Xit Body Hair Removal	Men Hair Removal	"Back, sack, crack"	90	60			
13816	Xit Body Hair Removal	Men Hair Removal	Full body	160	90			
13816	Xit Body Hair Removal	Women Hair Removal	Full leg	40	45			
13816	Xit Body Hair Removal	Women Hair Removal	Half leg	25	30			
13816	Xit Body Hair Removal	Women Hair Removal	Bikini line	30	30			
13816	Xit Body Hair Removal	Women Hair Removal	Brazilian	45	45			
13816	Xit Body Hair Removal	Women Hair Removal	Hollywood	45	45			
13816	Xit Body Hair Removal	Women Hair Removal	Full arm	30	30			
13816	Xit Body Hair Removal	Women Hair Removal	Eyebrow and lip	10	15			
13816	Xit Body Hair Removal	Women Hair Removal	Full body	100	60			
13829	Ena Salon	Women haircut	"Cut, blowdry, refine"	67	60			
13829	Ena Salon	Women haircut	Blowdry 	39	30			
13829	Ena Salon	Women hair colour	All over colour	70	60			
13829	Ena Salon	Women hair colour	Balayage/Ombre	160	90			
13829	Ena Salon	Women hair colour	Parting foils	100	60			
13829	Ena Salon	Women hair colour	Full head foils	160	90			
13829	Ena Salon	Nails	Classic manicure	35	45			
13829	Ena Salon	Nails	Deluxe manicure	54	60			
13829	Ena Salon	Nails	Classic pedicure	54	60			
13829	Ena Salon	Nails	Deluxe pedicure	70	75			
13829	Ena Salon	Waxing	Eyebrow 	23	15			
13829	Ena Salon	Waxing	Bikini	33	15			
13829	Ena Salon	Waxing	Brazilian	55	30			
13829	Ena Salon	Waxing	Hollywood	55	30			
13829	Ena Salon	Waxing	Full leg	90	60			
13829	Ena Salon	Waxing	Arms	34	30			
13829	Ena Salon	Waxing	Buttocks	30	15			
13888	HRM Beauty	Massage	Swedish	35	30			
13888	HRM Beauty	Massage	Lava shell	35	30			
13888	HRM Beauty	Massage	Bamboo	35	30			
13888	HRM Beauty	Massage	Indian head massage	35	30			
13888	HRM Beauty	Massage	Deep tissue	35	30			
13888	HRM Beauty	Facial	Prom	35	30			
13888	HRM Beauty	Facial	Wedding bride	45	45			
13888	HRM Beauty	Men Facial	Wedding groom	35	30			
13888	HRM Beauty	Men Facial	Party	30	30			
13888	HRM Beauty	Nails	Mini pedicure	8	15			
13888	HRM Beauty	Nails	Basic pedicure	13	13			
13888	HRM Beauty	Nails	Lxury pedicure	20	30			
13888	HRM Beauty	Nails	Mini manicure	8	15			
13888	HRM Beauty	Nails	Basic manicure	13	15			
13888	HRM Beauty	Nails	Luxury manicure	20	30			
13914	Tangles Hair Beauty	Ladies	Dry trim	17	15			
13914	Tangles Hair Beauty	Ladies	Wash and cut	23	30			
13914	Tangles Hair Beauty	Ladies	"Wash, cut and blowdry"	30	30			
13914	Tangles Hair Beauty	Ladies	Hairup	35	30			
13914	Tangles Hair Beauty	Ladies	Tinting/Colouring	50	45			
13914	Tangles Hair Beauty	Ladies	Perm 	50	45			
13914	Tangles Hair Beauty	Men	Dry cut	15	15			
13914	Tangles Hair Beauty	Men	Beard trim	8	15			
13914	Tangles Hair Beauty	Men	Hair colour	35	30			
13914	Tangles Hair Beauty	Men	Beard colour	20	30			
13914	Tangles Hair Beauty	Waxing	Full leg	30	30			
13914	Tangles Hair Beauty	Waxing	Bikini	15	15			
13914	Tangles Hair Beauty	Waxing	Brazilian	30	30			
13914	Tangles Hair Beauty	Waxing	Hollywood	35	35			
13914	Tangles Hair Beauty	Waxing	Underarm	12	15			
13914	Tangles Hair Beauty	Waxing	Full amrs	28	30			
13914	Tangles Hair Beauty	Massage	Indian head massage	30	30			
13914	Tangles Hair Beauty	Massage	Swedish full body	50	45			
13914	Tangles Hair Beauty	Massage	Aromatherapy massage	50	45			
13931	Edita Hair & Beauty	Women	Shampoo cut and blowdry	28	30			
13931	Edita Hair & Beauty	Women	Shampoo and cut	20	30			
13931	Edita Hair & Beauty	Women	Shampoo and blowdry	18	30			
13931	Edita Hair & Beauty	Men	Haircut	12	30			
13931	Edita Hair & Beauty	Men	Restyle	20	30			
13931	Edita Hair & Beauty	Colour	Hi/Lowlight half head	60	60			
13931	Edita Hair & Beauty	Colour	Hi/Lowlight full head	70	60			
13931	Edita Hair & Beauty	Colour	T-section	45	45			
13931	Edita Hair & Beauty	Colour	Full head tint	60	60			
13931	Edita Hair & Beauty	Colour	Toner	20	30			
13931	Edita Hair & Beauty	Facial	Facial cleansing	45	45			
13931	Edita Hair & Beauty	Facial	Facial mask	15	15			
13931	Edita Hair & Beauty	Facial	Facial massage	20	30			
13931	Edita Hair & Beauty	Facial	Facial peel and mask	25	30			
13931	Edita Hair & Beauty	Waxing	Full leg	30	30			
13931	Edita Hair & Beauty	Waxing	Full arm	25	30			
13931	Edita Hair & Beauty	Waxing	Bikini line	18	30			
13931	Edita Hair & Beauty	Waxing	Brazilian	30	30			
13953	Aisha Simone Make up Artist & Nail Tech	Make-up	Full face makeup	35	30			
13953	Aisha Simone Make up Artist & Nail Tech	Make-up	Bridal makeup	60	60			
13953	Aisha Simone Make up Artist & Nail Tech	Make-up	Express makeup	20	30			
13953	Aisha Simone Make up Artist & Nail Tech	Nails	CND shellac	25	30			
13953	Aisha Simone Make up Artist & Nail Tech	Nails	Spa manicure	20	30			
13953	Aisha Simone Make up Artist & Nail Tech	Nails	Spa pedicure	30	30			
13953	Aisha Simone Make up Artist & Nail Tech	Nails	Simple shape and paint	10	30			
13953	Aisha Simone Make up Artist & Nail Tech	Nails	Removal	10	15			
13953	Aisha Simone Make up Artist & Nail Tech	Waxing	Full leg	25	30			
13953	Aisha Simone Make up Artist & Nail Tech	Waxing	Bikini	20	30			
13953	Aisha Simone Make up Artist & Nail Tech	Waxing	Hollywood	30	30			
13953	Aisha Simone Make up Artist & Nail Tech	Waxing	Full arm	22	30			
13953	Aisha Simone Make up Artist & Nail Tech	Waxing	Eyebrow	6	15			
13953	Aisha Simone Make up Artist & Nail Tech	Waxing	Eyelash tint	12	15			
13953	Aisha Simone Make up Artist & Nail Tech	Waxing	Lip/Chin	6	15			
13953	Aisha Simone Make up Artist & Nail Tech	Waxing	Half leg	16	30			