48080,UK Salon Group,Nails,Detox pedicure,23,30,0,0,0
48080,UK Salon Group,Nails,Luxury pedicure,25,30,,,
48080,UK Salon Group,Nails,Infill,15,15,,,
48080,UK Salon Group,Nails,French pedicure,22,30,,,
48080,UK Salon Group,Facial,Luxury facial,30,30,,,
48080,UK Salon Group,Facial,Mini facial,15,15,,,
48080,UK Salon Group,Massage,Back,25,30,,,
48080,UK Salon Group,Massage,Head,20,30,,,
48080,UK Salon Group,Massage,Full body,40,60,,,
48080,UK Salon Group,Men waxing,Chest,10,30,,,
48080,UK Salon Group,Men waxing,Back,10,30,,,
48080,UK Salon Group,Eye treatments,Eyebrow tint,7,15,,,
48080,UK Salon Group,Eye treatments,Eyelash tint,10,15,,,
48080,UK Salon Group,Eye treatments,Eyelash perm,12,15,,,
48080,UK Salon Group,Makeup,Party,25,30,,,
48080,UK Salon Group,Waxing,Full leg,25,30,,,
48080,UK Salon Group,Waxing,Full arm,15,30,,,
48080,UK Salon Group,Waxing,Bikini line,12,30,,,
48080,UK Salon Group,Waxing,Hollywod,30,30,,,
48080,UK Salon Group,Waxing,Brazilian,30,30,,,
48080,UK Salon Group,Waxing,Underarm,8,15,,,
48080,UK Salon Group,Waxing,Chin,5,15,,,
48080,UK Salon Group,Hair,Ladies cut and finish,36,45,,,
48080,UK Salon Group,Hair,Ladies re style,40,60,,,
48080,UK Salon Group,Hair,Ladies dry cut,17,30,,,
48080,UK Salon Group,Hair,Guys cut and finish,25,45,,,
48080,UK Salon Group,Hair,Kids cut and finish,26,30,,,
48080,UK Salon Group,Highlights,Full head,71,75,,,
48080,UK Salon Group,Highlights,Half head,53,60,,,
48080,UK Salon Group,Highlights,T-section,32,45,,,
48080,UK Salon Group,Highlights,Brazilian blowdry,75,75,,,
48078,Belle Ame Salon,Facials,Skin solver,10,15,,,
48078,Belle Ame Salon,Facials,Pro skin,30,30,,,
48078,Belle Ame Salon,Facials,Relaxing back facial,40,60,,,
48078,Belle Ame Salon,Eye treatments,Eyelash tint,10,15,,,
48078,Belle Ame Salon,Eye treatments,Eyebrow tint,7,15,,,
48078,Belle Ame Salon,Eye treatments,Lash and brow tint,15,15,,,
48078,Belle Ame Salon,Eye treatments,Eyebrow shape,5,15,,,
48078,Belle Ame Salon,Massage,Back and neck,20,30,,,
48078,Belle Ame Salon,Massage,Hot stone,50,60,,,
48078,Belle Ame Salon,Massage,Aromatherapy ,50,60,,,
48078,Belle Ame Salon,Massage,Indian head massage,25,30,,,
47954,Shobha Beauty Suite,Dermalogica,Herbal facial,25,30,,,
47954,Shobha Beauty Suite,Dermalogica,Teeth whitening,20,30,,,
47954,Shobha Beauty Suite,Dermalogica,Tinting,30,30,,,
47954,Shobha Beauty Suite,Dermalogica,Threading,35,45,,,
47954,Shobha Beauty Suite,Dermalogica,Waxing,40,45,,,
47954,Shobha Beauty Suite,Nails,Shellac,30,45,,,
47954,Shobha Beauty Suite,Nails,Acrylic and gel tips,25,30,,,
47954,Shobha Beauty Suite,Nails,Pink and white gels,20,30,,,
47954,Shobha Beauty Suite,Massage,Full body,45,60,,,
47954,Shobha Beauty Suite,Massage,Neck and shoulder,40,60,,,
47954,Shobha Beauty Suite,Hair,Cutting and styling,25,30,,,
47954,Shobha Beauty Suite,Hair,Blowdry,10,15,,,
47954,Shobha Beauty Suite,Hair,Straightening,25,30,,,
47954,Shobha Beauty Suite,Hair,Hair loss treatment,35,30,,,
47954,Shobha Beauty Suite,Hair,Ear piercing,15,15,,,
46990,Mode Beauty Therapy,Eye treatments,Eyebrow shape,9,15,,,
46990,Mode Beauty Therapy,Eye treatments,Eyelash tint,16,30,,,
46990,Mode Beauty Therapy,Eye treatments,Eyebrow tint,9,15,,,
46990,Mode Beauty Therapy,Eye treatments,Eyelash cluster,22,30,,,
46990,Mode Beauty Therapy,Facial,Eye peel,60,30,,,
46990,Mode Beauty Therapy,Facial,Age peel,70,30,,,
46990,Mode Beauty Therapy,Facial,White peel,70,30,,,
46990,Mode Beauty Therapy,Facial,Super facial,55,30,,,
46990,Mode Beauty Therapy,Facial,Youth activator,70,75,,,
46990,Mode Beauty Therapy,Facial,Skin healer,70,75,,,
46990,Mode Beauty Therapy,Hands and feet,Manicure,22,45,,,
46990,Mode Beauty Therapy,Hands and feet,French manicure,23,45,,,
46990,Mode Beauty Therapy,Hands and feet,Re varnish,15,15,,,
46990,Mode Beauty Therapy,Hands and feet,Luxury spa pedicure,45,60,,,
46990,Mode Beauty Therapy,Hands and feet,Luxury spa manicure,35,45,,,
46990,Mode Beauty Therapy,Hands and feet,Soak off,10,15,,,
46990,Mode Beauty Therapy,Hands and feet,Acrylic full set,41,30,,,
46990,Mode Beauty Therapy,Massage,Back neck and shoulder,45,45,,,
46990,Mode Beauty Therapy,Massage,Rebalancing massage,75,75,,,
46990,Mode Beauty Therapy,Massage,Hot stone,70,75,,,
46990,Mode Beauty Therapy,Massage,Pregnancy,87,75,,,
46990,Mode Beauty Therapy,Waxing,Half leg,18,30,,,
46990,Mode Beauty Therapy,Waxing,Full leg and bikini line,33,30,,,
46990,Mode Beauty Therapy,Waxing,Underarm,11,15,,,
46990,Mode Beauty Therapy,Waxing,Forearm,15,30,,,
46990,Mode Beauty Therapy,Waxing,Lip,9,15,,,
46990,Mode Beauty Therapy,Waxing,Chin,9,15,,,
46990,Mode Beauty Therapy,Waxing,Brazilian,26,30,,,
46990,Mode Beauty Therapy,Waxing,Hollywood,41,30,,,
46990,Mode Beauty Therapy,Waxing,Chest,32,30,,,
46986,Revive Beauty Clinic,Facial,Rebalancing,30,60,,,
46986,Revive Beauty Clinic,Facial,Hydrating,30,60,,,
46986,Revive Beauty Clinic,Facial,Sensitive facial,30,60,,,
46986,Revive Beauty Clinic,Facial,Luxury aroma ,35,60,,,
46986,Revive Beauty Clinic,Facial,Mini facial,15,30,,,
46986,Revive Beauty Clinic,Eye treatments,Eyelash tint,10,15,,,
46986,Revive Beauty Clinic,Eye treatments,Eyebrow tint,8,15,,,
46986,Revive Beauty Clinic,Eye treatments,Eyebrow shape,3,15,,,
46986,Revive Beauty Clinic,Nails,Pedicure,18,30,,,
46986,Revive Beauty Clinic,Nails,Manicure,14,30,,,
46986,Revive Beauty Clinic,Nails,French manicure,15,30,,,
46986,Revive Beauty Clinic,Nails,File and polish,15,30,,,
46986,Revive Beauty Clinic,Massage,Full body,35,60,,,
46986,Revive Beauty Clinic,Massage,Back neck and shoulder,22,30,,,
46986,Revive Beauty Clinic,Massage,Aroma,35,60,,,
46986,Revive Beauty Clinic,Massage,Deep tissue,45,60,,,
46986,Revive Beauty Clinic,Massage,India head,16,30,,,
46986,Revive Beauty Clinic,Waxing,Full leg,18,30,,,
46986,Revive Beauty Clinic,Waxing,Half leg,10,15,,,
46986,Revive Beauty Clinic,Waxing,Bikini line,6,15,,,
46986,Revive Beauty Clinic,Waxing,Full arm,14,15,,,
46986,Revive Beauty Clinic,Waxing,Full stomach,8,15,,,
46986,Revive Beauty Clinic,Threading,Full face,13,15,,,
46986,Revive Beauty Clinic,Threading,Eyebrow,3,15,,,
46986,Revive Beauty Clinic,Threading,Upperlip,3,15,,,
46943,Maariyas Beauty Secret and Spa,Threading,Eyebrow,4,15,,,
46943,Maariyas Beauty Secret and Spa,Threading,Upperlip,3,15,,,
46943,Maariyas Beauty Secret and Spa,Threading,Chin,3,15,,,
46943,Maariyas Beauty Secret and Spa,Threading,Full face,15,15,,,
46943,Maariyas Beauty Secret and Spa,Waxing,Full legs,20,30,,,
46943,Maariyas Beauty Secret and Spa,Waxing,Full arms,15,15,,,
46943,Maariyas Beauty Secret and Spa,Waxing,Bikini line,6,15,,,
46943,Maariyas Beauty Secret and Spa,Waxing,Brazilian,20,30,,,
46943,Maariyas Beauty Secret and Spa,Waxing,Hollywood,25,30,,,
46943,Maariyas Beauty Secret and Spa,Eye treatments,Eyelash tint,5,15,,,
46943,Maariyas Beauty Secret and Spa,Eye treatments,Eyebrow tint,5,15,,,
46943,Maariyas Beauty Secret and Spa,Eye treatments,Eyelash extensions,10,15,,,
46943,Maariyas Beauty Secret and Spa,Facials,Recharge facial,35,60,,,
46943,Maariyas Beauty Secret and Spa,Facials,Hydra facial,40,60,,,
46943,Maariyas Beauty Secret and Spa,Facials,Sensitive skin facial,35,60,,,
46943,Maariyas Beauty Secret and Spa,Facials,Back cleansing facial,40,60,,,
46943,Maariyas Beauty Secret and Spa,Massage,Back,15,30,,,
46943,Maariyas Beauty Secret and Spa,Massage,Full body,25,45,,,
46943,Maariyas Beauty Secret and Spa,Massage,Full body aromatherapy,45,60,,,
46943,Maariyas Beauty Secret and Spa,Massage,Hot stone,40,60,,,
46608,Peppermint Tanning & Beauty,Eye treatments,Eyebrow tint,7,15,,,
46608,Peppermint Tanning & Beauty,Eye treatments,Eyelash tint,8,15,,,
46608,Peppermint Tanning & Beauty,Eye treatments,Infill,25,30,,,
46608,Peppermint Tanning & Beauty,Waxing,Chin,4,15,,,
46608,Peppermint Tanning & Beauty,Waxing,Upperlip,4,15,,,
46608,Peppermint Tanning & Beauty,Waxing,Eyebrow,5,15,,,
46608,Peppermint Tanning & Beauty,Waxing,Half arm,9,15,,,
46608,Peppermint Tanning & Beauty,Waxing,Full arm,14,30,,,
46608,Peppermint Tanning & Beauty,Waxing,Full leg,22,30,,,
46608,Peppermint Tanning & Beauty,Waxing,Bikini line,9,15,,,
46608,Peppermint Tanning & Beauty,Waxing,Hollywood,25,30,,,
46608,Peppermint Tanning & Beauty,Nails,Manicure,16,30,,,
46608,Peppermint Tanning & Beauty,Nails,Pedicure,22,30,,,
46608,Peppermint Tanning & Beauty,Nails,FIle and paint,9,15,,,
46608,Peppermint Tanning & Beauty,Facials,Deep cleanse,27,30,,,
46608,Peppermint Tanning & Beauty,Facials,Diamond tip,34,60,,,
46608,Peppermint Tanning & Beauty,Facials,Guinot hydradermie,52,60,,,
46608,Peppermint Tanning & Beauty,Facials,Microdermabrasion diamond tip body,45,60,,,
46608,Peppermint Tanning & Beauty,Hair removal,Underarm,39,45,,,
46608,Peppermint Tanning & Beauty,Hair removal,Full leg,99,60,,,
46608,Peppermint Tanning & Beauty,Hair removal,Bikini line,39,60,,,
46608,Peppermint Tanning & Beauty,Hair removal,Brazilian,65,60,,,
46608,Peppermint Tanning & Beauty,Hair removal,Full arm,69,60,,,
46608,Peppermint Tanning & Beauty,Massage,Aromatherapy ,29,30,,,
46608,Peppermint Tanning & Beauty,Massage,Swedish massage full body,39,60,,,
46608,Peppermint Tanning & Beauty,Massage,Hot stone,39,60,,,
46606,Trio Salon By Farah,Waxing,Chin,4,15,,,
46606,Trio Salon By Farah,Waxing,Upperlip,4,15,,,
46606,Trio Salon By Farah,Waxing,Eyebrow,5,15,,,
46606,Trio Salon By Farah,Waxing,Half arm,9,15,,,
46606,Trio Salon By Farah,Waxing,Full arm,14,30,,,
46606,Trio Salon By Farah,Waxing,Full leg,22,30,,,
46606,Trio Salon By Farah,Waxing,Bikini line,9,15,,,
46606,Trio Salon By Farah,Waxing,Hollywood,25,30,,,
46606,Trio Salon By Farah,Nails,Manicure,16,30,,,
46606,Trio Salon By Farah,Nails,Pedicure,22,30,,,
46606,Trio Salon By Farah,Nails,FIle and paint,9,15,,,
46606,Trio Salon By Farah,Threading,Full face,13,15,,,
46606,Trio Salon By Farah,Threading,Eyebrow,3,15,,,
46606,Trio Salon By Farah,Threading,Upperlip,3,15,,,
46606,Trio Salon By Farah,Threading,Eyebrow,4,15,,,
46606,Trio Salon By Farah,Threading,Upperlip,3,15,,,
46606,Trio Salon By Farah,Threading,Chin,3,15,,,
46606,Trio Salon By Farah,Threading,Full face,15,15,,,
46606,Trio Salon By Farah,Hi-Low lights,Full head,68,60,,,
46606,Trio Salon By Farah,Hi-Low lights,Half head,55,60,,,
46606,Trio Salon By Farah,Hi-Low lights,T-section,47,60,,,
46605,Rush Hair Ilford,Hair,Ladies cut and blowdry,51,60,,,
46605,Rush Hair Ilford,Hair,Gents cut and finish,38,60,,,
46605,Rush Hair Ilford,Hair,Blowdry,35,45,,,
46605,Rush Hair Ilford,Hair,Hair up,55,60,,,
46605,Rush Hair Ilford,Hair,Keratin blowdry short,160,60,,,
46605,Rush Hair Ilford,Hair,Keratin blowdry long,200,120,,,
46605,Rush Hair Ilford,Colour,Full head highlight,110,60,,,
46605,Rush Hair Ilford,Colour,Half head highlight,95,60,,,
46605,Rush Hair Ilford,Colour,T-section,69,60,,,
46605,Rush Hair Ilford,Colour,Ombre,95,60,,,
46605,Rush Hair Ilford,Colour,Full head permanent colour,60,60,,,
46605,Rush Hair Ilford,Colour,INOA full head,68,60,,,
46605,Rush Hair Ilford,Colour,Glossing,44,45,,,
46605,Rush Hair Ilford,Treatments,Hair masque,8.5,15,,,
46605,Rush Hair Ilford,Treatments,Fusio dose,16,30,,,
46605,Rush Hair Ilford,Treatments,Afro cut and blowdry,65,60,,,
46603,Natura Hair & Beauty,Hair,Cutting and styling,25,30,,,
46603,Natura Hair & Beauty,Hair,Blowdry,10,15,,,
46603,Natura Hair & Beauty,Hair,Straightening,25,30,,,
46603,Natura Hair & Beauty,Hair,Hair loss treatment,35,30,,,
46603,Natura Hair & Beauty,Hair,Ear piercing,15,15,,,
46603,Natura Hair & Beauty,Eye treatments,Eyebrow shape,9,15,,,
46603,Natura Hair & Beauty,Eye treatments,Eyelash tint,16,30,,,
46603,Natura Hair & Beauty,Eye treatments,Eyebrow tint,9,15,,,
46603,Natura Hair & Beauty,Eye treatments,Eyelash cluster,22,30,,,
46603,Natura Hair & Beauty,Facial,Eye peel,60,30,,,
46603,Natura Hair & Beauty,Facial,Age peel,70,30,,,
46603,Natura Hair & Beauty,Facial,White peel,70,30,,,
46603,Natura Hair & Beauty,Facial,Super facial,55,30,,,
46603,Natura Hair & Beauty,Facial,Youth activator,70,75,,,
46603,Natura Hair & Beauty,Facial,Skin healer,70,75,,,
46603,Natura Hair & Beauty,Hands and feet,Manicure,22,45,,,
46603,Natura Hair & Beauty,Hands and feet,French manicure,23,45,,,
46603,Natura Hair & Beauty,Hands and feet,Re varnish,15,15,,,
46603,Natura Hair & Beauty,Hands and feet,Luxury spa pedicure,45,60,,,
46603,Natura Hair & Beauty,Hands and feet,Luxury spa manicure,35,45,,,
46603,Natura Hair & Beauty,Hands and feet,Soak off,10,15,,,
46603,Natura Hair & Beauty,Hands and feet,Acrylic full set,41,30,,,
46603,Natura Hair & Beauty,Massage,Back neck and shoulder,45,45,,,
46603,Natura Hair & Beauty,Massage,Rebalancing massage,75,75,,,
46603,Natura Hair & Beauty,Massage,Hot stone,70,75,,,
46603,Natura Hair & Beauty,Massage,Pregnancy,87,75,,,
46603,Natura Hair & Beauty,Waxing,Half leg,18,30,,,
46603,Natura Hair & Beauty,Waxing,Full leg and bikini line,33,30,,,
46603,Natura Hair & Beauty,Waxing,Underarm,11,15,,,
46603,Natura Hair & Beauty,Waxing,Forearm,15,30,,,
46603,Natura Hair & Beauty,Waxing,Lip,9,15,,,
46603,Natura Hair & Beauty,Waxing,Chin,9,15,,,
46603,Natura Hair & Beauty,Waxing,Brazilian,26,30,,,
46603,Natura Hair & Beauty,Waxing,Hollywood,41,30,,,
46603,Natura Hair & Beauty,Waxing,Chest,32,30,,,
46602,Nikkis Hair and Beauty,Bleaching,Lip,15,15,,,
46602,Nikkis Hair and Beauty,Bleaching,Half arm,20,30,,,
46602,Nikkis Hair and Beauty,Bleaching,Full arm,30,30,,,
46602,Nikkis Hair and Beauty,Massage,Full body swedish,40,45,,,
46602,Nikkis Hair and Beauty,Massage,Back and shoulder,35,30,,,
46602,Nikkis Hair and Beauty,Massage,Hot stone,40,45,,,
46602,Nikkis Hair and Beauty,Eye treatments,Eyebrow tint,10,15,,,
46602,Nikkis Hair and Beauty,Eye treatments,Eyelash tint,15,15,,,
46602,Nikkis Hair and Beauty,Facials,Cleanse express facial,40,45,,,
46602,Nikkis Hair and Beauty,Facials,Peel and lift,50,60,,,
46602,Nikkis Hair and Beauty,Facials,Beaute lifting,30,30,,,
46602,Nikkis Hair and Beauty,Facials,Age repair,35,45,,,
46602,Nikkis Hair and Beauty,Facials,Eye repair,30,30,,,
46602,Nikkis Hair and Beauty,Nails,Manicure,15,15,,,
46602,Nikkis Hair and Beauty,Nails,Luxury manicure,18,30,,,
46602,Nikkis Hair and Beauty,Nails,CND shellac manicure,25,30,,,
46602,Nikkis Hair and Beauty,Nails,CND shellac pedicure,30,30,,,
46602,Nikkis Hair and Beauty,Nails,CND shellac removal,8,15,,,
46602,Nikkis Hair and Beauty,Nails,Pedicure,20,30,,,
46602,Nikkis Hair and Beauty,Nails,Luxury pedicure,30,30,,,
46390,Evie Adams,Facial,Prescriptive facial,30,30,,,
46390,Evie Adams,Facial,Prolifting facial,40,45,,,
46390,Evie Adams,Facial,Collagen facial,45,45,,,
46390,Evie Adams,Facial,High frequency,30,30,,,
46390,Evie Adams,Facial,Marine mask,25,30,,,
46390,Evie Adams,Nails,Deluxe manicure,35,45,,,
46390,Evie Adams,Nails,Deluxe pedicure,30,45,,,
46390,Evie Adams,Nails,Treatment pedicure,15,30,,,
46390,Evie Adams,Nails,Nail shaped and polish,15,30,,,
46390,Evie Adams,Massage,Aromatherapy massage,35,30,,,
46390,Evie Adams,Massage,Hot stone,40,30,,,
46390,Evie Adams,Massage,Indian head,40,45,,,
46390,Evie Adams,Massage,Reflexology,45,45,,,
46390,Evie Adams,Massage,Swedish remedial massage,38,30,,,
46390,Evie Adams,Waxing,Full leg,25,30,,,
46390,Evie Adams,Waxing,Half leg,20,30,,,
46390,Evie Adams,Waxing,Stomach,17,30,,,
46390,Evie Adams,Waxing,Full arm,20,30,,,
46390,Evie Adams,Waxing,Underarm,10,30,,,
46390,Evie Adams,Waxing,Cheeks,8,15,,,
46390,Evie Adams,Waxing,Brazilian,15,30,,,
46041,La Chic Hair Beauty & Holistic Therapy,Threading,Eyebrow,3,15,,,
46041,La Chic Hair Beauty & Holistic Therapy,Threading,Upperlip,2.5,15,,,
46041,La Chic Hair Beauty & Holistic Therapy,Threading,Forehead,5,15,,,
46041,La Chic Hair Beauty & Holistic Therapy,Threading,Full face,12,15,,,
46041,La Chic Hair Beauty & Holistic Therapy,Waxing,Eyebrow ,5,15,,,
46041,La Chic Hair Beauty & Holistic Therapy,Waxing,Upperlip,3,15,,,
46041,La Chic Hair Beauty & Holistic Therapy,Waxing,Chin,6,15,,,
46041,La Chic Hair Beauty & Holistic Therapy,Waxing,Full face,14,30,,,
46041,La Chic Hair Beauty & Holistic Therapy,Waxing,Full body,40,30,,,
46041,La Chic Hair Beauty & Holistic Therapy,Waxing,Bikini line,8,15,,,
46041,La Chic Hair Beauty & Holistic Therapy,Waxing,Full arm,16,30,,,
46041,La Chic Hair Beauty & Holistic Therapy,Waxing,Chest,35,30,,,
46041,La Chic Hair Beauty & Holistic Therapy,Facials,Sea weed facial mask,20,30,,,
46041,La Chic Hair Beauty & Holistic Therapy,Facials,Classic european facial,35,60,,,
46041,La Chic Hair Beauty & Holistic Therapy,Facials,Hydra express lift facial,45,60,,,
46041,La Chic Hair Beauty & Holistic Therapy,Facials,4 layer facial,60,90,,,
46041,La Chic Hair Beauty & Holistic Therapy,Nails,Express manicure,10,15,,,
46041,La Chic Hair Beauty & Holistic Therapy,Nails,Classic manicure,15,30,,,
46041,La Chic Hair Beauty & Holistic Therapy,Nails,Luxury manicure,20,60,,,
46041,La Chic Hair Beauty & Holistic Therapy,Nails,Deluxe manicure,25,75,,,
46041,La Chic Hair Beauty & Holistic Therapy,Nails,File and polish,10,30,,,
46041,La Chic Hair Beauty & Holistic Therapy,Nails,Express pedicure,15,30,,,
46041,La Chic Hair Beauty & Holistic Therapy,Nails,Classic pedicure,20,45,,,
46041,La Chic Hair Beauty & Holistic Therapy,Nails,Luxury pedicure,25,60,,,
46041,La Chic Hair Beauty & Holistic Therapy,Nails,Deluxe pedicure,30,75,,,
46041,La Chic Hair Beauty & Holistic Therapy,Hair,Dry cut,15,30,,,
46041,La Chic Hair Beauty & Holistic Therapy,Hair,Wash and cut,20,30,,,
46041,La Chic Hair Beauty & Holistic Therapy,Hair,Curly blowdry,25,30,,,
46041,La Chic Hair Beauty & Holistic Therapy,Hair,T-section highlights,25,30,,,
46041,La Chic Hair Beauty & Holistic Therapy,Hair,Full head tint,50,30,,,
46041,La Chic Hair Beauty & Holistic Therapy,Hair,Hair up,40,30,,,
46037,Uppercut Hair Group,Ladies,Cut and finish,29,30,,,
46037,Uppercut Hair Group,Ladies,Blowdry,19,30,,,
46037,Uppercut Hair Group,Men,Cut and finish,18,30,,,
46037,Uppercut Hair Group,Colour,Non permanent colouring,28,30,,,
46037,Uppercut Hair Group,Colour,Roots,32,30,,,
46037,Uppercut Hair Group,Colour,Whole head,40,45,,,
46037,Uppercut Hair Group,Colour,Foils,66,60,,,
46037,Uppercut Hair Group,Colour,Dip dye balayage,32,30,,,
46037,Uppercut Hair Group,Colour,Brazilian blowdry,129,60,,,
46037,Uppercut Hair Group,Colour,Perm,35,30,,,
46035,Strawberry Glow,Hair ,Blowdry,18,30,,,
46035,Strawberry Glow,Hair ,Wash cut and blowdry,30,30,,,
46035,Strawberry Glow,Hair ,Wash and cut,15,15,,,
46035,Strawberry Glow,Colouring,T-section,30,30,,,
46035,Strawberry Glow,Colouring,Half head,50,30,,,
46035,Strawberry Glow,Colouring,Full head,65,60,,,
46035,Strawberry Glow,Colouring,Regrowth tint,28,30,,,
46035,Strawberry Glow,Colouring,Brazilian blowdry,80,90,,,
46035,Strawberry Glow,Massage,Back neck and shoulder,22,45,,,
46035,Strawberry Glow,Massage,Full body,38,60,,,
46035,Strawberry Glow,Nails,Manicure,15,30,,,
46035,Strawberry Glow,Nails,Deluxe manicure,20,30,,,
46035,Strawberry Glow,Nails,Pedicure,22,30,,,
46035,Strawberry Glow,Nails,Luxury pedicure,28,45,,,
46032,Manor Beauty - Laser Clinic & Medispa,Massage,Swedish massage ,50,60,,,
46032,Manor Beauty - Laser Clinic & Medispa,Massage,Deep tissue massage,54,60,,,
46032,Manor Beauty - Laser Clinic & Medispa,Massage,Sports massage,72,90,,,
46032,Manor Beauty - Laser Clinic & Medispa,Massage,Lava shell,80,90,,,
46032,Manor Beauty - Laser Clinic & Medispa,Massage,Hot stone,54,60,,,
46032,Manor Beauty - Laser Clinic & Medispa,Nails,Manicure,20,30,,,
46032,Manor Beauty - Laser Clinic & Medispa,Nails,Pedicure,30,30,,,
46032,Manor Beauty - Laser Clinic & Medispa,Nails,Nail extensions,30,30,,,
46032,Manor Beauty - Laser Clinic & Medispa,Nails,Callus peel,35,30,,,
46032,Manor Beauty - Laser Clinic & Medispa,Eyes,LVL lashes,15,15,,,
46032,Manor Beauty - Laser Clinic & Medispa,Eyes,HD brows,20,15,,,
46032,Manor Beauty - Laser Clinic & Medispa,Eyes,Eyelash perm,10,15,,,
46032,Manor Beauty - Laser Clinic & Medispa,Eyes,Eyelash tint,15,15,,,
46032,Manor Beauty - Laser Clinic & Medispa,Eyes,Eyebrow shape,20,30,,,
46032,Manor Beauty - Laser Clinic & Medispa,Eyes,Eyebrow tint,17,30,,,
46032,Manor Beauty - Laser Clinic & Medispa,Waxing,Full leg,25,30,,,
46032,Manor Beauty - Laser Clinic & Medispa,Waxing,Half leg,17,30,,,
46032,Manor Beauty - Laser Clinic & Medispa,Waxing,Brazilian,25,30,,,
46032,Manor Beauty - Laser Clinic & Medispa,Waxing,Underarm,9,15,,,
46032,Manor Beauty - Laser Clinic & Medispa,Waxing,Full arm,17,30,,,
46032,Manor Beauty - Laser Clinic & Medispa,Waxing,Forearm,13,15,,,
46032,Manor Beauty - Laser Clinic & Medispa,Waxing,Chin,8,15,,,
46032,Manor Beauty - Laser Clinic & Medispa,Waxing,Upperlip,8,15,,,
46029,Mystic,Ladies hair,Cut and blowdry,18,30,,,
46029,Mystic,Ladies hair,Wash cut and blowdry,20,30,,,
46029,Mystic,Ladies hair,Fringe trim,5,15,,,
46029,Mystic,Gents,Wash and cut,10,30,,,
46029,Mystic,Gents,Tinting,30,30,,,
46029,Mystic,Children,Cut,8,30,,,
46029,Mystic,Colouring,Tiniting roots,25,30,,,
46029,Mystic,Colouring,Half head foils,30,30,,,
46029,Mystic,Colouring,Perms,30,30,,,
46029,Mystic,Nails,Manicure,12,30,,,
46029,Mystic,Nails,Spa manicure,16,30,,,
46029,Mystic,Nails,Paraffin wax manicure,18,30,,,
46029,Mystic,Nails,Polish,4,15,,,
46029,Mystic,Nails,Pedicure,18,30,,,
46029,Mystic,Nails,Spa pedicure,25,30,,,
46029,Mystic,Nails,Reshape and polish,5,15,,,
46029,Mystic,Waxing,Full leg,18,30,,,
46029,Mystic,Waxing,Lip and chin,5,15,,,
46029,Mystic,Waxing,Full arm,1,15,,,
46029,Mystic,Waxing,Eyebrow ,5,15,,,
46029,Mystic,Massage,Back,25,30,,,
46029,Mystic,Massage,Leg,25,30,,,
46029,Mystic,Massage,Arms,20,30,,,
46029,Mystic,Massage,Full body,50,60,,,
45879,Body Inc Spas,Body treatments,Back shine,35,30,,,
45879,Body Inc Spas,Body treatments,Back shine luxury,40,45,,,
45879,Body Inc Spas,Body treatments,Full body buff and hydrating treatment,65,60,,,
45879,Body Inc Spas,Manicure,Manicure,18,30,,,
45879,Body Inc Spas,Manicure,Luxury manicure,22,60,,,
45879,Body Inc Spas,Manicure,OPI gel colour full set,28,30,,,
45879,Body Inc Spas,Manicure,FIle buff and varnish,12,30,,,
45879,Body Inc Spas,Pedicure,Pedicure,26,60,,,
45879,Body Inc Spas,Pedicure,Luxury pedicure,30,75,,,
45879,Body Inc Spas,Pedicure,FIle buff and varnish,14,30,,,
45879,Body Inc Spas,Massage,Back neck and shoulder,28,45,,,
45879,Body Inc Spas,Massage,Full body,45,60,,,
45879,Body Inc Spas,Massage,Indian head,28,30,,,
45879,Body Inc Spas,Massage,Hot stone,70,75,,,
45879,Body Inc Spas,Massage,Hot lava shell body massage,50,60,,,
45879,Body Inc Spas,Massage,Hot lava shell face and body massage,60,75,,,
45855,Enigma Beauty Salon,Nails,Manicure,18.5,30,,,
45855,Enigma Beauty Salon,Nails,Luxury manicure,26,45,,,
45855,Enigma Beauty Salon,Nails,Shape and revarnish,14,30,,,
45855,Enigma Beauty Salon,Nails,Pedicure,27,45,,,
45855,Enigma Beauty Salon,Nails,Shape and revarnish toes,15.5,30,,,
45855,Enigma Beauty Salon,Eye treatment,Eyelash tint,10,15,,,
45855,Enigma Beauty Salon,Eye treatment,Eyebrow tint,8.5,15,,,
45855,Enigma Beauty Salon,Eye treatment,Eyebrow shape,7.5,15,,,
45855,Enigma Beauty Salon,Eye treatment,LVl lash lift,55,60,,,
45855,Enigma Beauty Salon,Eye treatment,Lash removal,15.5,30,,,
45855,Enigma Beauty Salon,Facials,Prescription facial,30.5,45,,,
45855,Enigma Beauty Salon,Facials,Active essential facial,40,60,,,
45855,Enigma Beauty Salon,Facials,Purifying essential facial,41.5,60,,,
45855,Enigma Beauty Salon,Facials,Advanced smoothing facial,60.5,60,,,
45855,Enigma Beauty Salon,Facials,Age benefit expert facial,65.5,60,,,
45855,Enigma Beauty Salon,Waxing,Half leg,14,30,,,
45855,Enigma Beauty Salon,Waxing,Full leg,22,30,,,
45855,Enigma Beauty Salon,Waxing,Bikini line,10,30,,,
45855,Enigma Beauty Salon,Waxing,Brazilian,17,30,,,
45855,Enigma Beauty Salon,Waxing,Hollywood,21,30,,,
45855,Enigma Beauty Salon,Waxing,Lip,6,15,,,
45855,Enigma Beauty Salon,Waxing,Chin,6,15,,,
45855,Enigma Beauty Salon,Waxing,Men back,17,30,,,
45855,Enigma Beauty Salon,Waxing,Men chest,12,30,,,
45855,Enigma Beauty Salon,Waxing,Men full leg,22,30,,,
45841,The Hair & Nail Studio,Cutting,Shampoo cut and restyle,67,60,,,
45841,The Hair & Nail Studio,Cutting,Dry trim,24,30,,,
45841,The Hair & Nail Studio,Cutting,Shampoo and blowdry long hair,37.5,45,,,
45841,The Hair & Nail Studio,Cutting,Shampoo and blowdry short hair,19,30,,,
45841,The Hair & Nail Studio,Colour,Rinse colour,57,60,,,
45841,The Hair & Nail Studio,Colour,Full head tint,87,60,,,
45841,The Hair & Nail Studio,Colour,Full head highlights,87,60,,,
45841,The Hair & Nail Studio,Colour,Half head highlights,67,60,,,
45841,The Hair & Nail Studio,Relaxers,Virgin hair,87,60,,,
45841,The Hair & Nail Studio,Relaxers,Texturize,67,60,,,
45839,Inner Beauty Gym & Spa,Nails,Manicure,20,45,,,
45839,Inner Beauty Gym & Spa,Nails,Pedicure,25,45,,,
45839,Inner Beauty Gym & Spa,Nails,Luxury manicure,22,60,,,
45839,Inner Beauty Gym & Spa,Nails,Luxury pedicure,29,45,,,
45839,Inner Beauty Gym & Spa,Makeup,Day makeup,50,60,,,
45839,Inner Beauty Gym & Spa,Makeup,Evening makeup,80,60,,,
45839,Inner Beauty Gym & Spa,Massage,Bamboo massage,55,60,,,
45839,Inner Beauty Gym & Spa,Body wrap,Detox wrap,55,60,,,
45839,Inner Beauty Gym & Spa,Body wrap,Tonic wrap,55,60,,,
45839,Inner Beauty Gym & Spa,Body wrap,Flow wrap,55,75,,,
45839,Inner Beauty Gym & Spa,Body wrap,Contour wrap,50,120,,,
45836,Nails Couture & Design,Nails,Manicure,20,30,,,
45836,Nails Couture & Design,Nails,Gents manicure,12,30,,,
45836,Nails Couture & Design,Nails,Polish,7,15,,,
45836,Nails Couture & Design,Nails,French polish,8,15,,,
45836,Nails Couture & Design,Nails,Reshape and polish,12,15,,,
45836,Nails Couture & Design,Nails,Shellac manicure,26,30,,,
45836,Nails Couture & Design,Nails,Pedicure,20,30,,,
45836,Nails Couture & Design,Nails,CND shellac pedicure,35,45,,,
45836,Nails Couture & Design,Nails,First class pedicure,39.5,60,,,
45836,Nails Couture & Design,Waxing,Eyebrow,6,15,,,
45836,Nails Couture & Design,Waxing,Chin,6,15,,,
45836,Nails Couture & Design,Waxing,Nipplles,7,15,,,
45836,Nails Couture & Design,Waxing,Forearms,11,15,,,
45836,Nails Couture & Design,Waxing,Full arms,16,30,,,
45836,Nails Couture & Design,Waxing,Brazilian,17,30,,,
45836,Nails Couture & Design,Waxing,Hollywood,24,30,,,
45836,Nails Couture & Design,Waxing,Men chest,27,30,,,
45836,Nails Couture & Design,Tanning,Light bronze,18,30,,,
45836,Nails Couture & Design,Tanning,Dark bronze,25,30,,,
45835,Shumailas Skin & Laser Clinic Chigwell,Dermalogica facial,Customized treatment,45,60,,,
45835,Shumailas Skin & Laser Clinic Chigwell,Dermalogica facial,Brightening facial,45,60,,,
45835,Shumailas Skin & Laser Clinic Chigwell,Dermalogica facial,Anti aging facial,45,60,,,
45835,Shumailas Skin & Laser Clinic Chigwell,Dermalogica facial,Ultra calming,45,60,,,
45835,Shumailas Skin & Laser Clinic Chigwell,Dermalogica facial,Deep cleansing,50,60,,,
45835,Shumailas Skin & Laser Clinic Chigwell,Threading,Eyebrow,3,15,,,
45835,Shumailas Skin & Laser Clinic Chigwell,Threading,Upperlip,2.5,15,,,
45835,Shumailas Skin & Laser Clinic Chigwell,Threading,Forehead,5,15,,,
45835,Shumailas Skin & Laser Clinic Chigwell,Threading,Full face,12,15,,,
45835,Shumailas Skin & Laser Clinic Chigwell,Waxing,Eyebrow ,5,15,,,
45835,Shumailas Skin & Laser Clinic Chigwell,Waxing,Upperlip,3,15,,,
45835,Shumailas Skin & Laser Clinic Chigwell,Waxing,Chin,6,15,,,
45835,Shumailas Skin & Laser Clinic Chigwell,Waxing,Full face,14,30,,,
45835,Shumailas Skin & Laser Clinic Chigwell,Waxing,Full body,40,30,,,
45835,Shumailas Skin & Laser Clinic Chigwell,Waxing,Bikini line,8,15,,,
45835,Shumailas Skin & Laser Clinic Chigwell,Waxing,Full arm,16,30,,,
45835,Shumailas Skin & Laser Clinic Chigwell,Waxing,Chest,35,30,,,
45835,Shumailas Skin & Laser Clinic Chigwell,Nails,Manicure,20,30,,,
45835,Shumailas Skin & Laser Clinic Chigwell,Nails,Gents manicure,12,30,,,
45835,Shumailas Skin & Laser Clinic Chigwell,Nails,Polish,7,15,,,
45835,Shumailas Skin & Laser Clinic Chigwell,Nails,French polish,8,15,,,
45835,Shumailas Skin & Laser Clinic Chigwell,Nails,Reshape and polish,12,15,,,
45835,Shumailas Skin & Laser Clinic Chigwell,Nails,Shellac manicure,26,30,,,
45835,Shumailas Skin & Laser Clinic Chigwell,Nails,Pedicure,20,30,,,
45829,Shumailas Hair & Beauty Seven Kings,Dermalogica facial,Customized treatment,45,60,,,
45829,Shumailas Hair & Beauty Seven Kings,Dermalogica facial,Brightening facial,45,60,,,
45829,Shumailas Hair & Beauty Seven Kings,Dermalogica facial,Anti aging facial,45,60,,,
45829,Shumailas Hair & Beauty Seven Kings,Dermalogica facial,Ultra calming,45,60,,,
45829,Shumailas Hair & Beauty Seven Kings,Dermalogica facial,Deep cleansing,50,60,,,
45829,Shumailas Hair & Beauty Seven Kings,Threading,Eyebrow,3,15,,,
45829,Shumailas Hair & Beauty Seven Kings,Threading,Upperlip,2.5,15,,,
45829,Shumailas Hair & Beauty Seven Kings,Threading,Forehead,5,15,,,
45829,Shumailas Hair & Beauty Seven Kings,Threading,Full face,12,15,,,
45829,Shumailas Hair & Beauty Seven Kings,Waxing,Eyebrow ,5,15,,,
45829,Shumailas Hair & Beauty Seven Kings,Waxing,Upperlip,3,15,,,
45829,Shumailas Hair & Beauty Seven Kings,Waxing,Chin,6,15,,,
45829,Shumailas Hair & Beauty Seven Kings,Waxing,Full face,14,30,,,
45829,Shumailas Hair & Beauty Seven Kings,Waxing,Full body,40,30,,,
45829,Shumailas Hair & Beauty Seven Kings,Waxing,Bikini line,8,15,,,
45829,Shumailas Hair & Beauty Seven Kings,Waxing,Full arm,16,30,,,
45829,Shumailas Hair & Beauty Seven Kings,Waxing,Chest,35,30,,,
45829,Shumailas Hair & Beauty Seven Kings,Nails,Manicure,20,30,,,
45829,Shumailas Hair & Beauty Seven Kings,Nails,Gents manicure,12,30,,,
45829,Shumailas Hair & Beauty Seven Kings,Nails,Polish,7,15,,,
45829,Shumailas Hair & Beauty Seven Kings,Nails,French polish,8,15,,,
45829,Shumailas Hair & Beauty Seven Kings,Nails,Reshape and polish,12,15,,,
45829,Shumailas Hair & Beauty Seven Kings,Nails,Shellac manicure,26,30,,,
45829,Shumailas Hair & Beauty Seven Kings,Nails,Pedicure,20,30,,,
45828,Feel Good Look Good,Massage,Oil massage,24,30,,,
45828,Feel Good Look Good,Facial,Mini facial,25,30,,,
45828,Feel Good Look Good,Facial,Active glow,30,30,,,
45828,Feel Good Look Good,Facial,Moisture dew,30,30,,,
45828,Feel Good Look Good,Facial,Deep cleansing,36,60,,,
45828,Feel Good Look Good,Facial,Deep cleansing and scalp massage,43,45,,,
45828,Feel Good Look Good,Facial,Purifying skin,40,60,,,
45828,Feel Good Look Good,Eye treatments,Eyelash tint,7,15,,,
45828,Feel Good Look Good,Eye treatments,Eyebrow tint,5,15,,,
45828,Feel Good Look Good,Eye treatments,Eyelash and brow tint,10,15,,,
45828,Feel Good Look Good,Nails,Manicure,17,30,,,
45828,Feel Good Look Good,Nails,Manicure with paraffin wax,19,30,,,
45828,Feel Good Look Good,Nails,Pedicure,20,30,,,
45828,Feel Good Look Good,Nails,Pedicure with paraffin wax,26,30,,,
45828,Feel Good Look Good,Threading,Eyebrows,3,15,,,
45828,Feel Good Look Good,Threading,Full face,12,30,,,
45828,Feel Good Look Good,Threading,Upperlip,2,15,,,
45828,Feel Good Look Good,Threading,Face bleach,7,15,,,
45828,Feel Good Look Good,Waxing,Forehead,3,15,,,
45828,Feel Good Look Good,Waxing,Full face,14,30,,,
45828,Feel Good Look Good,Waxing,Chin,3,15,,,
45827,Heenas Beauty,Tinting,Eyebrow,5,15,,,
45827,Heenas Beauty,Tinting,Eyelash,8,15,,,
45827,Heenas Beauty,Tinting,Individual eyelash,15,15,,,
45827,Heenas Beauty,Massage,Indian head,20,30,,,
45827,Heenas Beauty,Massage,Hot stone massage,45,60,,,
45827,Heenas Beauty,Massage,Swedish massage,35,60,,,
45827,Heenas Beauty,Massage,Body exfoliation thearpy,30,60,,,
45827,Heenas Beauty,Crystal clear,Microdermabrasion,25,30,,,
45827,Heenas Beauty,Crystal clear,Deluxe Microdermabrasion,55,75,,,
45827,Heenas Beauty,Crystal clear,Back shine,35,30,,,
45827,Heenas Beauty,Crystal clear,Bright eyes,25,30,,,
45827,Heenas Beauty,Threading,Eyebrow,3.5,15,,,
45827,Heenas Beauty,Threading,Upperlip,2.5,15,,,
45827,Heenas Beauty,Threading,Chin,2.5,15,,,
45827,Heenas Beauty,Threading,Neck,5,15,,,
45827,Heenas Beauty,Threading,Full face,12,30,,,
45827,Heenas Beauty,Waxing,Eyebrow,4,15,,,
45827,Heenas Beauty,Waxing,Upperlip,3,15,,,
45827,Heenas Beauty,Waxing,Chin,3,15,,,
45827,Heenas Beauty,Waxing,Neck,6,15,,,
45827,Heenas Beauty,Waxing,Full face,15,15,,,
45827,Heenas Beauty,Waxing,Full leg,15,30,,,
45827,Heenas Beauty,Waxing,Full arm,10,15,,,
45827,Heenas Beauty,Waxing,Bikini line,6,15,,,
45827,Heenas Beauty,Waxing,Stomach,7,15,,,
45827,Heenas Beauty,Men threading,Eyebrow,4,15,,,
45827,Heenas Beauty,Men threading,Cheeks,3,15,,,
45827,Heenas Beauty,Men threading,Nose,3,15,,,
45827,Heenas Beauty,Men waxing,Chest,15,15,,,
45827,Heenas Beauty,Men waxing,Back,15,15,,,
45827,Heenas Beauty,Men waxing,Arms,15,15,,,
45827,Heenas Beauty,Men waxing,Back and chest,25,30,,,
45827,Heenas Beauty,Hands and feets,Manicure,12,15,,,
45827,Heenas Beauty,Hands and feets,Spa manicure,15,15,,,
45827,Heenas Beauty,Hands and feets,Shape and polish,10,15,,,
45827,Heenas Beauty,Hands and feets,Pedicure,15,15,,,
45827,Heenas Beauty,Hands and feets,Spa pedicure,20,30,,,
45827,Heenas Beauty,Hands and feets,Nail art,3,15,,,
45826,Shumailas Hair & Beauty Beehive Lane,Dermalogica facial,Customized treatment,45,60,,,
45826,Shumailas Hair & Beauty Beehive Lane,Dermalogica facial,Brightening facial,45,60,,,
45826,Shumailas Hair & Beauty Beehive Lane,Dermalogica facial,Anti aging facial,45,60,,,
45826,Shumailas Hair & Beauty Beehive Lane,Dermalogica facial,Ultra calming,45,60,,,
45826,Shumailas Hair & Beauty Beehive Lane,Dermalogica facial,Deep cleansing,50,60,,,
45826,Shumailas Hair & Beauty Beehive Lane,Threading,Eyebrow,3,15,,,
45826,Shumailas Hair & Beauty Beehive Lane,Threading,Upperlip,2.5,15,,,
45826,Shumailas Hair & Beauty Beehive Lane,Threading,Forehead,5,15,,,
45826,Shumailas Hair & Beauty Beehive Lane,Threading,Full face,12,15,,,
45826,Shumailas Hair & Beauty Beehive Lane,Waxing,Eyebrow ,5,15,,,
45826,Shumailas Hair & Beauty Beehive Lane,Waxing,Upperlip,3,15,,,
45826,Shumailas Hair & Beauty Beehive Lane,Waxing,Chin,6,15,,,
45826,Shumailas Hair & Beauty Beehive Lane,Waxing,Full face,14,30,,,
45826,Shumailas Hair & Beauty Beehive Lane,Waxing,Full body,40,30,,,
45826,Shumailas Hair & Beauty Beehive Lane,Waxing,Bikini line,8,15,,,
45826,Shumailas Hair & Beauty Beehive Lane,Waxing,Full arm,16,30,,,
45826,Shumailas Hair & Beauty Beehive Lane,Waxing,Chest,35,30,,,
45826,Shumailas Hair & Beauty Beehive Lane,Nails,Manicure,20,30,,,
45826,Shumailas Hair & Beauty Beehive Lane,Nails,Gents manicure,12,30,,,
45826,Shumailas Hair & Beauty Beehive Lane,Nails,Polish,7,15,,,
45826,Shumailas Hair & Beauty Beehive Lane,Nails,French polish,8,15,,,
45826,Shumailas Hair & Beauty Beehive Lane,Nails,Reshape and polish,12,15,,,
45826,Shumailas Hair & Beauty Beehive Lane,Nails,Shellac manicure,26,30,,,
45826,Shumailas Hair & Beauty Beehive Lane,Nails,Pedicure,20,30,,,
45825,Deeps Hair & Beauty,Women haircut,Dry cut,12,30,,,
45825,Deeps Hair & Beauty,Women haircut,Wash and cut,15,30,,,
45825,Deeps Hair & Beauty,Women haircut,Wash and blowdry,18,30,,,
45825,Deeps Hair & Beauty,Women haircut,Blowdry,10,15,,,
45825,Deeps Hair & Beauty,Women haircut,Starighten,10,15,,,
45825,Deeps Hair & Beauty,High-Lowlights,Full head foils,25,30,,,
45825,Deeps Hair & Beauty,High-Lowlights,T-section,25,30,,,
45825,Deeps Hair & Beauty,High-Lowlights,Half head highlights,35,45,,,
45825,Deeps Hair & Beauty,Colour,Full head colour,30,30,,,
45825,Deeps Hair & Beauty,Colour,Roots,20,30,,,
45825,Deeps Hair & Beauty,Colour,Perms and curls,65,60,,,
45825,Deeps Hair & Beauty,Kids cut,Wash and cut,12,30,,,
45825,Deeps Hair & Beauty,Kids cut,Wash cut and blowdry,18,30,,,
45825,Deeps Hair & Beauty,Kids cut,Dry cut under 10,8,15,,,
45825,Deeps Hair & Beauty,Eyes,Eyelash tint,8,15,,,
45825,Deeps Hair & Beauty,Eyes,Eyebrow tint,15,15,,,
45825,Deeps Hair & Beauty,Eyes,Eyelash perming,15,30,,,
45825,Deeps Hair & Beauty,Threading,Eyebrow,3,15,,,
45825,Deeps Hair & Beauty,Threading,Chin,2,15,,,
45825,Deeps Hair & Beauty,Threading,Forehead,2,15,,,
45825,Deeps Hair & Beauty,Waxing,Full arms,10,30,,,
45825,Deeps Hair & Beauty,Waxing,Underarms,8,15,,,
45825,Deeps Hair & Beauty,Waxing,Full leg,15,15,,,
45825,Deeps Hair & Beauty,Waxing,Half leg,10,15,,,
45825,Deeps Hair & Beauty,Waxing,Full back,10,15,,,
45825,Deeps Hair & Beauty,Waxing,Bikini line,6,15,,,
45825,Deeps Hair & Beauty,Waxing,Hollywood,17,30,,,
45825,Deeps Hair & Beauty,Waxing,Brazilian,12,30,,,
45825,Deeps Hair & Beauty,Hands and feet,Express manicure,10,15,,,
45825,Deeps Hair & Beauty,Hands and feet,Spa manicure,15,15,,,
45825,Deeps Hair & Beauty,Hands and feet,Paraffin wax manicure,20,30,,,
45825,Deeps Hair & Beauty,Hands and feet,Nail art,3,15,,,
45825,Deeps Hair & Beauty,Hands and feet,Express pedicure,15,30,,,
45825,Deeps Hair & Beauty,Hands and feet,Spa pedicure,20,30,,,
45825,Deeps Hair & Beauty,Hands and feet,Shape and polish,8,15,,,
45823,Shumailas Hair & Beauty Gants Hill,Dermalogica facial,Customized treatment,45,60,,,
45823,Shumailas Hair & Beauty Gants Hill,Dermalogica facial,Brightening facial,45,60,,,
45823,Shumailas Hair & Beauty Gants Hill,Dermalogica facial,Anti aging facial,45,60,,,
45823,Shumailas Hair & Beauty Gants Hill,Dermalogica facial,Ultra calming,45,60,,,
45823,Shumailas Hair & Beauty Gants Hill,Dermalogica facial,Deep cleansing,50,60,,,
45823,Shumailas Hair & Beauty Gants Hill,Threading,Eyebrow,3,15,,,
45823,Shumailas Hair & Beauty Gants Hill,Threading,Upperlip,2.5,15,,,
45823,Shumailas Hair & Beauty Gants Hill,Threading,Forehead,5,15,,,
45823,Shumailas Hair & Beauty Gants Hill,Threading,Full face,12,15,,,
45823,Shumailas Hair & Beauty Gants Hill,Waxing,Eyebrow ,5,15,,,
45823,Shumailas Hair & Beauty Gants Hill,Waxing,Upperlip,3,15,,,
45823,Shumailas Hair & Beauty Gants Hill,Waxing,Chin,6,15,,,
45823,Shumailas Hair & Beauty Gants Hill,Waxing,Full face,14,30,,,
45823,Shumailas Hair & Beauty Gants Hill,Waxing,Full body,40,30,,,
45823,Shumailas Hair & Beauty Gants Hill,Waxing,Bikini line,8,15,,,
45823,Shumailas Hair & Beauty Gants Hill,Waxing,Full arm,16,30,,,
45823,Shumailas Hair & Beauty Gants Hill,Waxing,Chest,35,30,,,
45823,Shumailas Hair & Beauty Gants Hill,Nails,Manicure,20,30,,,
45823,Shumailas Hair & Beauty Gants Hill,Nails,Gents manicure,12,30,,,
45823,Shumailas Hair & Beauty Gants Hill,Nails,Polish,7,15,,,
45823,Shumailas Hair & Beauty Gants Hill,Nails,French polish,8,15,,,
45823,Shumailas Hair & Beauty Gants Hill,Nails,Reshape and polish,12,15,,,
45823,Shumailas Hair & Beauty Gants Hill,Nails,Shellac manicure,26,30,,,
45823,Shumailas Hair & Beauty Gants Hill,Nails,Pedicure,20,30,,,
