45833,La Chic Hair Beauty & Holistic Therapy,Threading,Eybrow,3,15,0,0,0
45833,La Chic Hair Beauty & Holistic Therapy,Threading,Upperlip,2.5,15,,,
45833,La Chic Hair Beauty & Holistic Therapy,Threading,Chin,3.5,15,,,
45833,La Chic Hair Beauty & Holistic Therapy,Threading,Forehead,5,15,,,
45833,La Chic Hair Beauty & Holistic Therapy,Threading,Sleek brows 3d,35,45,,,
45833,La Chic Hair Beauty & Holistic Therapy,Waxing,Eyebrow,5,15,,,
45833,La Chic Hair Beauty & Holistic Therapy,Waxing,Chin,6,15,,,
45833,La Chic Hair Beauty & Holistic Therapy,Waxing,Stomach,15,30,,,
45833,La Chic Hair Beauty & Holistic Therapy,Waxing,Full face,14,30,,,
45833,La Chic Hair Beauty & Holistic Therapy,Waxing,Full body,40,60,,,
45833,La Chic Hair Beauty & Holistic Therapy,Waxing,Half leg,15,30,,,
45833,La Chic Hair Beauty & Holistic Therapy,Waxing,Bikini,8,15,,,
45833,La Chic Hair Beauty & Holistic Therapy,Waxing,Full arm,16,30,,,
45833,La Chic Hair Beauty & Holistic Therapy,Waxing,Chest men,35,45,,,
45833,La Chic Hair Beauty & Holistic Therapy,Waxing,Underarm,7,15,,,
45833,La Chic Hair Beauty & Holistic Therapy,Waxing,Hollywood,40,45,,,
45833,La Chic Hair Beauty & Holistic Therapy,Facials,MDA treatment,25,30,,,
45833,La Chic Hair Beauty & Holistic Therapy,Facials,Feet rejuvenation,35,45,,,
45833,La Chic Hair Beauty & Holistic Therapy,Facials,Hands rejuvenation,30,30,,,
45833,La Chic Hair Beauty & Holistic Therapy,Facials,European facial,35,45,,,
45833,La Chic Hair Beauty & Holistic Therapy,Facials,Hydra medic,45,45,,,
45833,La Chic Hair Beauty & Holistic Therapy,Facials,Four layer facial,60,90,,,
45833,La Chic Hair Beauty & Holistic Therapy,Hands and feet,Express manicure,10,15,,,
45833,La Chic Hair Beauty & Holistic Therapy,Hands and feet,Classic manicure,15,15,,,
45833,La Chic Hair Beauty & Holistic Therapy,Hands and feet,Deluxe manicure,25,30,,,
45833,La Chic Hair Beauty & Holistic Therapy,Hands and feet,Express pedicure,15,30,,,
45833,La Chic Hair Beauty & Holistic Therapy,Hands and feet,Classic pedicure,20,45,,,
45833,La Chic Hair Beauty & Holistic Therapy,Hands and feet,Luxury pedicure,25,60,,,
45833,La Chic Hair Beauty & Holistic Therapy,Hair,Dry cut,15,15,,,
45833,La Chic Hair Beauty & Holistic Therapy,Hair,Wash and cut,20,45,,,
45833,La Chic Hair Beauty & Holistic Therapy,Hair,Curl blowdry,25,30,,,
45833,La Chic Hair Beauty & Holistic Therapy,Hair,Root tint,25,30,,,
45833,La Chic Hair Beauty & Holistic Therapy,Hair,Full head highlight,75,75,,,
45833,La Chic Hair Beauty & Holistic Therapy,Hair,Hair up and party lashes,40,45,,,
