Sal_id,Monday,Tuesday,Wednesday,Thursday,Friday,Saturday,Sunday,Mobile Number,Salon_profile_Pic,Website,Facebook,Twitter,Instagram,Sal_zip,Sal_address,Sal_email
45833,09:00-17:30,09:00-17:30,09:00-17:30,09:00-17:30,09:00-17:30,09:00-17:30,09:00-17:30,7729414783,,http://www.lachicbeauty.co.uk/,,,,IG5 0EN,"169 Longwood Gardens, Gants Hill",
46600,10:00-18:00,10:00-18:00,10:00-20:00,10:00-18:00,10:00-18:00,09:00-18:00,11:00-17:00,,,http://definedbeauty.co.uk/,,,,IG1 1DE,"50 High Rd, Ilford",info@definedbeauty.co.uk
48079,10:00-18:00,10:00-18:00,10:00-20:00,10:00-18:00,10:00-18:00,09:00-18:00,00:00-00:00,07852 170 048,,https://komalsbeauty.weebly.com/,,,,IG1 2RN,"113 Ilford Ln, Seven Kings",
49660,09:00-18:00,09:00-18:00,09:00-20:00,09:00-17:00,09:00-17:00,09:00-17:00,00:00-00:00,,,http://www.anjikas-lowelites.co.uk/,,,,IG2 7JH,"84 Leyswood Dr, Aldborough Hatch",info@anjikas-lowelites.co.uk
49663,10:00-19:00,10:00-19:00,10:00-19:00,10:00-20:00,10:00-19:00,10:00-18:00,10:00-17:00,,,https://www.nainasbeautybox.co.uk/,,,,IG6 2DR,"92 High St, Aldborough Hatch",nainasbeautybox@outlook.com
