69,Taylors Salon,Cutting and styling,Wash cut and blowdry,60,60,0,0,0
69,Taylors Salon,Cutting and styling,Wash and blowdry,40,45,,,
69,Taylors Salon,Bridal,In salon,62,75,,,
69,Taylors Salon,Highlights and lowlights,T-section ,85,60,,,
69,Taylors Salon,Highlights and lowlights,Half head,105,60,,,
69,Taylors Salon,Balayage,Full head,100,75,,,
69,Taylors Salon,Glossed and tints,Gloss,59,60,,,
69,Taylors Salon,Glossed and tints,Tint,66,60,,,
69,Taylors Salon,Brazilian blowdry,Short,210,90,,,
69,Taylors Salon,Brazilian blowdry,Medium,265,90,,,
69,Taylors Salon,Brazilian blowdry,Long,310,90,,,
69,Taylors Salon,Olaplex,Stand alone,50,60,,,
69,Taylors Salon,Olaplex,Colour toner,26,30,,,
