m8,Allenora Annie Signature Salons,Hair treatment,Hair colouring,5000,60
m8,Allenora Annie Signature Salons,Hair treatment,Hair highlight,10000,60
m8,Allenora Annie Signature Salons,Hair treatment,Hair dressing,1000,60
m8,Allenora Annie Signature Salons,Hair treatment,Wedding hair,8000,60
m8,Allenora Annie Signature Salons,Hair treatment,Hair cuts,1000,60
m8,Allenora Annie Signature Salons,Make-up,Bridal makeup,40000,60
m8,Allenora Annie Signature Salons,Make-up,Casual makeup,6000,60
m8,Allenora Annie Signature Salons,Make-up,Eye makeup,4000,60
m8,Allenora Annie Signature Salons,Make-up,Party makeup,15000,60
m8,Allenora Annie Signature Salons,Piercing,Ear piercing,1500,60
m8,Allenora Annie Signature Salons,Piercing,Nose piercing,1500,60
m8,Allenora Annie Signature Salons,Piercing,Naval piercing,1500,60
m8,Allenora Annie Signature Salons,Piercing,Lips piercing,1500,60
m8,Allenora Annie Signature Salons,Skin treatment,Skin repair,2000,60
m8,Allenora Annie Signature Salons,Skin treatment,Peels,2000,60
m8,Allenora Annie Signature Salons,Skin treatment,Skin glow,3000,60
m8,Allenora Annie Signature Salons,Nails,Manicure,6000,60
m8,Allenora Annie Signature Salons,Nails,Pedicure,7000,60
m8,Allenora Annie Signature Salons,Nails,Nail art,1500,60
m2,Abbas Ali Hair Fashion,Hair treatment,Hair cuts,200,60
m2,Abbas Ali Hair Fashion,Hair treatment,Hair styles,500,60
m2,Abbas Ali Hair Fashion,Hair treatment,Hair straightening,1000,60
m2,Abbas Ali Hair Fashion,Men Make-up,Make-up,2000,60
m2,Abbas Ali Hair Fashion,Men Make-up,Bleach,2000,60
m2,Abbas Ali Hair Fashion,Men Facial,Facial,1500,60
m3,About U Salon,Hair treatment,Hair cuts,5000,60
m3,About U Salon,Hair treatment,Hair styles,7000,60
m3,About U Salon,Hair treatment,Hair straightening,10000,60
m3,About U Salon,Make-up,Make-up,15000,60
m3,About U Salon,Make-up,Eye makeup,12000,60
m3,About U Salon,Facial,Facial,8000,60
m3,About U Salon,Nails,Manicure,2000,60
m3,About U Salon,Nails,Pedicure,3000,60
m10,Amina Raja The Makeup Lounge,Hair treatment,Hair cuts,7000,60
m10,Amina Raja The Makeup Lounge,Hair treatment,Hair styles,10000,60
m10,Amina Raja The Makeup Lounge,Hair treatment,Hair straightening,12000,60
m10,Amina Raja The Makeup Lounge,Make-up,Make-up,20000,60
m10,Amina Raja The Makeup Lounge,Make-up,Eye makeup,18000,60
m10,Amina Raja The Makeup Lounge,Facial,Facial,15000,60
m10,Amina Raja The Makeup Lounge,Nails,Manicure,3000,60
m10,Amina Raja The Makeup Lounge,Nails,Pedicure,4000,60
m11,Amina Z Salon & Makeup Studio,Skin care,Guinot cleansing,5000,60
m11,Amina Z Salon & Makeup Studio,Skin care,Guinot eye treatment,6000,60
m11,Amina Z Salon & Makeup Studio,Skin care,Isabella cleansing,7000,60
m11,Amina Z Salon & Makeup Studio,Skin care,Isabella eye treatment,8000,60
m11,Amina Z Salon & Makeup Studio,Body Massage,Massage,15000,60
m11,Amina Z Salon & Makeup Studio,Mani pedi,Manicure,5000,60
m11,Amina Z Salon & Makeup Studio,Mani pedi,Pedicure,7000,60
m11,Amina Z Salon & Makeup Studio,Mani pedi,Dermalogica manicure,7000,60
m11,Amina Z Salon & Makeup Studio,Mani pedi,Dermalogica pedicure,9000,60
m11,Amina Z Salon & Makeup Studio,Waxing and threading,Eye threading,2000,60
m11,Amina Z Salon & Makeup Studio,Waxing and threading,Lip threading,2000,60
m11,Amina Z Salon & Makeup Studio,Waxing and threading,Lip waxing,1500,60
m11,Amina Z Salon & Makeup Studio,Waxing and threading,Chin waxing,1500,60
m17,Ather Shahzad Studio,Men Hair treatment,Hair cuts,5000,60
m17,Ather Shahzad Studio,Men Hair treatment,Hair styles,7000,60
m17,Ather Shahzad Studio,Men Hair treatment,Hair straightening,10000,60
m17,Ather Shahzad Studio,Men Make-up,Make-up,15000,60
m17,Ather Shahzad Studio,Men Make-up,Bleach,17000,60
m17,Ather Shahzad Studio,Men Facial,Facial,15000,60
m17,Ather Shahzad Studio,Hair treatment,Hair cuts,7000,60
m17,Ather Shahzad Studio,Hair treatment,Hair styles,10000,60
m17,Ather Shahzad Studio,Hair treatment,Hair straightening,12000,60
m17,Ather Shahzad Studio,Make-up,Make-up,15000,60
m17,Ather Shahzad Studio,Make-up,Eye makeup,15000,60
m17,Ather Shahzad Studio,Make-up,Bridal makeup,25000,60
m17,Ather Shahzad Studio,Facial,Facial,20000,60
m18,Ayeshas Bridal Makeup Salon & Institute,Hair treatment,Hair cuts,7000,60
m18,Ayeshas Bridal Makeup Salon & Institute,Hair treatment,Hair styles,8000,60
m18,Ayeshas Bridal Makeup Salon & Institute,Hair treatment,Hair straightening,10000,60
m18,Ayeshas Bridal Makeup Salon & Institute,Make-up,Make-up,20000,60
m18,Ayeshas Bridal Makeup Salon & Institute,Make-up,Eye makeup,15000,60
m18,Ayeshas Bridal Makeup Salon & Institute,Facial,Facial,15000,60
m18,Ayeshas Bridal Makeup Salon & Institute,Nails,Manicure,3000,60
m18,Ayeshas Bridal Makeup Salon & Institute,Nails,Pedicure,5000,60
m18,Ayeshas Bridal Makeup Salon & Institute,Skin care,Guinot cleansing,5000,60
m18,Ayeshas Bridal Makeup Salon & Institute,Skin care,Guinot eye treatment,7000,60
m18,Ayeshas Bridal Makeup Salon & Institute,Skin care,Isabella cleansing,8000,60
m18,Ayeshas Bridal Makeup Salon & Institute,Skin care,Isabella eye treatment,9000,60
m18,Ayeshas Bridal Makeup Salon & Institute,Hair care,Kerastare ,5000,60
m18,Ayeshas Bridal Makeup Salon & Institute,Hair care,Glossing,7000,60
m21,Be-Beautiful,Hair treatment,Hair colouring,8000,60
m21,Be-Beautiful,Hair treatment,Hair highlight,12000,60
m21,Be-Beautiful,Hair treatment,Hair dressing,10000,60
m21,Be-Beautiful,Hair treatment,Wedding hair,12000,60
m21,Be-Beautiful,Hair treatment,Hair cuts,10000,60
m21,Be-Beautiful,Make-up,Bridal makeup,40000,60
m21,Be-Beautiful,Make-up,Casual makeup,30000,60
m21,Be-Beautiful,Make-up,Eye makeup,25000,60
m21,Be-Beautiful,Make-up,Party makeup,35000,60
m21,Be-Beautiful,Piercing,Ear piercing,10000,60
m21,Be-Beautiful,Piercing,Nose piercing,10000,60
m21,Be-Beautiful,Piercing,Naval piercing,10000,60
m21,Be-Beautiful,Piercing,Lips piercing,10000,60
m21,Be-Beautiful,Skin treatment,Skin repair,25000,60
m21,Be-Beautiful,Skin treatment,Peels,20000,60
m21,Be-Beautiful,Skin treatment,Skin glow,25000,60
m25,Beautylicious The Salon,Hair treatment,Hair colouring,10000,60
m25,Beautylicious The Salon,Hair treatment,Hair highlight,15000,60
m25m,Beautylicious The Salon,Hair treatment,Hair dressing,12000,60
m25,Beautylicious The Salon,Hair treatment,Wedding hair,20000,60
m25,Beautylicious The Salon,Hair treatment,Hair cuts,10000,60
m25,Beautylicious The Salon,Make-up,Bridal makeup,50000,60
m25,Beautylicious The Salon,Make-up,Casual makeup,40000,60
m25,Beautylicious The Salon,Make-up,Eye makeup,30000,60
m25,Beautylicious The Salon,Make-up,Party makeup,35000,60
m25,Beautylicious The Salon,Piercing,Ear piercing,10000,60
m25,Beautylicious The Salon,Piercing,Nose piercing,10000,60
m25,Beautylicious The Salon,Piercing,Naval piercing,10000,60
m25,Beautylicious The Salon,Piercing,Lips piercing,10000,60
m25,Beautylicious The Salon,Skin treatment,Skin repair,25000,60
m25,Beautylicious The Salon,Skin treatment,Peels,25000,60
m25,Beautylicious The Salon,Skin treatment,Skin glow,30000,60
m25,Beautylicious The Salon,Mani pedi,Manicure,7000,60
m25,Beautylicious The Salon,Mani pedi,Pedicure,9000,60
m25,Beautylicious The Salon,Mani pedi,Dermalogica manicure,9000,60
m25,Beautylicious The Salon,Mani pedi,Dermalogica pedicure,11000,60
m25,Beautylicious The Salon,Waxing and threading,Eye threading,2000,60
m25,Beautylicious The Salon,Waxing and threading,Lip threading,2000,60
m25,Beautylicious The Salon,Waxing and threading,Lip waxing,2000,60
m25,Beautylicious The Salon,Waxing and threading,Chin waxing,2000,60
m33,COSMO SALON ,Hair treatment,Hair colouring,8000,60
m33,COSMO SALON ,Hair treatment,Hair highlight,10000,60
m33,COSMO SALON ,Hair treatment,Hair dressing,5000,60
m33,COSMO SALON ,Hair treatment,Wedding hair,18000,60
m33,COSMO SALON ,Hair treatment,Hair cuts,5000,60
m33,COSMO SALON ,Make-up,Bridal makeup,45000,60
m33,COSMO SALON ,Make-up,Casual makeup,35000,60
m33,COSMO SALON ,Make-up,Eye makeup,15000,60
m33,COSMO SALON ,Make-up,Party makeup,20000,60
m33,COSMO SALON ,Men Make-up,Make-up,20000,60
m33,COSMO SALON ,Men Make-up,Bleach,11000,60
m33,COSMO SALON ,Men Hair treatment,Hair cuts,2000,60
m33,COSMO SALON ,Men Hair treatment,Hair styles,2500,60
m33,COSMO SALON ,Men Hair treatment,Hair straightening,3000,60
m40,Depilex,Hair treatment,Hair colouring,15000,60
m40,Depilex,Hair treatment,Hair highlight,20000,60
m40,Depilex,Hair treatment,Hair dressing,15000,60
m40,Depilex,Hair treatment,Wedding hair,20000,60
m40,Depilex,Hair treatment,Hair cuts,17000,60
m40,Depilex,Make-up,Bridal makeup,50000,60
m40,Depilex,Make-up,Casual makeup,45000,60
m40,Depilex,Make-up,Eye makeup,40000,60
m40,Depilex,Make-up,Party makeup,35000,60
m40,Depilex,Facial,Facial,30000,60
m40,Depilex,Massage,Massage,20000,30
m41,Depilex Beauty Clinic,Hair treatment,Hair colouring,15000,60
m41,Depilex Beauty Clinic,Hair treatment,Hair highlight,20000,60
m41,Depilex Beauty Clinic,Hair treatment,Hair dressing,15000,60
m41,Depilex Beauty Clinic,Hair treatment,Wedding hair,20000,60
m41,Depilex Beauty Clinic,Hair treatment,Hair cuts,17000,60
m41,Depilex Beauty Clinic,Make-up,Bridal makeup,50000,60
m41,Depilex Beauty Clinic,Make-up,Casual makeup,45000,60
m41,Depilex Beauty Clinic,Make-up,Eye makeup,40000,60
m41,Depilex Beauty Clinic,Make-up,Party makeup,35000,60
m41,Depilex Beauty Clinic,Facial,Facial,30000,60
m41,Depilex Beauty Clinic,Massage,Massage,20000,30
m42,Depilex Beauty Clinic & Institute,Hair treatment,Hair colouring,15000,60
m42,Depilex Beauty Clinic & Institute,Hair treatment,Hair highlight,20000,60
m42,Depilex Beauty Clinic & Institute,Hair treatment,Hair dressing,15000,60
m42,Depilex Beauty Clinic & Institute,Hair treatment,Wedding hair,20000,60
m42,Depilex Beauty Clinic & Institute,Hair treatment,Hair cuts,17000,60
m42,Depilex Beauty Clinic & Institute,Make-up,Bridal makeup,50000,60
m42,Depilex Beauty Clinic & Institute,Make-up,Casual makeup,45000,60
m42,Depilex Beauty Clinic & Institute,Make-up,Eye makeup,40000,60
m42,Depilex Beauty Clinic & Institute,Make-up,Party makeup,35000,60
m42,Depilex Beauty Clinic & Institute,Facial,Facial,30000,60
m42,Depilex Beauty Clinic & Institute,Massage,Massage,20000,30
m44,Diva Beauty Salon,Hair treatment,Hair colouring,7000,60
m44,Diva Beauty Salon,Hair treatment,Hair highlight,10000,60
m44,Diva Beauty Salon,Hair treatment,Hair dressing,5000,60
m44,Diva Beauty Salon,Hair treatment,Wedding hair,7000,60
m44,Diva Beauty Salon,Hair treatment,Hair cuts,4000,60
m44,Diva Beauty Salon,Make-up,Bridal makeup,30000,60
m44,Diva Beauty Salon,Make-up,Casual makeup,25000,60
m44,Diva Beauty Salon,Make-up,Eye makeup,20000,60
m44,Diva Beauty Salon,Make-up,Party makeup,25000,60
m44,Diva Beauty Salon,Facial,Facial,30000,60
m44,Diva Beauty Salon,Massage,Massage,25000,60
m56,Fantasies Beauty Salon & Spa,Hair treatment,Hair colouring,7000,60
m56,Fantasies Beauty Salon & Spa,Hair treatment,Hair highlight,10000,60
m56,Fantasies Beauty Salon & Spa,Hair treatment,Hair dressing,5000,60
m56,Fantasies Beauty Salon & Spa,Hair treatment,Wedding hair,15000,60
m56,Fantasies Beauty Salon & Spa,Hair treatment,Hair cuts,5000,60
m56,Fantasies Beauty Salon & Spa,Make-up,Bridal makeup,40000,60
m56,Fantasies Beauty Salon & Spa,Make-up,Casual makeup,35000,60
m56,Fantasies Beauty Salon & Spa,Make-up,Eye makeup,30000,60
m56,Fantasies Beauty Salon & Spa,Make-up,Party makeup,25000,60
m56,Fantasies Beauty Salon & Spa,Waxing and threading,Eye threading,2000,30
m56,Fantasies Beauty Salon & Spa,Waxing and threading,Lip threading,2000,30
m56,Fantasies Beauty Salon & Spa,Waxing and threading,Lip waxing,2000,30
m56,Fantasies Beauty Salon & Spa,Waxing and threading,Chin waxing,2000,30
m56,Fantasies Beauty Salon & Spa,Tattoo Making,Tattoo on hand,5000,60
m56,Fantasies Beauty Salon & Spa,Tattoo Making,Tattoo on feet,5000,60
m73,Hadiqa Kiani Signature Salon,Body,Body bleaching,10000,60
m73,Hadiqa Kiani Signature Salon,Body,Body Henna,12000,60
m73,Hadiqa Kiani Signature Salon,Body,Body scrub,15000,60
m73,Hadiqa Kiani Signature Salon,Body,Piercing,7000,60
m73,Hadiqa Kiani Signature Salon,Herbal,Acne treatment,5000,60
m73,Hadiqa Kiani Signature Salon,Herbal,Herbal Massage,8000,60
m73,Hadiqa Kiani Signature Salon,Herbal,LPG,5000,60
m73,Hadiqa Kiani Signature Salon,Herbal,Skin analysis,12000,60
m73,Hadiqa Kiani Signature Salon,Herbal,Skin whitening,15000,60
m73,Hadiqa Kiani Signature Salon,Face,Acne facial,15000,60
m73,Hadiqa Kiani Signature Salon,Face,Collagen facial,15000,60
m73,Hadiqa Kiani Signature Salon,Face,Eyebrow threading,2000,60
m73,Hadiqa Kiani Signature Salon,Face,Eyebrow waxing,2000,60
m73,Hadiqa Kiani Signature Salon,Face,Makeup,40000,60
m73,Hadiqa Kiani Signature Salon,Face,Mask,30000,60
m73,Hadiqa Kiani Signature Salon,Face,Wedding makeup,45000,60
m73,Hadiqa Kiani Signature Salon,Hair,Blowdry,15000,60
m73,Hadiqa Kiani Signature Salon,Hair,Hair coloring,10000,60
m73,Hadiqa Kiani Signature Salon,Hair,Hair perming,12000,60
m73,Hadiqa Kiani Signature Salon,Hair,Hair botox,10000,60
m73,Hadiqa Kiani Signature Salon,Hair,Ladies haircut,7000,60
m73,Hadiqa Kiani Signature Salon,Hair,Wedding hair,15000,60
m73,Hadiqa Kiani Signature Salon,Nails,Acrylic,3000,60
m73,Hadiqa Kiani Signature Salon,Nails,Callus,4000,60
m73,Hadiqa Kiani Signature Salon,Nails,Gelish,5000,60
m73,Hadiqa Kiani Signature Salon,Nails,Nail art,6000,60
m73,Hadiqa Kiani Signature Salon,Nails,Manicure,6000,60
m73,Hadiqa Kiani Signature Salon,Nails,Pedicure,7000,60
m73,Hamnas Beauty Salon & Bridal Studio,Face,Facials,6000,60
m73,Hamnas Beauty Salon & Bridal Studio,Face,Whitening Facial,8000,60
m73,Hamnas Beauty Salon & Bridal Studio,Face,Makeup,10000,60
m73,Hamnas Beauty Salon & Bridal Studio,Face,Wedding Makeup,30000,60
m73,Hamnas Beauty Salon & Bridal Studio,Hair,Blow Dry,8000,60
m73,Hamnas Beauty Salon & Bridal Studio,Hair,Wedding Hair,12000,60
m73,Hamnas Beauty Salon & Bridal Studio,Hair,Hair Coloring,7000,60
m73,Hamnas Beauty Salon & Bridal Studio,Hair,Ladies Haircut,5000,60
m73,Hamnas Beauty Salon & Bridal Studio,Hair,Hair Straightening,7000,60
m73,Hamnas Beauty Salon & Bridal Studio,Hair,Highlights/Lowlights,8000,60
m73,Hamnas Beauty Salon & Bridal Studio,Nails,Manicure,2000,60
m73,Hamnas Beauty Salon & Bridal Studio,Nails,Pedicure,3000,60
m76,Hayaz Beauty Salon & Studio,Face,Eyebrow Threading,2000,60
m76,Hayaz Beauty Salon & Studio,Face,Whitening Facial,5000,60
m76,Hayaz Beauty Salon & Studio,Face,Eyebrow/Eyelash,3000,30
m76,Hayaz Beauty Salon & Studio,Face,Wedding Makeup,20000,60
m76,Hayaz Beauty Salon & Studio,Face,Facials,5000,60
m76,Hayaz Beauty Salon & Studio,Face,Makeup,10000,60
m76,Hayaz Beauty Salon & Studio,Hair,Blow Dry,9000,60
m76,Hayaz Beauty Salon & Studio,Hair,Hair Extensions,7000,60
m76,Hayaz Beauty Salon & Studio,Hair,Hair Coloring,8000,60
m76,Hayaz Beauty Salon & Studio,Hair,Hair Straightening,8000,60
m76,Hayaz Beauty Salon & Studio,Hair,Wedding Hair,12000,60
m76,Hayaz Beauty Salon & Studio,Hair,Highlights/Lowlights,10000,60
m76,Hayaz Beauty Salon & Studio,Hair,Ladies Haircut,5000,60
m80,Hina Azfar Signature Salon By Nikkis Salons ,Hair,Hair treatments,3000,60
m80,Hina Azfar Signature Salon By Nikkis Salons ,Make-up,Bridal makeup,18000,120
m80,Hina Azfar Signature Salon By Nikkis Salons ,Facial,Facial,1000,60
m80,Hina Azfar Signature Salon By Nikkis Salons ,Mehandi,"Mehandi (Nikah, Eid, Bridal)",1000,30
m80,Hina Azfar Signature Salon By Nikkis Salons ,Nails,Manicure and Pedicure,1000,60
m87,Khawar Riaz Salon,Hair,Hair coloring,7000,60
m87,Khawar Riaz Salon,Hair,Hair cutting,5000,60
m87,Khawar Riaz Salon,Hair,Hair styling,8000,60
m87,Khawar Riaz Salon,Hair,Hair extension,8000,60
m87,Khawar Riaz Salon,Hair,Straightening,10000,60
m87,Khawar Riaz Salon,Hair,Streaking,7000,60
m87,Khawar Riaz Salon,Skin,Facials,12000,60
m87,Khawar Riaz Salon,Skin,Cleansing,12000,60
m87,Khawar Riaz Salon,Skin,Waxing,3000,60
m87,Khawar Riaz Salon,Skin,Threading,3000,60
m87,Khawar Riaz Salon,Skin,Manicure,5000,60
m87,Khawar Riaz Salon,Skin,Pedicure,7000,60
m87,Khawar Riaz Salon,Skin,Polishing,5000,60
m87,Khawar Riaz Salon,Make-up,Bridal Makeup,40000,60
m87,Khawar Riaz Salon,Make-up,Engagement Makeup,35000,60
m87,Khawar Riaz Salon,Make-up,Mehndi Makeup,35000,60
m87,Khawar Riaz Salon,Make-up,Model Makeup,30000,60
m87,Khawar Riaz Salon,Make-up,Party Makeup,25000,60
m87,Khawar Riaz Salon,Make-up,Signature Makeup,30000,60
m97,madeehas beauty salon,Body,Body Bleaching,10000,60
m97,madeehas beauty salon,Body,Body Scrub,12000,60
m97,madeehas beauty salon,Body,Body Henna,12000,60
m97,madeehas beauty salon,Body,Skin Whitening,15000,60
m97,madeehas beauty salon,Face,Acne Facial,13000,60
m97,madeehas beauty salon,Face,Whitening Facial,16000,60
m97,madeehas beauty salon,Face,Eyebrow Threading,3000,60
m97,madeehas beauty salon,Face,Tinting,5000,60
m97,madeehas beauty salon,Face,Eyebrow Waxing,4000,60
m97,madeehas beauty salon,Face,Mask,6000,60
m97,madeehas beauty salon,Face,Eyebrow/Eyelash,3500,60
m97,madeehas beauty salon,Face,Makeup,20000,60
m97,madeehas beauty salon,Face,Eyelash Extensions,10000,60
m97,madeehas beauty salon,Face,Wedding Makeup,40000,60
m97,madeehas beauty salon,Face,Facials,20000,60
m97,madeehas beauty salon,Hair,Blow Dry,12000,60
m97,madeehas beauty salon,Hair,Hair Straightening,9000,60
m97,madeehas beauty salon,Hair,Hair Coloring,8000,60
m97,madeehas beauty salon,Hair,Hair Perming,7000,60
m97,madeehas beauty salon,Hair,Hair Extensions,8500,60
m97,madeehas beauty salon,Hair,Wedding Hair,15000,60
m97,madeehas beauty salon,Hair,Keratin,12000,60
m97,madeehas beauty salon,Hair,Ladies Haircut,10000,60
m97,madeehas beauty salon,Hair,Highlights/Lowlights,12000,60
m97,madeehas beauty salon,Hair,INOA,15000,60
m77,Hayaz Beauty Salon (canal view colony),Face,Eyebrow threading,3000,60
m77,Hayaz Beauty Salon (canal view colony),Face,Facial ,5000,60
m77,Hayaz Beauty Salon (canal view colony),Face,Makeup,15000,60
m77,Hayaz Beauty Salon (canal view colony),Face,Wedding Makeup,30000,60
m77,Hayaz Beauty Salon (canal view colony),Face,Whitening Facial,25000,60
m77,Hayaz Beauty Salon (canal view colony),Hair,Blow Dry,20000,60
m77,Hayaz Beauty Salon (canal view colony),Hair,Hair Coloring,10000,60
m77,Hayaz Beauty Salon (canal view colony),Hair,Hair extensions,8000,60
m77,Hayaz Beauty Salon (canal view colony),Hair,Ladies haircut,7000,60
m77,Hayaz Beauty Salon (canal view colony),Hair,Wedding hair,10000,60
m92,Lalas Beauty Saloon,Hair treatment,Hair cuts,5000,60
m92,Lalas Beauty Saloon,Hair treatment,Hair styles,6000,60
m92,Lalas Beauty Saloon,Hair treatment,Hair straightening,7000,60
m92,Lalas Beauty Saloon,Make-up,Make-up,15000,60
m92,Lalas Beauty Saloon,Make-up,Eye makeup,12000,60
m92,Lalas Beauty Saloon,Facial,Facial,11000,60
m92,Lalas Beauty Saloon,Nails,Manicure,2000,60
m92,Lalas Beauty Saloon,Nails,Pedicure,3000,60
m92,Lalas Beauty Saloon,Skin care,Guinot cleansing,5000,60
m101,Maram & Aabroo - Salon & Studio,Nails,Manicure,800,15
m101,Maram & Aabroo - Salon & Studio,Nails,Pedicure,800,15
m101,Maram & Aabroo - Salon & Studio,Hair,Color Balayage,7000,60
m101,Maram & Aabroo - Salon & Studio,Hair,Color Glossing,4000,60
m101,Maram & Aabroo - Salon & Studio,Hair,Full head color,6500,60
m101,Maram & Aabroo - Salon & Studio,Hair,Haf head highlights,6000,60
m101,Maram & Aabroo - Salon & Studio,Hair,Wash and blowdry,900,60
m101,Maram & Aabroo - Salon & Studio,Hair,Signature haircut,5000,60
m101,Maram & Aabroo - Salon & Studio,Make-up,Party Makeup,8000,60
m101,Maram & Aabroo - Salon & Studio,Make-up,Eye makeup,3000,60
m102,Mariam Khawaja,Hair,Hair cutting,5000,60
m102,Mariam Khawaja,Hair,Highlighting,7000,60
m102,Mariam Khawaja,Hair,Rebounding,8000,60
m102,Mariam Khawaja,Hair,Hair extensions,9000,60
m102,Mariam Khawaja,Hair,Hair repair,10000,60
m102,Mariam Khawaja,Skin,Facial,10000,60
m102,Mariam Khawaja,Skin,Facial wax,12000,60
m102,Mariam Khawaja,Skin,Body massage,15000,60
m102,Mariam Khawaja,Skin,Body wax,20000,60
m102,Mariam Khawaja,Skin,Manicure,3000,60
m102,Mariam Khawaja,Skin,Pedicure,5000,60
m102,Mariam Khawaja,Makeup,Bridal Makeup,35000,60
m102,Mariam Khawaja,Makeup,Nikah Makeup,30000,60
m102,Mariam Khawaja,Makeup,Walima makeup,35000,60
m102,Mariam Khawaja,Makeup,Signature makeup,25000,60
m103,Marvel Beauty Clinic,Hair,Haircut,6000,60
m103,Marvel Beauty Clinic,Hair,Blowdry,8000,60
m103,Marvel Beauty Clinic,Hair,Hair extensions,9000,60
m103,Marvel Beauty Clinic,Nails,Manicure,2000,60
m103,Marvel Beauty Clinic,Nails,Pedicure,3000,60
m103,Marvel Beauty Clinic,Waxing,Waxing,5000,60
m103,Marvel Beauty Clinic,Waxing,Hand and feet polish,4000,60
m103,Marvel Beauty Clinic,Waxing,Full arm wax,5000,60
m103,Marvel Beauty Clinic,Waxing,Half leg wax,5000,60
m103,Marvel Beauty Clinic,Facial,Zafrani facial,7000,60
m103,Marvel Beauty Clinic,Facial,Deep neck polisher,5000,60
m111,Nabila Salon,Hair,Level 1 haircut,3000,60
m111,Nabila Salon,Hair,Art director,15000,60
m111,Nabila Salon,Hair,Roots colour,3000,60
m111,Nabila Salon,Hair,Colour enhancer,3500,60
m111,Nabila Salon,Hair,Tinting,6000,60
m111,Nabila Salon,Make-up,Level 1 makeup,12000,60
m111,Nabila Salon,Make-up,Level 4 makeup,30000,60
m111,Nabila Salon,Hand Care,Scrub,800,60
m111,Nabila Salon,Hand Care,Express manicure with polish,1800,60
m111,Nabila Salon,Hand Care,Hydrating manicure,2500,60
m111,Nabila Salon,Hand Care,Gel polish,3000,60
m111,Nabila Salon,Hand Care,Hand massage,1000,60
m122,Newlook Beauty Clinic Spa & Institute,Hair,Hair cut and blowdry,10000,60
m122,Newlook Beauty Clinic Spa & Institute,Hair,Hair styles,11000,60
m122,Newlook Beauty Clinic Spa & Institute,Hair,Professional blowdry,12000,60
m122,Newlook Beauty Clinic Spa & Institute,Hair,Hair style deluxe,8000,60
m122,Newlook Beauty Clinic Spa & Institute,Hair,Hair gloss,8000,60
m122,Newlook Beauty Clinic Spa & Institute,Hair,Brazilian blowdry,12000,60
m122,Newlook Beauty Clinic Spa & Institute,Hair,Japanese rebonding,10000,60
m122,Newlook Beauty Clinic Spa & Institute,Skin Polish,Face and neck,12000,60
m122,Newlook Beauty Clinic Spa & Institute,Skin Polish,Full arm ,8000,60
m122,Newlook Beauty Clinic Spa & Institute,Skin Polish,Full body and body scrub,10000,60
m122,Newlook Beauty Clinic Spa & Institute,Skin care,Whitening Facial,15000,60
m122,Newlook Beauty Clinic Spa & Institute,Skin care,Chocolate facial,15000,60
m122,Newlook Beauty Clinic Spa & Institute,Skin care,Diamond peel,12000,60
m122,Newlook Beauty Clinic Spa & Institute,Skin care,Organic whitening,10000,60
m122,Newlook Beauty Clinic Spa & Institute,Skin care,Organic anti aging,17000,60
m122,Newlook Beauty Clinic Spa & Institute,Body Spa,Aromatherapy body massage,10000,60
m122,Newlook Beauty Clinic Spa & Institute,Body Spa,Full body massage,15000,60
m122,Newlook Beauty Clinic Spa & Institute,Body Spa,Foot massage,6000,15
m122,Newlook Beauty Clinic Spa & Institute,Hair removal,Eyebrow threading,3000,60
m122,Newlook Beauty Clinic Spa & Institute,Hair removal,Eyebrow waxing,3000,60
m122,Newlook Beauty Clinic Spa & Institute,Hair removal,Full face threading,4000,60
m122,Newlook Beauty Clinic Spa & Institute,Hair removal,Full arm wax,5000,60
m122,Newlook Beauty Clinic Spa & Institute,Hair removal,Full body waxing,8000,60
m122,Newlook Beauty Clinic Spa & Institute,Nails,Manicure,2000,60
m122,Newlook Beauty Clinic Spa & Institute,Nails,Pedicure,4000,60
m122,Newlook Beauty Clinic Spa & Institute,Nails,OPI manicure,3500,60
m122,Newlook Beauty Clinic Spa & Institute,Nails,OPI pedicure,5500,60
m122,Newlook Beauty Clinic Spa & Institute,Nails,Nail art,6000,60
m124,Nikkis Beauty Salon,Hair,Hair Coloring,3000,60
m124,Nikkis Beauty Salon,Hair,Hair treatments,4000,60
m124,Nikkis Beauty Salon,Hair,Hair style,3000,60
m124,Nikkis Beauty Salon,Hair,Hair staraightening,2500,60
m124,Nikkis Beauty Salon,Hair,Hair cutting,2000,60
m124,Nikkis Beauty Salon,Massage,Massage,3000,60
m124,Nikkis Beauty Salon,Mehandi,"Mehandi (Nikah, Eid, Bridal)",2000,60
m126,NINA G,Hair,Haircut,3000,60
m126,NINA G,Hair,Highlights/Lowlights,5000,60
m126,NINA G,Hair,Bridal hairstyle,10000,60
m126,NINA G,Hair,Hair extensions,10000,60
m126,NINA G,Nails,Manicure,5000,60
m126,NINA G,Nails,Pedicure,6000,60
m126,NINA G,Nails,Nail color,5000,60
m126,NINA G,Make-up,Bridal Makeup,40000,60
m126,NINA G,Make-up,Skin glow,20000,60
m132,Pengs Hair & Beauty Clinic,Hair,Hair Coloring,7000,60
m132,Pengs Hair & Beauty Clinic,Hair,Hair treatments,8000,60
m132,Pengs Hair & Beauty Clinic,Hair,Hair style,8000,60
m132,Pengs Hair & Beauty Clinic,Hair,Hair staraightening,9000,60
m132,Pengs Hair & Beauty Clinic,Hair,Hair cutting,5000,60
m132,Pengs Hair & Beauty Clinic,Skin,Facial,9000,60
m132,Pengs Hair & Beauty Clinic,Skin,Facial wax,4000,60
m132,Pengs Hair & Beauty Clinic,Skin,Body massage,5000,60
m132,Pengs Hair & Beauty Clinic,Skin,Body wax,6000,60
m132,Pengs Hair & Beauty Clinic,Skin,Manicure,3000,60
m132,Pengs Hair & Beauty Clinic,Skin,Pedicure,4000,60
m141,Rukash Salon,Make-up,Silver bridal makeup,35000,60
m141,Rukash Salon,Make-up,Platinum bridal makeup,45000,60
m141,Rukash Salon,Make-up,Gold bridal makeup,40000,60
m141,Rukash Salon,Make-up,Signature walima makeup,30000,60
m141,Rukash Salon,Make-up,Mehandi makeup,20000,60
m141,Rukash Salon,Make-up,Nikah Makeup,15000,60
m141,Rukash Salon,Hair,Hair treatments,9000,60
m141,Rukash Salon,Hair,Hair style,8000,60
m141,Rukash Salon,Hair,Hair staraightening,10000,60
m141,Rukash Salon,Hair,Hair cutting,6000,60
m148,Salon-Y,Hair,Hair treatments,7000,60
m148,Salon-Y,Hair,Hair style,8000,60
m148,Salon-Y,Hair,Hair staraightening,10000,60
m148,Salon-Y,Nails,Manicure,3000,60
m148,Salon-Y,Nails,Pedicure,5000,60
m148,Salon-Y,Nails,OPI manicure,4500,60
m148,Salon-Y,Nails,OPI pedicure,6500,60
m148,Salon-Y,Nails,Nail art,5000,60
m148,Salon-Y,Massage,Hand massage,6000,60
m148,Salon-Y,Massage,Foot massage,6000,60
m157,Seeme Beauty Parlour,Hair,Haircut,4000,60
m157,Seeme Beauty Parlour,Hair,Hair style,5000,60
m157,Seeme Beauty Parlour,Hair,Hair colour,8000,60
m157,Seeme Beauty Parlour,Skin care,Clean up,3000,60
m157,Seeme Beauty Parlour,Skin care,Whitening Facial,5000,60
m157,Seeme Beauty Parlour,Skin care,Glow facial,6000,60
m157,Seeme Beauty Parlour,Skin care,Jansen facial,7000,60
m157,Seeme Beauty Parlour,Hands and feet,French manicure,1000,60
m157,Seeme Beauty Parlour,Hands and feet,French pedicure,1500,60
m157,Seeme Beauty Parlour,Hands and feet,Nail art,2000,60
m157,Seeme Beauty Parlour,Hands and feet,Paraffin manicure,1500,60
m157,Seeme Beauty Parlour,Hands and feet,Paraffin pedicure,2000,60
m157,Seeme Beauty Parlour,Massage,Thai body,3500,60
m157,Seeme Beauty Parlour,Massage,Swedish body,3500,60
m157,Seeme Beauty Parlour,Massage,Head massage,3000,60
m165,Shumailas Beauty London - Lahore Branch,Facial,Deep cleanse,7000,60
m165,Shumailas Beauty London - Lahore Branch,Hair removal,Eyebrow threading,5000,60
m165,Shumailas Beauty London - Lahore Branch,Hair removal,Eyebrow waxing,5000,60
m165,Shumailas Beauty London - Lahore Branch,Hair removal,Full face threading,8000,60
m165,Shumailas Beauty London - Lahore Branch,Hair removal,Full arm wax,6000,60
m165,Shumailas Beauty London - Lahore Branch,Hair removal,Full body waxing,10000,60
m165,Shumailas Beauty London - Lahore Branch,Massage,Thai body,12000,60
m165,Shumailas Beauty London - Lahore Branch,Massage,Swedish body,12000,60
m165,Shumailas Beauty London - Lahore Branch,Massage,Head massage,10000,60
m165,Shumailas Beauty London - Lahore Branch,Make-up,Strip eyelashes,6000,60
m165,Shumailas Beauty London - Lahore Branch,Make-up,Russian volume lashes,6000,60
m165,Shumailas Beauty London - Lahore Branch,Make-up,Cluster lashes,7000,60
m167,Sleek by Annie Beauty Parlour,Hair,Haircut,2000,60
m167,Sleek by Annie Beauty Parlour,Hair,Highlights/Lowlights,3000,60
m167,Sleek by Annie Beauty Parlour,Hair,Bridal hairstyle,5000,60
m167,Sleek by Annie Beauty Parlour,Hair,Hair extensions,5500,60
m167,Sleek by Annie Beauty Parlour,Nails,Manicure,1500,60
m167,Sleek by Annie Beauty Parlour,Nails,Pedicure,2000,60
m167,Sleek by Annie Beauty Parlour,Nails,Nail color,2500,60
m167,Sleek by Annie Beauty Parlour,Make-up,Bridal Makeup,15000,60
m167,Sleek by Annie Beauty Parlour,Make-up,Skin glow,10000,60
m175,Sukh Chan Wellness Club,Gym,Gym,3000,30
m175,Sukh Chan Wellness Club,Salon and Spa,Natural makeup and blowdry,3000,60
m175,Sukh Chan Wellness Club,Salon and Spa,Facial,2700,60
m175,Sukh Chan Wellness Club,Salon and Spa,Hair cut Blowdry and facial,2700,60
m175,Sukh Chan Wellness Club,Salon and Spa,Neck and shoulder massage,2700,60
m179,Sunuba Spa & Rejuvenation Center,Massage,Aromatherapy body massage,5000,60
m179,Sunuba Spa & Rejuvenation Center,Make-up,Bridal Makeup,40000,60
m179,Sunuba Spa & Rejuvenation Center,Make-up,Skin glow,15000,60
m179,Sunuba Spa & Rejuvenation Center,Hair,Haircut,7000,60
m179,Sunuba Spa & Rejuvenation Center,Hair,Highlights/Lowlights,9000,60
m179,Sunuba Spa & Rejuvenation Center,Hair,Bridal hairstyle,12000,60
m179,Sunuba Spa & Rejuvenation Center,Hair,Hair extensions,13000,60
m179,Sunuba Spa & Rejuvenation Center,Nails,Manicure,4000,60
m179,Sunuba Spa & Rejuvenation Center,Nails,Pedicure,5000,60
m179,Sunuba Spa & Rejuvenation Center,Nails,Nail color,5500,60
m182,The Lounge By Depilex Men Gulberg,Groom,Makeup,30000,60
m182,The Lounge By Depilex Men Gulberg,Groom,Model Makeup,40000,60
m182,The Lounge By Depilex Men Gulberg,Body therapy,Manicure and pedicure,8000,60
m182,The Lounge By Depilex Men Gulberg,Body therapy,Waxing,10000,60
m182,The Lounge By Depilex Men Gulberg,Body therapy,Threading and shave,5000,60
m182,The Lounge By Depilex Men Gulberg,Hair dressing,Haircut and style,12000,60
m182,The Lounge By Depilex Men Gulberg,Hair dressing,Hair treatments,14000,60
m182,The Lounge By Depilex Men Gulberg,Hair dressing,Hair colour,8000,60
m184,Toni & Guy,Hair,Haircut,3250,60
m184,Toni & Guy,Shave,Wet shave,2500,60
m184,Toni & Guy,Shave,Beard trimming,1000,60
m184,Toni & Guy,Shave,Beard trimming and styling,1500,60
m184,Toni & Guy,Shave,Beard tint,1200,60
m184,Toni & Guy,Hair spa treatments,Revitalizing hair mask treatment,1850,60
m184,Toni & Guy,Hair spa treatments,Colour hair mask treatment,1850,60
m184,Toni & Guy,Hair spa treatments,Shine and soft smoothing treatment,5000,60
m184,Toni & Guy,Colour,Highlights/Lowlights,12000,60
m184,Toni & Guy,Colour,T-section highlights,5000,60
m184,Toni & Guy,Colour,Roots regrowth,1800,60
m185,Trimmers Salon,Hair care,Haircut,5000,60
m185,Trimmers Salon,Hair care,Streak,6000,60
m185,Trimmers Salon,Hair care,Hair style,7000,60
m185,Trimmers Salon,Hair care,Hair dye,8000,60
m185,Trimmers Salon,Skin care,Face polishing,5000,60
m185,Trimmers Salon,Skin care,Deep cleansing,8000,60
m185,Trimmers Salon,Skin care,Threading ,4000,60
m185,Trimmers Salon,Skin care,Waxing,5000,60
m185,Trimmers Salon,Body,Relaxation massage,8000,60
m185,Trimmers Salon,Body,Deep tissue massage,10000,60
m185,Trimmers Salon,Body,Body shiner,11000,60
m185,Trimmers Salon,Hand and feet,Manicure,4000,60
m185,Trimmers Salon,Hand and feet,Pedicure,5000,60
m185,Trimmers Salon,Make-up,Party makeup,25000,60
m185,Trimmers Salon,Make-up,Mayon,25000,60
m185,Trimmers Salon,Make-up,Bridal ,30000,60
m185,Trimmers Salon,Make-up,Walima makeup,35000,60
m185,Trimmers Salon,Mehandi,Bridal,12000,60
m185,Trimmers Salon,Mehandi,Regular,7000,60
m185,Trimmers Salon,Men hair,Haircut,5000,60
m185,Trimmers Salon,Men hair,Shampoo,6000,60
m186,Uzmas Beauty Salon,Make-up,Party makeup,20000,60
m186,Uzmas Beauty Salon,Make-up,Model Makeup,25000,60
m186,Uzmas Beauty Salon,Make-up,Nikah Makeup,25000,60
m186,Uzmas Beauty Salon,Hair,Haircut,7000,60
m186,Uzmas Beauty Salon,Hair,Baby cut,3000,60
m186,Uzmas Beauty Salon,Hair,Hair style,5000,60
m186,Uzmas Beauty Salon,Blowdry,Blowdry,6000,60
m186,Uzmas Beauty Salon,Blowdry,Simple dry,5000,60
m186,Uzmas Beauty Salon,Blowdry,Hair style,8000,60
m186,Uzmas Beauty Salon,Facial,Simple facial,7000,60
m186,Uzmas Beauty Salon,Facial,Herbal facial,6500,60
m186,Uzmas Beauty Salon,Facial,Whitening Facial,8500,60
m186,Uzmas Beauty Salon,Waxing,Full leg wax,7000,60
m186,Uzmas Beauty Salon,Waxing,Full arm wax,6000,60
m186,Uzmas Beauty Salon,Waxing,Full body waxing,10000,60
m186,Uzmas Beauty Salon,Mehandi,One side,4000,60
m186,Uzmas Beauty Salon,Mehandi,Full hand,7000,60
m186,Uzmas Beauty Salon,Mehandi,Bridal ,10000,60
m1,Aalish Salon,Hair care,Haircut,3000,60
m1,Aalish Salon,Hair care,Streak,3000,60
m1,Aalish Salon,Hair care,Hair style,4500,60
m1,Aalish Salon,Hair care,Hair dye,4000,60
m1,Aalish Salon,Skin care,Face polishing,3500,60
m1,Aalish Salon,Skin care,Deep cleansing,4500,60
m1,Aalish Salon,Skin care,Threading ,2000,60
m1,Aalish Salon,Skin care,Waxing,3000,60
m1,Aalish Salon,Make-up,Party makeup,15000,60
m1,Aalish Salon,Make-up,Mayon,17000,60
m1,Aalish Salon,Make-up,Bridal ,25000,60
m1,Aalish Salon,Make-up,Walima makeup,30000,60
m1,Aalish Salon,Massage,Head massage,4000,60
m1,Aalish Salon,Massage,Swedish body,9000,60
m1,Aalish Salon,Massage,Full body massage,12000,60
m1,Aalish Salon,Massage,Foot massage,8000,60
m4,ABS Wellness Club,Hair care,Haircut,4000,60
m4,ABS Wellness Club,Hair care,Streak,3000,60
m4,ABS Wellness Club,Hair care,Hair style,5000,60
m4,ABS Wellness Club,Hair care,Hair dye,5500,60
m4,ABS Wellness Club,Skin care,Face polishing,4500,60
m4,ABS Wellness Club,Skin care,Deep cleansing,5000,60
m4,ABS Wellness Club,Skin care,Threading ,3000,60
m4,ABS Wellness Club,Skin care,Waxing,4000,60
m4,ABS Wellness Club,Body,Relaxation massage,8000,60
m4,ABS Wellness Club,Body,Deep tissue massage,9000,60
m4,ABS Wellness Club,Body,Body shiner,7000,60
m4,ABS Wellness Club,Hand and feet,Manicure,3000,60
m4,ABS Wellness Club,Hand and feet,Pedicure,4000,60
m4,ABS Wellness Club,Make-up,Party makeup,20000,60
m4,ABS Wellness Club,Make-up,Mayon,20000,60
m4,ABS Wellness Club,Make-up,Bridal ,45000,60
m4,ABS Wellness Club,Make-up,Walima makeup,45000,60
m4,ABS Wellness Club,Mehandi,Bridal,15000,60
m4,ABS Wellness Club,Mehandi,Regular,5000,60
m4,ABS Wellness Club,Men hair,Haircut,7000,60
m4,ABS Wellness Club,Men hair,Shampoo,7500,60
m4,ABS Wellness Club,Men hair,Hair style,9000,60
m5,Addictions Salon & Spa,Hair care,Haircut,2000,60
m5,Addictions Salon & Spa,Hair care,Streak,3000,60
m5,Addictions Salon & Spa,Hair care,Hair style,3000,60
m5,Addictions Salon & Spa,Hair care,Hair dye,4000,60
m5,Addictions Salon & Spa,Massage,Head massage,4000,60
m5,Addictions Salon & Spa,Massage,Foot massage,4500,60
m5,Addictions Salon & Spa,Massage,Thai massage,6000,60
m5,Addictions Salon & Spa,Massage,Chinese,7500,60
m5,Addictions Salon & Spa,Massage,Swedish body,8000,60
m5,Addictions Salon & Spa,Make-up,Party makeup,15000,60
m5,Addictions Salon & Spa,Make-up,Mayon,20000,60
m5,Addictions Salon & Spa,Make-up,Bridal ,35000,60
m6,Akhtar Hair Salon,Men hair,Haircut,200,60
m6,Akhtar Hair Salon,Men hair,Shampoo,300,60
m6,Akhtar Hair Salon,Men hair,Hair style,500,60
m6,Akhtar Hair Salon,Men hair,Head steam,700,60
m6,Akhtar Hair Salon,Men Face,Shave,150,30
m6,Akhtar Hair Salon,Men Face,Beard trimming,100,30
m6,Akhtar Hair Salon,Men Face,Beard colour,200,60
m6,Akhtar Hair Salon,Men Face,Threading,250,60
m6,Akhtar Hair Salon,Men Face,Cleansing facial,300,60
m7,Aleezay Hair Beauty Care Salon,Men hair,Haircut,200,60
m7,Aleezay Hair Beauty Care Salon,Men hair,Shampoo,250,60
m7,Aleezay Hair Beauty Care Salon,Men hair,Hair style,300,60
m7,Aleezay Hair Beauty Care Salon,Men hair,Head steam,300,60
m7,Aleezay Hair Beauty Care Salon,Men Face,Shave,100,60
m7,Aleezay Hair Beauty Care Salon,Men Face,Beard trimming,100,60
m7,Aleezay Hair Beauty Care Salon,Men Face,Beard colour,200,60
m7,Aleezay Hair Beauty Care Salon,Men Face,Threading,200,60
m7,Aleezay Hair Beauty Care Salon,Men Face,Cleansing facial,350,60
m7,Aleezay Hair Beauty Care Salon,Skin care,Face polishing,350,60
m7,Aleezay Hair Beauty Care Salon,Skin care,Deep cleansing,400,60
m7,Aleezay Hair Beauty Care Salon,Skin care,Threading ,400,60
m7,Aleezay Hair Beauty Care Salon,Skin care,Waxing,450,60
m7,Aleezay Hair Beauty Care Salon,Hand and feet,Manicure,250,60
m7,Aleezay Hair Beauty Care Salon,Hand and feet,Pedicure,300,60
m7,Aleezay Hair Beauty Care Salon,Make-up,Party makeup,1500,60
m7,Aleezay Hair Beauty Care Salon,Make-up,Mayon,3000,60
m7,Aleezay Hair Beauty Care Salon,Make-up,Bridal ,6000,60
m7,Aleezay Hair Beauty Care Salon,Make-up,Walima makeup,8000,60
m9,Allenora Beauty Saloon,Hair treatment,Hair colouring,3000,60
m9,Allenora Beauty Saloon,Hair treatment,Hair highlight,4000,60
m9,Allenora Beauty Saloon,Hair treatment,Hair dressing,2000,60
m9,Allenora Beauty Saloon,Hair treatment,Wedding hair,5000,60
m9,Allenora Beauty Saloon,Hair treatment,Hair cuts,1500,60
m9,Allenora Beauty Saloon,Make-up,Bridal makeup,25000,60
m9,Allenora Beauty Saloon,Make-up,Casual makeup,15000,60
m9,Allenora Beauty Saloon,Make-up,Eye makeup,10000,60
m9,Allenora Beauty Saloon,Make-up,Party makeup,15000,60
m9,Allenora Beauty Saloon,Piercing,Ear piercing,3000,60
m9,Allenora Beauty Saloon,Piercing,Nose piercing,1500,60
m9,Allenora Beauty Saloon,Piercing,Naval piercing,2000,60
m9,Allenora Beauty Saloon,Piercing,Lips piercing,2500,60
m9,Allenora Beauty Saloon,Skin treatment,Skin repair,3000,60
m9,Allenora Beauty Saloon,Skin treatment,Peels,3500,60
m9,Allenora Beauty Saloon,Skin treatment,Skin glow,5000,60
m9,Allenora Beauty Saloon,Nails,Manicure,1500,60
m9,Allenora Beauty Saloon,Nails,Pedicure,2000,60
m9,Allenora Beauty Saloon,Nails,Nail art,2000,60
m12,Arammish Spa,Body Spa,Deep tissue massage,5000,60
m12,Arammish Spa,Body Spa,Thai massage,5500,60
m12,Arammish Spa,Facial Spa,Personalized facial,4000,60
m12,Arammish Spa,Facial Spa,Luxury facial,6000,60
m12,Arammish Spa,Facial Spa,Oxygen facial,7000,60
m12,Arammish Spa,Hair Spa,Hair cuts,2000,45
m12,Arammish Spa,Hair Spa,Hair trim,2500,30
m12,Arammish Spa,Hair Spa,Blowdry,3000,30
m12,Arammish Spa,Hair Spa,Hair wash,2000,15
m12,Arammish Spa,Men Spa,Lomi Lomi Massage,4000,60
m12,Arammish Spa,Make-up,Party makeup,12000,60
m12,Arammish Spa,Make-up,Eye makeup,13000,30
m12,Arammish Spa,Make-up,False eyelashes,15000,15
m14,Arsas Beauty Salon,Make-up,Party makeup,2500,60
m14,Arsas Beauty Salon,Make-up,Eye makeup,3000,60
m14,Arsas Beauty Salon,Make-up,Casual makeup,2000,60
m14,Arsas Beauty Salon,Make-up,Bridal makeup,6000,60
m14,Arsas Beauty Salon,Hair treatment,Hair colouring,700,60
m14,Arsas Beauty Salon,Hair treatment,Hair highlight,900,60
m14,Arsas Beauty Salon,Hair treatment,Hair dressing,300,60
m14,Arsas Beauty Salon,Hair treatment,Wedding hair,1500,60
m14,Arsas Beauty Salon,Hair treatment,Hair cuts,300,60
m15,Arshad Hair Dresser,Men hair,Haircut,150,60
m15,Arshad Hair Dresser,Men hair,Shampoo,200,60
m15,Arshad Hair Dresser,Men hair,Hair style,250,60
m15,Arshad Hair Dresser,Men hair,Head steam,300,60
m15,Arshad Hair Dresser,Men Face,Shave,100,60
m15,Arshad Hair Dresser,Men Face,Beard trimming,100,60
m15,Arshad Hair Dresser,Men Face,Beard colour,150,60
m15,Arshad Hair Dresser,Men Face,Threading,400,60
m15,Arshad Hair Dresser,Men Face,Cleansing facial,800,60
m16,Asma T Salon & Makeup Lounge,Make-up,Party makeup,8000,60
m16,Asma T Salon & Makeup Lounge,Make-up,Eye makeup,7000,60
m16,Asma T Salon & Makeup Lounge,Make-up,False eyelashes,5000,60
m16,Asma T Salon & Makeup Lounge,Make-up,Party makeup,10000,60
m16,Asma T Salon & Makeup Lounge,Make-up,Casual makeup,6000,60
m16,Asma T Salon & Makeup Lounge,Make-up,Bridal makeup,15000,60
m16,Asma T Salon & Makeup Lounge,Hair treatment,Hair colouring,2000,60
m16,Asma T Salon & Makeup Lounge,Hair treatment,Hair highlight,3000,60
m16,Asma T Salon & Makeup Lounge,Hair treatment,Hair dressing,2500,60
m16,Asma T Salon & Makeup Lounge,Hair treatment,Wedding hair,6000,60
m16,Asma T Salon & Makeup Lounge,Hair treatment,Hair cuts,2500,60
m22,Beauty Lab Salon & Studio,Make-up,Party makeup,10000,60
m22,Beauty Lab Salon & Studio,Make-up,Eye makeup,12000,60
m22,Beauty Lab Salon & Studio,Make-up,False eyelashes,11000,60
m22,Beauty Lab Salon & Studio,Make-up,Casual makeup,9000,60
m22,Beauty Lab Salon & Studio,Make-up,Bridal makeup,20000,60
m22,Beauty Lab Salon & Studio,Hair treatment,Hair colouring,5000,60
m22,Beauty Lab Salon & Studio,Hair treatment,Hair highlight,6000,60
m22,Beauty Lab Salon & Studio,Hair treatment,Hair dressing,4000,60
m22,Beauty Lab Salon & Studio,Hair treatment,Wedding hair,8000,60
m22,Beauty Lab Salon & Studio,Hair treatment,Hair cuts,4000,60
m23,Beauty Ways Men Salon,Men hair,Haircut,200,60
m23,Beauty Ways Men Salon,Men hair,Shampoo,250,60
m23,Beauty Ways Men Salon,Men hair,Hair style,300,60
m23,Beauty Ways Men Salon,Men hair,Head steam,350,60
m23,Beauty Ways Men Salon,Men Face,Shave,100,60
m23,Beauty Ways Men Salon,Men Face,Beard trimming,100,60
m23,Beauty Ways Men Salon,Men Face,Beard colour,150,60
m23,Beauty Ways Men Salon,Men Face,Threading,200,60
m23,Beauty Ways Men Salon,Men Face,Cleansing facial,500,60
m24,BeautyArt,Hair treatment,Hair colouring,1000,60
m24,BeautyArt,Hair treatment,Hair highlight,1500,60
m24,BeautyArt,Hair treatment,Hair dressing,3000,60
m24,BeautyArt,Hair treatment,Wedding hair,5000,60
m24,BeautyArt,Hair treatment,Hair cuts,3000,60
m24,BeautyArt,Make-up,Party makeup,8000,60
m24,BeautyArt,Make-up,Eye makeup,10000,60
m24,BeautyArt,Make-up,False eyelashes,9000,60
m24,BeautyArt,Make-up,Casual makeup,8000,60
m24,BeautyArt,Make-up,Bridal makeup,20000,60
m24,BeautyArt,Skin care,Face polishing,3000,60
m24,BeautyArt,Skin care,Deep cleansing,4000,60
m24,BeautyArt,Skin care,Threading ,3000,60
m24,BeautyArt,Skin care,Waxing,4000,60
m26,Beyond The Sky Beauty Parlour,Make-up,Party makeup,7000,60
m26,Beyond The Sky Beauty Parlour,Make-up,Eye makeup,6000,60
m26,Beyond The Sky Beauty Parlour,Make-up,False eyelashes,5000,60
m26,Beyond The Sky Beauty Parlour,Make-up,Casual makeup,6000,60
m26,Beyond The Sky Beauty Parlour,Make-up,Bridal makeup,15000,60
m26,Beyond The Sky Beauty Parlour,Hair treatment,Hair colouring,3000,60
m26,Beyond The Sky Beauty Parlour,Hair treatment,Hair highlight,4000,60
m26,Beyond The Sky Beauty Parlour,Hair treatment,Hair dressing,2000,60
m26,Beyond The Sky Beauty Parlour,Hair treatment,Wedding hair,8000,60
m26,Beyond The Sky Beauty Parlour,Hair treatment,Hair cuts,2000,60
m26,Beyond The Sky Beauty Parlour,Nails,Manicure,1000,60
m26,Beyond The Sky Beauty Parlour,Nails,Pedicure,2000,60
m26,Beyond The Sky Beauty Parlour,Nails,Nail art,2500,60
m26,Beyond The Sky Beauty Parlour,Body Spa,Deep tissue massage,4000,60
m26,Beyond The Sky Beauty Parlour,Body Spa,Thai massage,4500,60
m27,Blue scissors salon and studio,Hair treatment,Hair colouring,1500,60
m27,Blue scissors salon and studio,Hair treatment,Hair highlight,1700,60
m27,Blue scissors salon and studio,Hair treatment,Hair dressing,500,60
m27,Blue scissors salon and studio,Hair treatment,Wedding hair,5000,60
m27,Blue scissors salon and studio,Hair treatment,Hair cuts,500,60
m27,Blue scissors salon and studio,Skin care,Face polishing,500,60
m27,Blue scissors salon and studio,Skin care,Deep cleansing,700,60
m27,Blue scissors salon and studio,Skin care,Threading ,300,60
m27,Blue scissors salon and studio,Skin care,Waxing,500,60
m27,Blue scissors salon and studio,Make-up,Party makeup,8000,60
m27,Blue scissors salon and studio,Make-up,Eye makeup,5000,60
m27,Blue scissors salon and studio,Make-up,Casual makeup,6000,60
m27,Blue scissors salon and studio,Make-up,Bridal makeup,20000,60
m27,Blue scissors salon and studio,Men hair,Haircut,800,60
m27,Blue scissors salon and studio,Men hair,Shampoo,900,60
m27,Blue scissors salon and studio,Men hair,Hair style,1000,60
m27,Blue scissors salon and studio,Men hair,Head steam,1100,60
m27,Blue scissors salon and studio,Men Face,Shave,500,60
m27,Blue scissors salon and studio,Men Face,Beard trimming,500,60
m27,Blue scissors salon and studio,Men Face,Beard colour,750,60
m27,Blue scissors salon and studio,Men Face,Threading,500,60
m28,Bonito Salon,Hair treatment,Hair colouring,4500,60
m28,Bonito Salon,Hair treatment,Hair highlight,5000,60
m28,Bonito Salon,Hair treatment,Hair dressing,2000,60
m28,Bonito Salon,Hair treatment,Wedding hair,8000,60
m28,Bonito Salon,Hair treatment,Hair cuts,2000,60
m28,Bonito Salon,Skin care,Face polishing,2500,60
m28,Bonito Salon,Skin care,Deep cleansing,3000,60
m28,Bonito Salon,Skin care,Threading ,1500,60
m28,Bonito Salon,Skin care,Waxing,1500,60
m28,Bonito Salon,Make-up,Party makeup,8000,60
m28,Bonito Salon,Make-up,Eye makeup,5000,60
m28,Bonito Salon,Make-up,False eyelashes,6000,60
m28,Bonito Salon,Make-up,Casual makeup,5000,60
m28,Bonito Salon,Make-up,Bridal makeup,15000,60
m28,Bonito Salon,Nails,Manicure,1500,60
m28,Bonito Salon,Nails,Pedicure,2000,60
m28,Bonito Salon,Nails,Nail art,2100,60
m29,Cest La Vie Salon & SPA,Skin care,Face polishing,2000,30
m29,Cest La Vie Salon & SPA,Skin care,Deep cleansing,3000,60
m29,Cest La Vie Salon & SPA,Skin care,Threading ,2500,60
m29,Cest La Vie Salon & SPA,Skin care,Waxing,3000,60
m29,Cest La Vie Salon & SPA,Make-up,Party makeup,7000,60
m29,Cest La Vie Salon & SPA,Make-up,Eye makeup,6000,60
m29,Cest La Vie Salon & SPA,Make-up,False eyelashes,4000,60
m29,Cest La Vie Salon & SPA,Make-up,Casual makeup,5500,60
m29,Cest La Vie Salon & SPA,Make-up,Bridal makeup,9000,60
m29,Cest La Vie Salon & SPA,Nails,Manicure,2000,60
m29,Cest La Vie Salon & SPA,Nails,Pedicure,3000,60
m29,Cest La Vie Salon & SPA,Nails,Nail art,2500,60
m29,Cest La Vie Salon & SPA,Hair treatment,Hair colouring,3500,60
m29,Cest La Vie Salon & SPA,Hair treatment,Hair highlight,4000,60
m29,Cest La Vie Salon & SPA,Hair treatment,Wedding hair,6000,60
m30,Charlie Hair Salon,Men hair,Haircut,300,60
m30,Charlie Hair Salon,Men hair,Shampoo,350,60
m30,Charlie Hair Salon,Men hair,Hair style,400,60
m30,Charlie Hair Salon,Men hair,Head steam,700,60
m30,Charlie Hair Salon,Men Face,Shave,250,60
m30,Charlie Hair Salon,Men Face,Beard trimming,300,60
m30,Charlie Hair Salon,Men Face,Beard colour,200,60
m30,Charlie Hair Salon,Men Face,Threading,500,60
m30,Charlie Hair Salon,Men Face,Cleansing facial,1200,60
m74,Hamnas Beauty salon & Bridal Studio,Face,Facial,3000,60
m74,Hamnas Beauty salon & Bridal Studio,Face,Makeup,5000,60
m74,Hamnas Beauty salon & Bridal Studio,Face,Wedding Makeup,15000,60
m74,Hamnas Beauty salon & Bridal Studio,Face,Whitening Facial,10000,60
m74,Hamnas Beauty salon & Bridal Studio,Hair,Haircut,3500,60
m74,Hamnas Beauty salon & Bridal Studio,Hair,Wedding hair,7000,60
m74,Hamnas Beauty salon & Bridal Studio,Hair,Hair straightening,5000,60
m74,Hamnas Beauty salon & Bridal Studio,Hair,Blowdry,4500,60
m74,Hamnas Beauty salon & Bridal Studio,Nails,Manicure,2000,60
m74,Hamnas Beauty salon & Bridal Studio,Nails,Pedicure,3000,60