sal_id,Sal Name,Monday,Tuesday,Wednesday,Thursday,Friday,Saturday,Sunday,Mobile Number,Salon_profile_Pic,Website,Facebook,Twitter,Instagram,Sal_address,Sal_email,Owner Name,Lat,Long,Salon Type
m2,Abbas Ali Hair Fashion,10:00-20:00,10:00-20:00,10:00-20:00,10:00-20:00,10:00-20:00,10:00-20:00,10:00-20:00,0301 4742520,m2.jpg,,,,,"Capt. Jamshed Park, Singhpura, Lahore",,Asif,31.5819191,74.3637195,1
m3,About U Salon,10:00-20:00,10:00-20:00,10:00-20:00,10:00-20:00,10:00-20:00,10:00-20:00,10:00-20:00,0321 4989965,m3.jpg,,,,," House No 884, Gulshan-e-Iqbal Rd, Nizam Block, Allama Iqbal Town, Lahore",,,31.5112476,74.2904096,2
m8,Allenora Annie Signature Salons,9:00-17:00,9:00-17:00,9:00-17:00,9:00-17:00,9:00-17:00,9:00-17:00,9:00-17:00,0323 8418000,m8.jpg,,,,,"86-A B/2, M.M Alam Road, Gulberg-III, Lahore",,,31.508562,74.3524237,2
m10,Amina Raja The Makeup Lounge,10:00-20:00,10:00-20:00,10:00-20:00,10:00-20:00,10:00-20:00,10:00-20:00,10:00-20:00,042 35753152,m10.jpg,,,,,"63-A, Block E-1, Near Qaddafi Stadium, Hali Road, Gulberg III, Lahore.",,Ms.Amina ,31.5122242,74.3384459,2
m11,Amina Z Salon & Makeup Studio,11:00-20:00,11:00-20:00,11:00-20:00,11:00-20:00,11:00-20:00,11:00-20:00,11:00-20:00,042 35725863,m11.jpg,http://www.aminaz.com/,,,,"119-Y, Commercial Area, Phase 3, DHA, Lahore.",info@aminaz.com,,31.4731058,74.3764194,2
m17,Ather Shahzad Studio,11:00-20:00,11:00-20:00,11:00-20:00,11:00-20:00,11:00-20:00,11:00-20:00,11:00-20:00,0320 3764225,m17.jpg,,,,,"1-C, Block-P, Gulberg II, Lahore",athershahzad@gmail.com,,31.5213026,74.3490972,2
m18,Ayeshas Bridal Makeup Salon & Institute,10:00-20:00,10:00-20:00,10:00-20:00,10:00-20:00,10:00-20:00,10:00-20:00,10:00-20:00,0315-4254938,m18.jpg,,,,,"80-Babar Block, Garden Town, Lahore",,Ms.Aisha Javaid,31.4901421,74.269405,2
m21,Be-Beautiful,11:00-20:00,11:00-20:00,11:00-20:00,11:00-20:00,11:00-20:00,11:00-20:00,11:00-20:00,042 35779109,m21.jpg,,,,,"32-T, off M.M Alam Road, Gulberg II, Lahore",,Dr. Nabiha Rehman,31.521948,74.351679,2
m25,Beautylicious The Salon,11:00-20:00,11:00-20:00,11:00-20:00,11:00-20:00,11:00-20:00,11:00-20:00,11:00-20:00,0321 4455859,m25.jpg,http://beautylicioussalon.pk/,,,,"433-Q Block, Phase II, DHA, Lahore",soniya@beautylicioussalon.pk,,31.4840673,74.409619,2
m33,COSMO SALON - DHA Lahore,10:30-20:00,10:30-20:01,10:30-20:02,10:30-20:03,10:30-20:04,10:30-20:05,10:30-20:06,0320 4104466,m33.jpg,https://cosmosalon.pk/,,,,"148-Y Block Commercial, Phase 3, Lahore",,,31.4730172,74.3775708,1
m40,Depilex,11:00-20:00,11:00-20:00,11:00-20:00,11:00-20:00,11:00-20:00,11:00-20:00,11:00-20:00,042 35210284,m40.jpg,https://depilexonline.com/depilex-wapda-town/,,,,"Block F2 Block F 2 Wapda Town Phase 1 WAPDA Town, Lahore",info@depilexonline.com,,31.432777,74.2657113,2
m41,Depilex Beauty Clinic,11:00-20:00,11:00-20:00,11:00-20:00,11:00-20:00,11:00-20:00,11:00-20:00,11:00-20:00,042 35303680,m40.jpg,https://depilexonline.com/,,,,"11 F1 Khayaban-e-Firdousi, Block F1 Block F 1 Phase 1 Johar Town, Lahore",info@depilexonline.com,,31.4585236,74.2799879,2
m42,Depilex Beauty Clinic & Institute,11:00-20:00,11:00-20:00,11:00-20:00,11:00-20:00,11:00-20:00,11:00-20:00,11:00-20:00,042 37583425,m40.jpg,https://depilexonline.com/depilex-lahore-samnabad-franchise/,,,,"789-N, Poonch Road, Samanabad, Lahore",depilex.samanbad@depilexonline.com,,31.5368122,74.3003068,2
m44,Diva Beauty Salon,10:30-22:00,10:30-22:00,10:30-22:00,10:30-22:00,10:30-22:00,10:30-22:00,10:30-22:00,042 35757357,m44.png,,,,,"Zahoor Elahi Rd, F.C.College, Lahore",,,31.524227,74.336457,2
m56,Fantasies Beauty Salon & Spa,11:00-20:30,11:00-20:30,11:00-20:30,11:00-20:30,11:00-20:30,11:00-20:30,11:00-20:30,0335 4887855,m56.jpg,,,,,"28-C-3, Opp. Hotel Park Plaza, Gulberg III, Lahore",,Ms.Zara Khan,31.503975,74.3474714,2
m73,Hadiqa Kiani Signature Salon,11:00-20:00,11:00-20:00,11:00-20:00,11:00-20:00,11:00-20:00,11:00-20:00,11:00-20:00,0321 7010222,m73.jpg,,,,,"112-C, Phase IV, DHA, Lahore",hadiqasalon@gmail.com,Hadiqa Kiani,31.4636265,74.3852993,2
m74,Hamnas Beauty salon & Bridal Studio,10:00-20:30,10:00-20:30,10:00-20:30,10:00-20:30,10:00-20:30,10:00-20:30,10:00-20:30,042 35170702,m74.jpg,,,,,"45-A, Khayaban-e-Firdousi, Johar town, Lahore",hamnasalon.com,memona,31.4720256,74.2825984,2
m76,Hayaz Beauty Salon,10:00-20:00,10:00-20:00,10:00-20:00,10:00-20:00,10:00-20:00,10:00-20:00,10:00-20:00,0321 2773770,m76.jpg,http://www.Hayazsalon.com,,,,"Main Bedian Road, Opposite Askari 11, Lahore, Pakistan",hayaadewan@hotmail.co.uk,,31.4793256,74.2524823,2
m87,Khawar Riaz Salon ,11:30-22:00,11:30 AM - 10:00 PM,11:30 AM - 10:00 PM,11:30 AM - 10:00 PM,11:30 AM - 10:00 PM,11:30 AM - 10:00 PM,11:30 AM - 10:00 PM,0321 7567676,m87.jpg,,,,,"90-B M.M. Alam Road, 2nd Floor Above KFC, Lahore",khawarriazbrides@gmail.com,khawar raiz,31.514259,74.351727,1
m97,Madeehas Bridal Salon ,10:00-20:00,10:00-20:00,10:00-20:00,10:00-20:00,10:00-20:00,10:00-20:00,10:00-20:00,042 35353546,m97.jpg,,,,,"50-G Main Gulberg, Lahore",,,31.4687488,74.2580224,2
m77,Hayaz Beauty Salon (canal view colony),10:30-20:00,10:30-20:00,10:30-20:00,10:30-20:00,10:30-20:00,10:30-20:00,10:30-20:00,0300 9843212,m76.jpg,,,,,"Central Blvd, Block D, Canal View Colony, Lahore, Punjab",hayaadewan@hotmail.co.uk,,31.479321,74.254671,2
m80,Hina Azfar Signature Salon By Nikkis Salons,11:00-20:00,11:00-20:00,11:00-20:00,11:00-20:00,11:00-20:00,11:00-20:00,11:00-20:00,0336 8488842,m80.jpg,http://nikkissalons.com/,,,,"975 Block L Phase 2 Johar Town, Near Emporium Mall, Block L Phase 2 Johar Town, Lahore",nikkis.salon@outlook.com,,31.468337,74.272685,2
m92,Lalas Beauty Saloon,11:00-20:00,11:00-20:00,11:00-20:00,11:00-20:00,11:00-20:00,11:00-20:00,11:00-20:00,0313 4016431,m92.jpg,,,,,"283, Block B-2, Milad Street, Near Allah Hoo Chowk, Johar Town, Lahore",,Mrs. Lala,31.4720256,74.2825984,2
m101,Maram & Aabroo - Salon & Studio,12:00-19:00,12:00-19:00,12:00-19:00,12:00-19:00,12:00-19:00,12:00-19:00,12:00-19:00,0321 4034254,m101.jpg,,,,,"Opp. Cafe Zouk, M.M Alam Road, Mini Market, Gulberg II, Lahore.",info@maramaabroo.com,Ms Maram,31.520122,74.350918,2
m102,Mariam Khawaja,11:00-20:00,11:00-20:00,11:00-20:00,11:00-20:00,11:00-20:00,11:00-20:00,11:00-20:00,0321 4809879,m102.jpg,,,,,"67, Block B1 Block B 1 Gulberg III, Lahore",,,31.5165172,74.3530574,2
m103,Marvel Beauty Clinic,10:00-21:00,10:00-21:00,10:00-21:00,10:00-21:00,10:00-21:00,10:00-21:00,10:00-21:00,0302 2269393,m103.jpg,,,,,"C, 10 Model Town Circular Road, Block C Model Town, Lahore",bridesbymadu@gmail.com,,31.4925691,74.3303713,2
m111,Nabila Salon,10:00-20:00,10:00-20:00,10:00-20:00,10:00-20:00,10:00-20:00,10:00-20:00,10:00-20:00,0333 4299948,m111.jpg,,,,,"10-Q, Ground Floor, College Road, Gulberg II, Lahore.",,,31.5264166,74.355004,2
m122,"Newlook Beauty Clinic, Spa & Institute",08:00-20:00,08:00-20:00,08:00-20:00,08:00-20:00,08:00-20:00,08:00-20:00,08:00-20:00,0342 2220022,m122.jpg,http://newlookbeauty.com/,,,,"106-B, M.M Alam Road, Gulberg III, Lahore",,,31.511369,74.3510952,2
m124,Nikkis Beauty Salon,11:00-20:00,11:00-20:00,11:00-20:00,11:00-20:00,11:00-20:00,11:00-20:00,11:00-20:00,042 35171335,m124.jpg,,,,,"Plot No 940, Block C, Maulana Shaukat Ali Road, Faisal Town, Block C Faisal Town, Lahore",nikkissalon.lahore@gmail.com,,31.4732063,74.3027686,2
m126,NINA G,10:30-19:30,10:30-19:30,10:30-19:30,10:30-19:30,10:30-19:30,10:30-19:30,10:30-19:30,042 35740051,m126.jpg,,,,,"61 Z Block, Commercial Area, Phase 3, DHA, Lahore",ninagthebeautyboutique@gmail.com,,31.4731827,74.3796187,2
m132,Pengs Hair & Beauty Clinic,10:30-20:00,10:30-20:00,10:30-20:00,10:30-20:00,10:30-20:00,10:30-20:00,10:30-20:00,042 35731559,m132.jpg,,,,,"TONI & GUY: 42-Z, Third Floor, Z Block Market, Phase 3, DHA, Lahore",,,31.4740691,74.3793833,2
m141,Rukash Salon,11:00-20:00,11:00-20:00,11:00-20:00,11:00-20:00,11:00-20:00,11:00-20:00,11:00-20:00,0320 4409915,m141.jpg,,,,,"98-B/1, M.M. Alam Road Gulberg-III, Lahore",rukashsalon@gmail.com,,31.516435,74.352513,2
m148,Salon-Y,11:00-20:00,11:00-20:00,11:00-20:00,11:00-20:00,11:00-20:00,11:00-20:00,11:00-20:00,0333 4420987,m148.jpg,,,,,"172-Y Commercial, Basement of Nishat Linen, Phase 3, DHA, Lahore",,,31.471127,74.37493,2
m157,Seeme Beauty Parlour,10:00-22:00,10:00-22:00,10:00-22:00,10:00-22:00,10:00-22:00,10:00-22:00,10:00-22:00,0305 9898989,m157.jpg,,,,,"Opposite Tayyabah Masjid, Satluj Block Allama Iqbal Town, Lahore",,,31.519668,74.291877,2
m165,Shumailas Beauty London - Lahore Branch,11:00-20:00,11:00-20:00,11:00-20:00,11:00-20:00,11:00-20:00,11:00-20:00,11:00-20:00,0303 5586878,m165.jpg,,,,,"48 D-1 MM Alam Rd, Block D1 Gulberg III, Lahore",,,31.5184005,74.3495366,2
m167,Sleek by Annie Beauty Parlour,08:00-18:00,08:00-18:00,08:00-18:00,08:00-18:00,08:00-18:00,08:00-18:00,08:00-18:00,0300 9685010,m167.jpg,,,,,"A-145, GOR-5, Near Jinnah Hospital, Opp. Allama Iqbal Medical College, Faisal Town, Lahore",,Ms. Annie,31.4702004,74.2999403,2
m175,Sukh Chan Wellness Club,07:00-23:00,07:00-23:00,07:00-23:00,07:00-23:00,07:00-23:00,07:00-23:00,07:00-23:00,0331 4449724,m175.png,,,,,"25-H , Gulberg II, Lahore",,,31.5279,74.3563647,3
m179,Sunuba Spa & Rejuvenation Center,11:00-20:00,00:00-00:00,11:00-20:00,11:00-20:00,11:00-20:00,11:00-20:00,11:00-20:00,0345 4400128,m179.png,http://www.sunuba.com/,,,,"90/A, Block B-1, M.M Alam Road, Adj. KFC, Gulberg II, Lahore.",,,31.515807,74.352931,3
m182,The Lounge By Depilex Men Gulberg,11:00-21:00,11:00-21:00,11:00-21:00,11:00-21:00,11:00-21:00,11:00-21:00,11:00-21:00,042 37583425,m182.jpg,https://depilexonline.com/depilex-men-beauty-salon/,,,,"Mehmood Kasuri Road, Block A 3 Gulberg III, Lahore",info@depilexonline.com,,31.5068976,74.3546738,2
m184,Toni & Guy,10:30-20:00,10:30-20:00,10:30-20:00,10:30-20:00,10:30-20:00,10:30-20:00,10:30-20:00,042 35764085,m184.jpg,,,,,"20-C-1, M.M Alam Road, Gulberg III, Lahore",info@toniandguy.com.pk,,31.5151627,74.3513321,2
m185,Trimmers Salon,11:00-20:00,11:00-20:00,11:00-20:00,11:00-20:00,11:00-20:00,11:00-20:00,11:00-20:00,0312 3333331,m185.jpg,,,,,"First Floor, 98-R, Commercial Area, Phase 2, DHA, Lahore",trimmers.salon@gmail.com,,31.4754691,74.4027185,1
m186,Uzmas Beauty Salon,11:00-20:00,11:00-20:00,11:00-20:00,11:00-20:00,11:00-20:00,11:00-20:00,11:00-20:00,0333 4538003,m186.jpg,http://www.uzmas.com.pk/,,,,"304 Y Block Commercial Area, Phase III, DHA, Lahore",info@uzmas.com.pk,,31.471432,74.372707,2
m187,Uzmas Bridal Salon,11:00-19:00,11:00-19:00,11:00-19:00,11:00-19:00,11:00-19:00,11:00-19:00,11:00-19:00,042 36142557,m187.png,,,,,"33-Z, Commercial Area, DHA, Lahore",uzmaashfaq@hotmail.com,,31.4745018,74.3795409,2
m1,Aalish Salon,11:00-20:00,00:00-0:00,11:00-20:00,11:00-20:00,11:00-20:00,11:00-20:00,11:00-20:00,0320 8444001,m1.jpg,,,,,"13-Q, Opposite Metro,Model Town, Lahore",,,31.4713142,74.3206956,2
m4,ABS Wellness Club,09:00 24:00,09:00 24:00,09:00 24:00,09:00 24:00,09:00 24:00,09:00 24:00,09:00 24:00,0322 4254938,,,,,,"79-Babar Block, New Garden Town",info@abs.com,,31.5554147,74.3115089,1
m5,Addictions Salon & Spa,10:30-20:30,10:30-20:30,10:30-20:30,10:30-20:30,10:30-20:30,10:30-20:30,10:30-20:30,0322 4024194,m5.jpg,,,,,"Shop No. 22, Street No.12, Sector-V, Commercial Market, Phase-II, DHA, Lahore",,,31.480871,74.412079,2
m6,Akhtar Hair Salon,10:00-22:00,10:00-22:00,10:00-22:00,10:00-22:00,10:00-22:00,10:00-22:00,10:00-22:00,0322 4802188,m6.jpg,,,,,"Mananwala Sector D Phase 5 D.H.A, Lahore",,,31.4705896,74.4177506,1
m7,Aleezay Hair Beauty Care Salon,10:00-22:00,10:00-22:00,10:00-22:00,10:00-22:00,10:00-22:00,10:00-22:00,10:00-22:00,0322 4043743,m7.jpg,,,,,"Ground Floor, Star Hotel, Mozang Adda, Lahore",,,31.5584294,74.3152893,1
m9,Allenora Beauty Saloon,9:00-17:00,9:00-17:00,9:00-17:00,9:00-17:00,9:00-17:00,9:00-17:00,9:00-17:00,0323 8418000,m9.jpg,,,,,"Block M Phase 2 Johar Town, Lahore",,,31.4676639,74.2737328,2
m12,Arammish Spa,10:00-22:00,10:00-22:00,10:00-22:00,10:00-22:00,10:00-22:00,10:00-22:00,10:00-22:00,0321 4279403,m12.jpg,,,,,"House No.9, Asad Jan Road, Lahore-Cantt, Lahore",,,31.5243804,74.3712572,3
m14,Arsas Beauty Salon,10:00-22:00,10:00-22:00,10:00-22:00,10:00-22:00,10:00-22:00,10:00-22:00,10:00-22:00,0323 4588366,m14.jpg,,,,,"E Block Block E Gulshan-e-Ravi, Lahore",arsamirbutt@gmail.com,,31.551271,74.2802713,2
m15,Arshad Hair Dresser,10:00-18:00,10:00-18:00,10:00-18:00,10:00-18:00,10:00-18:00,10:00-18:00,10:00-18:00,0333 4319511,m157.jpg,,,,,"215-G, Raja Centre, Main Market, Gulberg II, Lahore",,,31.5231129,74.3460046,1
m16,Asma T Salon & Makeup Lounge,11:00-20:00,11:00-20:00,11:00-20:00,11:00-20:00,11:00-20:00,11:00-20:00,11:00-20:00,0300 8401951,m16.png,,,,,"33 Shadman Market Blvd, Shadman 1 Shadman, Lahore",,,31.5406738,74.3308032,2
m22,Beauty Lab Salon & Studio,10:30-22:00,10:30-22:00,10:30-22:00,10:30-22:00,10:30-22:00,10:30-22:00,10:30-22:00,0333 4665051,m22.jpg,,,,,"688 Main Shadman Road, Opp. Fatima Memorial Hospital, Shadman I, Lahore",,,31.5358601,74.3287235,2
m23,Beauty Ways Men Salon,10:00-22:00,10:00-22:00,10:00-22:00,10:00-22:00,10:00-22:00,10:00-22:00,10:00-22:00,0331 4026840,m23.jpg,,,,,"Peoples Colony, Ferozewala, Shahdra, Lahore",,,31.6531922,74.2662649,1
m24,BeautyArt,11:00-20:00,11:00-20:00,11:00-20:00,11:00-20:00,11:00-20:00,11:00-20:00,11:00-20:00,0321 8433441,m24.jpg,,,,,"House No. 4-F, Main Boulevard, Johar Town, Lahore",,,31.5026266,74.3497996,2
m26,Beyond The Sky Beauty Parlour,10:00-22:00,10:00-22:00,10:00-22:00,10:00-22:00,10:00-22:00,10:00-23:00,10:00-23:00,0305 9898989,m26.jpg,,,,,"Shop No. 16, 1st Floor, Makkah Centre, Moon Market, Allama Iqbal Town",,,31.5210799,74.2921063,2
m27,Blue scissors salon and studio,11:00-21:00,11:00-21:00,11:00-21:00,11:00-21:00,11:00-21:00,11:00-21:00,11:00-21:00,0300 4407673,m27.jpg,,,,,"239-D, PIA Housing sociey, near wapda town roundabout, Lahore",bluescissorsthelounge@hotmail.com,,31.4424012,74.276813,2
m28,Bonito Salon,10:00-22:00,10:00-22:00,10:00-22:00,10:00-22:00,10:00-22:00,10:00-22:00,10:00-22:00,0306 4524924,m28.jpg,,,,,"Ist Floor, Hussain Plaza, Moon Market, Allama Iqbal Town, Lahore",,,31.5210799,74.2921063,2
m29,Cest La Vie Salon & SPA,10:00-19:00,10:00-19:00,10:00-19:00,10:00-19:00,10:00-19:00,10:00-19:00,10:00-19:00,0322 2223652,m29.png,,,,,"Office No.181, Scotch Corner, P-Street, Upper Mall, Gulberg, Lahore",,,31.5441753,74.353439,3
m30,Charlie Hair Salon,11:00-20:00,11:00-20:00,11:00-20:00,11:00-20:00,11:00-20:00,11:00-20:00,11:00-20:00,0300 4119577,m30.jpg,,,,,"Al-Hasib Centre, Main Market, Gulberg",,,31.5242406,74.3460538,1