isb1,Faiza Beauty Salon,Hair Care,Hair cutting,3000,60,0,0,0
isb1,Faiza Beauty Salon,Hair Care,Hair styling,4000,60,,,
isb1,Faiza Beauty Salon,Hair Care,Hair Colour,5000,60,,,
isb1,Faiza Beauty Salon,Skin Care,Cleansing,6000,60,,,
isb1,Faiza Beauty Salon,Skin Care,Face polishing,5000,60,,,
isb1,Faiza Beauty Salon,Skin Care,Threading,2000,60,,,
isb1,Faiza Beauty Salon,Skin Care,Waxing,2000,60,,,
isb1,Faiza Beauty Salon,Skin Care,Manicure,1500,60,,,
isb1,Faiza Beauty Salon,Skin Care,Pedicure,2000,60,,,
isb1,Faiza Beauty Salon,Skin Care,Mehandi,2000,60,,,
isb1,Faiza Beauty Salon,Makeup,Bridal Makeup,20000,60,,,
isb1,Faiza Beauty Salon,Makeup,Mehandi makeup,12000,60,,,
isb1,Faiza Beauty Salon,Makeup,Nikah Makeup,15000,60,,,
isb1,Faiza Beauty Salon,Makeup,Party Makeup,11000,60,,,
isb1,Faiza Beauty Salon,Makeup,Model Makeup,8000,60,,,
isb2,Natasha Beauty Salon,Hair Care,Haircut,3000,60,,,
isb2,Natasha Beauty Salon,Hair Care,Hair styling,4000,60,,,
isb2,Natasha Beauty Salon,Hair Care,Blowdry,4500,60,,,
isb2,Natasha Beauty Salon,Hair Care,Hair Straight,5000,60,,,
isb2,Natasha Beauty Salon,Nails,Manicure,1500,30,,,
isb2,Natasha Beauty Salon,Nails,Pedicure,2000,30,,,
isb2,Natasha Beauty Salon,Nails,Paraffin Therapy,2500,30,,,
isb2,Natasha Beauty Salon,Nails,Nail Extension,2500,30,,,
isb2,Natasha Beauty Salon,Makeup,Party Makeup,10000,60,,,
isb2,Natasha Beauty Salon,Makeup,Evening Makeup,12000,60,,,
isb2,Natasha Beauty Salon,Makeup,Arabic Makeup,15000,60,,,
isb2,Natasha Beauty Salon,Makeup,Bridal Makeup,25000,60,,,
isb2,Natasha Beauty Salon,Henna,Arabic Henna,1000,60,,,
isb2,Natasha Beauty Salon,Henna,Traditional Henna,700,60,,,
isb2,Natasha Beauty Salon,Henna,White Henna,700,60,,,
isb2,Natasha Beauty Salon,Henna,Tattoo,2000,60,,,
isb2,Natasha Beauty Salon,Facial,Cleansing,5000,60,,,
isb2,Natasha Beauty Salon,Facial,Herbal Facial,6000,60,,,
isb2,Natasha Beauty Salon,Facial,Whitening facial,5500,60,,,
isb2,Natasha Beauty Salon,Facial,Acne Facial,6000,60,,,
isb2,Natasha Beauty Salon,Med Spa,Deep tissue massage,5000,60,,,
isb2,Natasha Beauty Salon,Med Spa,Enhance blood circulation,4500,60,,,
isb2,Natasha Beauty Salon,Med Spa,Relieve stress,4000,60,,,
isb3,Allenora Signature Salon,Hair Care,Hair cutting,1000,60,,,
isb3,Allenora Signature Salon,Hair Care,Rebonding,1500,60,,,
isb3,Allenora Signature Salon,Hair Care,Colouring,2000,60,,,
isb3,Allenora Signature Salon,Nails,Manicure,1200,60,,,
isb3,Allenora Signature Salon,Nails,Pedicure,2000,60,,,
isb3,Allenora Signature Salon,Mehandi,Per side,400,30,,,
isb3,Allenora Signature Salon,Threading,Legs,500,60,,,
isb3,Allenora Signature Salon,Threading,Arms,400,60,,,
isb3,Allenora Signature Salon,Waxing,Legs,700,30,,,
isb3,Allenora Signature Salon,Waxing,Arms,500,30,,,
isb3,Allenora Signature Salon,Massage,Traditional,2000,60,,,
isb4,Divino Beauty Salon,Face,Acne Facial,2000,60,,,
isb4,Divino Beauty Salon,Face,Eyebrow waxing,500,30,,,
isb4,Divino Beauty Salon,Face,Makeup,5000,60,,,
isb4,Divino Beauty Salon,Face,Whitening facial,6000,60,,,
isb4,Divino Beauty Salon,Face,Wedding makeup,15000,60,,,
isb4,Divino Beauty Salon,Hair,Blowdry,2000,60,,,
isb4,Divino Beauty Salon,Hair,Hair colour,2500,60,,,
isb4,Divino Beauty Salon,Hair,Hair perm,3000,60,,,
isb4,Divino Beauty Salon,Hair,Hair Straight,3500,60,,,
isb4,Divino Beauty Salon,Hair,Ladies haircut,2000,60,,,
isb4,Divino Beauty Salon,Hair removal,Bleaching,700,30,,,
isb4,Divino Beauty Salon,Hair removal,Body Shaving,1200,60,,,
isb4,Divino Beauty Salon,Hair removal,Threading,500,30,,,
isb4,Divino Beauty Salon,Hair removal,Waxing,600,30,,,
isb4,Divino Beauty Salon,Nails,Acrylic,300,30,,,
isb4,Divino Beauty Salon,Nails,Gel,500,30,,,
isb4,Divino Beauty Salon,Nails,Manicure,600,30,,,
isb4,Divino Beauty Salon,Nails,Pedicure,800,60,,,
isb4,Divino Beauty Salon,Nails,Paraffin,600,60,,,
isb4,Divino Beauty Salon,Nails,Nail art,450,60,,,
isb5,Angel Salon,Makeup,Party Makeup,3000,60,,,
isb5,Angel Salon,Makeup,Model Makeup,4000,60,,,
isb5,Angel Salon,Makeup,Bridal Makeup,18000,60,,,
isb5,Angel Salon,Makeup,Royal bridal makeup,35000,120,,,
isb5,Angel Salon,Hair,Hair trim,500,60,,,
isb5,Angel Salon,Hair,Cutting,1000,60,,,
isb5,Angel Salon,Hair,Cutting with blowdry,1500,60,,,
isb5,Angel Salon,Hair,Signature cut,2000,60,,,
isb5,Angel Salon,Hair,Hair colour,3000,60,,,
isb5,Angel Salon,Face,Herbal Facial,1200,60,,,
isb5,Angel Salon,Face,Whitening facial,1500,60,,,
isb5,Angel Salon,Face,Derma facial,2500,60,,,
isb5,Angel Salon,Face,Gold facial,4000,60,,,
isb5,Angel Salon,Face,Jansen facial,3000,60,,,
isb5,Angel Salon,Nails,Acrylic nails,3500,60,,,
isb5,Angel Salon,Nails,Gel nails,3500,60,,,
isb5,Angel Salon,Nails,Fake nails,500,60,,,
isb6,Depilex Beauty Clinic and Institute Islamabad,Hair treatment,Hair colouring,2000,60,,,
isb6,Depilex Beauty Clinic and Institute Islamabad,Hair treatment,Hair highlight,3000,60,,,
isb6,Depilex Beauty Clinic and Institute Islamabad,Hair treatment,Hair dressing,4000,60,,,
isb6,Depilex Beauty Clinic and Institute Islamabad,Hair treatment,Wedding hair,8000,60,,,
isb6,Depilex Beauty Clinic and Institute Islamabad,Hair treatment,Hair cuts,3000,60,,,
isb6,Depilex Beauty Clinic and Institute Islamabad,Make-up,Bridal makeup,35000,60,,,
isb6,Depilex Beauty Clinic and Institute Islamabad,Make-up,Casual makeup,15000,60,,,
isb6,Depilex Beauty Clinic and Institute Islamabad,Make-up,Eye makeup,11000,60,,,
isb6,Depilex Beauty Clinic and Institute Islamabad,Make-up,Party makeup,10000,60,,,
isb6,Depilex Beauty Clinic and Institute Islamabad,Facial,Facial,4000,60,,,
isb6,Depilex Beauty Clinic and Institute Islamabad,Massage,Massage,5000,60,,,
isb7,Geero Salon,Hair removal,Bleaching,700,30,,,
isb7,Geero Salon,Hair removal,Body Shaving,1200,60,,,
isb7,Geero Salon,Hair removal,Threading,500,30,,,
isb7,Geero Salon,Hair removal,Waxing,600,30,,,
isb7,Geero Salon,Nails,Acrylic,300,30,,,
isb7,Geero Salon,Nails,Gel,500,30,,,
isb7,Geero Salon,Nails,Manicure,600,30,,,
isb7,Geero Salon,Nails,Pedicure,800,60,,,
isb7,Geero Salon,Nails,Paraffin,600,60,,,
isb7,Geero Salon,Nails,Nail art,450,60,,,
isb7,Geero Salon,Makeup,Party Makeup,3000,60,,,
isb7,Geero Salon,Makeup,Model Makeup,4000,60,,,
isb7,Geero Salon,Makeup,Bridal Makeup,18000,60,,,
isb7,Geero Salon,Makeup,Royal bridal makeup,35000,120,,,
isb8,Jugnu Salon,Hair removal,Bleaching,700,30,,,
isb8,Jugnu Salon,Hair removal,Body Shaving,1200,60,,,
isb8,Jugnu Salon,Hair removal,Threading,500,30,,,
isb8,Jugnu Salon,Hair removal,Waxing,600,30,,,
isb8,Jugnu Salon,Nails,Acrylic,300,30,,,
isb8,Jugnu Salon,Nails,Gel,500,30,,,
isb8,Jugnu Salon,Nails,Manicure,600,30,,,
isb8,Jugnu Salon,Nails,Pedicure,800,60,,,
isb8,Jugnu Salon,Nails,Paraffin,600,60,,,
isb8,Jugnu Salon,Nails,Nail art,450,60,,,
isb8,Jugnu Salon,Makeup,Party Makeup,3000,60,,,
isb8,Jugnu Salon,Makeup,Model Makeup,4000,60,,,
isb8,Jugnu Salon,Makeup,Bridal Makeup,18000,60,,,
isb9,Sadaf Farhan Salon ,Hair,Braids and twist,3500,60,,,
isb9,Sadaf Farhan Salon ,Hair,Clipper cut,500,60,,,
isb9,Sadaf Farhan Salon ,Hair,Color rinse,500,60,,,
isb9,Sadaf Farhan Salon ,Hair,Hair color,1500,60,,,
isb9,Sadaf Farhan Salon ,Hair,Haircut,900,60,,,
isb9,Sadaf Farhan Salon ,Hair,Kids haircut,500,60,,,
isb9,Sadaf Farhan Salon ,Makeup,Full face,2000,60,,,
isb9,Sadaf Farhan Salon ,Makeup,Teen makeup,1800,60,,,
isb9,Sadaf Farhan Salon ,Makeup,Wedding day makeup,4500,60,,,
isb9,Sadaf Farhan Salon ,Facial,Vitamic C facial,4200,60,,,
isb9,Sadaf Farhan Salon ,Facial,Acne facial,2000,60,,,
isb9,Sadaf Farhan Salon ,Facial,Anti aging,4000,60,,,
isb9,Sadaf Farhan Salon ,Massage,Essential therapy,5000,60,,,
isb9,Sadaf Farhan Salon ,Massage,Complete therapy,7500,90,,,
isb9,Sadaf Farhan Salon ,Nails,Pedicure,2500,60,,,
isb9,Sadaf Farhan Salon ,Nails,Manicure,2800,60,,,
isb10,Royli Salon,Hair removal,Bleaching,700,30,,,
isb10,Royli Salon,Hair removal,Body Shaving,1200,60,,,
isb10,Royli Salon,Hair removal,Threading,500,30,,,
isb10,Royli Salon,Hair removal,Waxing,600,30,,,
isb10,Royli Salon,Nails,Acrylic,300,30,,,
isb10,Royli Salon,Nails,Gel,500,30,,,
isb10,Royli Salon,Nails,Manicure,600,30,,,
isb10,Royli Salon,Nails,Pedicure,800,60,,,
isb10,Royli Salon,Nails,Paraffin,600,60,,,
isb10,Royli Salon,Nails,Nail art,450,60,,,
isb10,Royli Salon,Makeup,Party Makeup,3000,60,,,
isb10,Royli Salon,Makeup,Model Makeup,4000,60,,,
isb10,Royli Salon,Makeup,Bridal Makeup,18000,60,,,
isb10,Royli Salon,Makeup,Royal bridal makeup,35000,120,,,
isb10,Royli Salon,Henna,Arabic Henna,1000,60,,,
isb10,Royli Salon,Henna,Traditional Henna,700,60,,,
isb10,Royli Salon,Henna,White Henna,700,60,,,
isb10,Royli Salon,Henna,Tattoo,2000,60,,,
isb11,Neelam Beauty Salon,Hair,Braids and twist,3500,60,,,
isb11,Neelam Beauty Salon,Hair,Clipper cut,500,60,,,
isb11,Neelam Beauty Salon,Hair,Color rinse,500,60,,,
isb11,Neelam Beauty Salon,Hair,Hair color,1500,60,,,
isb11,Neelam Beauty Salon,Hair,Haircut,900,60,,,
isb11,Neelam Beauty Salon,Hair,Kids haircut,500,60,,,
isb11,Neelam Beauty Salon,Makeup,Full face,2000,60,,,
isb11,Neelam Beauty Salon,Makeup,Teen makeup,1800,60,,,
isb11,Neelam Beauty Salon,Makeup,Wedding day makeup,4500,60,,,
isb11,Neelam Beauty Salon,Facial,Vitamic C facial,4200,60,,,
isb11,Neelam Beauty Salon,Facial,Acne facial,2000,60,,,
isb11,Neelam Beauty Salon,Facial,Anti aging,4000,60,,,
isb11,Neelam Beauty Salon,Nails,Acrylic,300,30,,,
isb11,Neelam Beauty Salon,Nails,Gel,500,30,,,
isb11,Neelam Beauty Salon,Nails,Manicure,600,30,,,
isb11,Neelam Beauty Salon,Nails,Pedicure,800,60,,,
isb11,Neelam Beauty Salon,Nails,Paraffin,600,60,,,
isb11,Neelam Beauty Salon,Nails,Nail art,450,60,,,
isb12,Depilex Salon,Hair treatment,Hair colouring,2000,60,,,
isb12,Depilex Salon,Hair treatment,Hair highlight,3000,60,,,
isb12,Depilex Salon,Hair treatment,Hair dressing,4000,60,,,
isb12,Depilex Salon,Hair treatment,Wedding hair,8000,60,,,
isb12,Depilex Salon,Hair treatment,Hair cuts,3000,60,,,
isb12,Depilex Salon,Make-up,Bridal makeup,35000,60,,,
isb12,Depilex Salon,Make-up,Casual makeup,15000,60,,,
isb12,Depilex Salon,Make-up,Eye makeup,11000,60,,,
isb12,Depilex Salon,Make-up,Party makeup,10000,60,,,
isb12,Depilex Salon,Facial,Facial,4000,60,,,
isb12,Depilex Salon,Massage,Massage,5000,60,,,
isb13,Porcelain Salon,Makeup,Full face,2000,60,,,
isb13,Porcelain Salon,Makeup,Teen makeup,1800,60,,,
isb13,Porcelain Salon,Makeup,Wedding day makeup,4500,60,,,
isb13,Porcelain Salon,Facial,Vitamic C facial,4200,60,,,
isb13,Porcelain Salon,Facial,Acne facial,2000,60,,,
isb13,Porcelain Salon,Facial,Anti aging,4000,60,,,
isb13,Porcelain Salon,Nails,Acrylic,300,30,,,
isb13,Porcelain Salon,Nails,Gel,500,30,,,
isb13,Porcelain Salon,Nails,Manicure,600,30,,,
isb13,Porcelain Salon,Nails,Pedicure,800,60,,,
isb13,Porcelain Salon,Nails,Paraffin,600,60,,,
isb13,Porcelain Salon,Nails,Nail art,450,60,,,
isb13,Porcelain Salon,Hair removal,Bleaching,700,30,,,
isb13,Porcelain Salon,Hair removal,Body Shaving,1200,60,,,
isb13,Porcelain Salon,Hair removal,Threading,500,30,,,
isb13,Porcelain Salon,Hair removal,Waxing,600,30,,,
isb14,Tariq Amin Salon,Nails,Acrylic,300,30,,,
isb14,Tariq Amin Salon,Nails,Gel,500,30,,,
isb14,Tariq Amin Salon,Nails,Manicure,600,30,,,
isb14,Tariq Amin Salon,Nails,Pedicure,800,60,,,
isb14,Tariq Amin Salon,Nails,Paraffin,600,60,,,
isb14,Tariq Amin Salon,Nails,Nail art,450,60,,,
isb14,Tariq Amin Salon,Hair removal,Bleaching,700,30,,,
isb14,Tariq Amin Salon,Hair removal,Body Shaving,1200,60,,,
isb14,Tariq Amin Salon,Hair removal,Threading,500,30,,,
isb14,Tariq Amin Salon,Hair removal,Waxing,600,30,,,
isb14,Tariq Amin Salon,Hair treatment,Hair colouring,2000,60,,,
isb14,Tariq Amin Salon,Hair treatment,Hair highlight,3000,60,,,
isb14,Tariq Amin Salon,Hair treatment,Hair dressing,4000,60,,,
isb14,Tariq Amin Salon,Hair treatment,Wedding hair,8000,60,,,
isb14,Tariq Amin Salon,Hair treatment,Hair cuts,3000,60,,,
isb14,Tariq Amin Salon,Massage,Massage,5000,60,,,
isb14,Tariq Amin Salon,Makeup,Full face,2000,60,,,
isb14,Tariq Amin Salon,Makeup,Teen makeup,1800,60,,,
isb14,Tariq Amin Salon,Makeup,Wedding day makeup,4500,60,,,
isb15,Sheena Beauty Parlour,Threading,Eyebrow,100,30,,,
isb15,Sheena Beauty Parlour,Threading,Chin,80,30,,,
isb15,Sheena Beauty Parlour,Threading,Lip,80,30,,,
isb15,Sheena Beauty Parlour,Threading,Jawline,150,30,,,
isb15,Sheena Beauty Parlour,Threading,Full face,450,60,,,
isb15,Sheena Beauty Parlour,Nails,Simple mani,225,30,,,
isb15,Sheena Beauty Parlour,Nails,Simple pedi,325,30,,,
isb15,Sheena Beauty Parlour,Hair,Children,250,60,,,
isb15,Sheena Beauty Parlour,Hair,Flick,125,30,,,
isb15,Sheena Beauty Parlour,Hair,Hair Straight,300,60,,,
isb15,Sheena Beauty Parlour,Hair,Curling,400,60,,,
isb15,Sheena Beauty Parlour,Hair,Blowdry,750,60,,,
isb15,Sheena Beauty Parlour,Facial,Cleansing,375,60,,,
isb15,Sheena Beauty Parlour,Facial,Deep cleansing,450,60,,,
isb15,Sheena Beauty Parlour,Facial,Herbal Facial,900,60,,,
isb15,Sheena Beauty Parlour,Facial,Deep polish,700,60,,,
isb15,Sheena Beauty Parlour,Facial,Gold facial,1500,60,,,
isb16,Head to Toe Beauty Parlour,Nails,Simple mani,225,30,,,
isb16,Head to Toe Beauty Parlour,Nails,Simple pedi,325,30,,,
isb16,Head to Toe Beauty Parlour,Hair,Flick,125,30,,,
isb16,Head to Toe Beauty Parlour,Hair,Hair Straight,300,60,,,
isb16,Head to Toe Beauty Parlour,Hair,Curling,400,60,,,
isb16,Head to Toe Beauty Parlour,Hair,Blowdry,750,60,,,
isb16,Head to Toe Beauty Parlour,Facial,Cleansing,375,60,,,
isb16,Head to Toe Beauty Parlour,Facial,Deep cleansing,450,60,,,
isb16,Head to Toe Beauty Parlour,Facial,Herbal Facial,900,60,,,
isb16,Head to Toe Beauty Parlour,Facial,Deep polish,700,60,,,
isb16,Head to Toe Beauty Parlour,Facial,Gold facial,1500,60,,,
isb16,Head to Toe Beauty Parlour,Makeup,Full face,2000,60,,,
isb16,Head to Toe Beauty Parlour,Makeup,Teen makeup,1800,60,,,
isb16,Head to Toe Beauty Parlour,Makeup,Wedding day makeup,4500,60,,,
isb17,Sobias Salon,Hair removal,Threading,500,30,,,
isb17,Sobias Salon,Hair removal,Waxing,600,30,,,
isb17,Sobias Salon,Hair treatment,Hair colouring,2000,60,,,
isb17,Sobias Salon,Hair treatment,Hair highlight,3000,60,,,
isb17,Sobias Salon,Hair treatment,Hair dressing,4000,60,,,
isb17,Sobias Salon,Hair treatment,Wedding hair,8000,60,,,
isb17,Sobias Salon,Nails,Acrylic,300,30,,,
isb17,Sobias Salon,Nails,Gel,500,30,,,
isb17,Sobias Salon,Nails,Manicure,600,30,,,
isb17,Sobias Salon,Nails,Pedicure,800,60,,,
isb17,Sobias Salon,Nails,Paraffin,600,60,,,
isb17,Sobias Salon,Nails,Nail art,450,60,,,
isb17,Sobias Salon,Nails,Acrylic,300,30,,,
isb17,Sobias Salon,Nails,Gel,500,30,,,
isb17,Sobias Salon,Nails,Manicure,600,30,,,
isb17,Sobias Salon,Nails,Pedicure,800,60,,,
isb17,Sobias Salon,Nails,Paraffin,600,60,,,
isb17,Sobias Salon,Nails,Nail art,450,60,,,
isb17,Sobias Salon,Make-up,Bridal makeup,35000,60,,,
isb17,Sobias Salon,Make-up,Casual makeup,15000,60,,,
isb17,Sobias Salon,Make-up,Eye makeup,11000,60,,,
isb17,Sobias Salon,Make-up,Party makeup,10000,60,,,
isb18,Revive Beauty Salon,Hair Care,Rebounding,1500,60,,,
isb18,Revive Beauty Salon,Hair Care,Hair cutting,1000,60,,,
isb18,Revive Beauty Salon,Hair Care,Hair styling,1200,60,,,
isb18,Revive Beauty Salon,Hair Care,Hair Colour,2000,60,,,
isb18,Revive Beauty Salon,Skin Care,Cleansing,3000,60,,,
isb18,Revive Beauty Salon,Skin Care,Face polishing,2000,60,,,
isb18,Revive Beauty Salon,Skin Care,Threading,500,60,,,
isb18,Revive Beauty Salon,Skin Care,Waxing,500,60,,,
isb18,Revive Beauty Salon,Skin Care,Manicure,300,60,,,
isb18,Revive Beauty Salon,Skin Care,Pedicure,500,60,,,
isb18,Revive Beauty Salon,Skin Care,Mehandi,500,60,,,
isb18,Revive Beauty Salon,Makeup,Bridal Makeup,10000,60,,,
isb18,Revive Beauty Salon,Makeup,Mehandi makeup,5000,60,,,
isb18,Revive Beauty Salon,Makeup,Nikah Makeup,5000,60,,,
isb18,Revive Beauty Salon,Makeup,Party Makeup,5000,60,,,
isb19,Alan Chinese Beauty Salon,Facial,Cleansing,375,60,,,
isb19,Alan Chinese Beauty Salon,Facial,Deep cleansing,450,60,,,
isb19,Alan Chinese Beauty Salon,Facial,Herbal Facial,900,60,,,
isb19,Alan Chinese Beauty Salon,Facial,Deep polish,700,60,,,
isb19,Alan Chinese Beauty Salon,Facial,Gold facial,1500,60,,,
isb19,Alan Chinese Beauty Salon,Makeup,Full face,2000,60,,,
isb19,Alan Chinese Beauty Salon,Makeup,Teen makeup,1800,60,,,
isb19,Alan Chinese Beauty Salon,Makeup,Wedding day makeup,4500,60,,,
isb19,Alan Chinese Beauty Salon,Hair removal,Threading,500,30,,,
isb19,Alan Chinese Beauty Salon,Hair removal,Waxing,600,30,,,
isb19,Alan Chinese Beauty Salon,Hair treatment,Hair colouring,2000,60,,,
isb19,Alan Chinese Beauty Salon,Hair treatment,Hair highlight,3000,60,,,
isb19,Alan Chinese Beauty Salon,Hair treatment,Hair dressing,1500,60,,,
isb19,Alan Chinese Beauty Salon,Hair treatment,Wedding hair,8000,60,,,
isb20,Blazon Salon,Hair treatment,Hair colouring,2000,60,,,
isb20,Blazon Salon,Hair treatment,Hair highlight,3000,60,,,
isb20,Blazon Salon,Hair treatment,Hair dressing,1500,60,,,
isb20,Blazon Salon,Hair treatment,Wedding hair,8000,60,,,
isb20,Blazon Salon,Facial,Cleansing,375,60,,,
isb20,Blazon Salon,Facial,Deep cleansing,450,60,,,
isb20,Blazon Salon,Facial,Herbal Facial,900,60,,,
isb20,Blazon Salon,Facial,Deep polish,700,60,,,
isb20,Blazon Salon,Facial,Gold facial,1500,60,,,
isb20,Blazon Salon,Beard,Beard cutting and styling,500,30,,,
