sal_id,Sal Name,Monday,Tuesday,Wednesday,Thursday,Friday,Saturday,Sunday,Mobile Number,Salon_profile_Pic,Website,Facebook,Twitter,Instagram,Sal_address,Sal_email,Owner Name,Lat,Long,Salon Type
khi8,Pengs Hair and Beauty Salon,09:30-20:00,09:30-20:00,09:30-20:00,09:30-20:00,09:30-20:00,09:30-20:00,00:00-00:00,021 35838588,khi8.jpg,http://pengs.com.pk/,,,,"F-50/A, E-street, Block 4, Clifton, Karachi (same lane as Xanders cafe)",,,24.806398,67.03405,2
khi9,Pengs Hair and Beauty Salon,09:30-20:00,09:30-20:00,09:30-20:00,09:30-20:00,09:30-20:00,09:30-20:00,00:00-00:00,021 35890568,khi8.jpg,http://pengs.com.pk/,,,,"116, Ground Floor, 9th East Street, Phase 1, DHA, Karachi",,,24.843838,67.060032,2
khi10,Pengs Hair and Beauty Salon,09:30-20:00,09:30-20:00,09:30-20:00,09:30-20:00,09:30-20:00,09:30-20:00,00:00-00:00,0321 2107133,khi8.jpg,http://pengs.com.pk/,,,,"Plot 44C, Lane 5, DHA Phase 6, Bukhari Commercial, Karachi ",,,24.793183,67.0680742,2
khi14,Mahrose Beauty parlour,10:00-22:00,10:00-22:00,10:00-22:00,10:00-22:00,10:00-22:00,10:00-22:00,10:00-22:00,021 36625540,khi14.jpg,http://mahrosebeautyparlour.com,,,,"Shahrah-e-Jahangir, Block H, North Nazimabad, Karachi", info@mahrosebeautyparlour.com,,24.936669,67.0518518,2
khi15,Mahrose Beauty parlour,10:00-22:00,10:00-22:00,10:00-22:00,10:00-22:00,10:00-22:00,10:00-22:00,10:00-22:00,021 36639977,khi14.jpg,http://mahrosebeautyparlour.com,,,,"C, 14, Block S North Nazimabad, Karachi", info@mahrosebeautyparlour.com,,24.944572,67.047899,2
khi16,Mahrose Beauty parlour,10:00-22:00,10:00-22:00,10:00-22:00,10:00-22:00,10:00-22:00,10:00-22:00,10:00-22:00,021 36989300,khi14.jpg,http://mahrosebeautyparlour.com,,,,"A 511, Sector 11-A Sector 11 A North Karachi", info@mahrosebeautyparlour.com,,24.9838918,67.065322,2
khi17,Mahrose Beauty parlour,10:00-22:00,10:00-22:00,10:00-22:00,10:00-22:00,10:00-22:00,10:00-22:00,10:00-22:00,021 34811712,khi14.jpg,http://mahrosebeautyparlour.com,,,,"B-33, Block-16, Gulshan-e-Iqbal, Karachi", info@mahrosebeautyparlour.com,,24.9049099,67.0802136,2
khi18,Mahrose Beauty parlour,10:00-22:00,10:00-22:00,10:00-22:00,10:00-22:00,10:00-22:00,10:00-22:00,10:00-22:00,021 34810871,khi14.jpg,http://mahrosebeautyparlour.com,,,,"B & H House, University Rd, Block 15, Gulshan-e-Iqbal, Karachi", info@mahrosebeautyparlour.com,,24.9040914,67.0781888,2
khi19,Mahrose Beauty parlour,10:00-22:00,10:00-22:00,10:00-22:00,10:00-22:00,10:00-22:00,10:00-22:00,10:00-22:00,021 34612747,khi14.jpg,http://mahrosebeautyparlour.com,,,,"Block 17, Gulistan-e-Johar, Karachi", info@mahrosebeautyparlour.com,,24.909118,67.1185493,2
khi20,Mahrose Beauty parlour,10:00-22:00,10:00-22:00,10:00-22:00,10:00-22:00,10:00-22:00,10:00-22:00,10:00-22:00,021 34518890,khi14.jpg,http://mahrosebeautyparlour.com,,,,"Shahrah-e-Faisal, Darakhshan Housing Society, Malir Kala Board, Karachi", info@mahrosebeautyparlour.com,,24.8834092,67.1799664,2
khi21,Mahrose Beauty parlour,10:00-22:00,10:00-22:00,10:00-22:00,10:00-22:00,10:00-22:00,10:00-22:00,10:00-22:00,021 34902105,khi14.jpg,http://mahrosebeautyparlour.com,,,,"Malir Cantonment, Karachi", info@mahrosebeautyparlour.com,,24.942563,67.2038328,2
khi30,Depilex Beauty Clinic,10:00-22:00,10:00-22:00,10:00-22:00,10:00-22:00,10:00-22:00,10:00-22:00,10:00-22:00,021 34858781,khi30.jpg,https://depilexonline.com/,,,,"3/54, Sirajudullah Road, Block 3, Bahadurabad, Karachi",depilex.bahadurabad@depilexonline.com,,24.8793218,67.0688349,2
khi31,Depilex Beauty Clinic,10:00-22:00,10:00-22:00,10:00-22:00,10:00-22:00,10:00-22:00,10:00-22:00,10:00-22:00,0300 2770089,khi30.jpg,https://depilexonline.com/,,,,"C-16, Block-I, near Five star Chaurangi, North Nazimabad, Karachi",,,24.9450909,67.0446726,2
khi32,Depilex Beauty Clinic,10:00-22:00,10:00-22:00,10:00-22:00,10:00-22:00,10:00-22:00,10:00-22:00,10:00-22:00,0308 2929932,khi30.jpg,https://depilexonline.com/,,,,"C-79, Block 13, Gulistan-e-Johar, Karachi",,,24.9124432,67.1332274,2
khi33,Depilex Beauty Clinic,10:00-22:00,10:00-22:00,10:00-22:00,10:00-22:00,10:00-22:00,10:00-22:00,10:00-22:00,021 34211177,khi30.jpg,https://depilexonline.com/,,,,"B-17, Block 5, Gulshan-e-Iqbal, Karachi",depilex.gulshan@depilexonline.com,,24.9209045,67.0895825,2