sal_id,Sal Name,Monday,Tuesday,Wednesday,Thursday,Friday,Saturday,Sunday,Mobile Number,Salon_profile_Pic,Website,Facebook,Twitter,Instagram,Sal_address,Sal_email,Owner Name,Lat,Long,Salon Type
fsd1,Depilex Beauty Clinic,11:00-20:00,11:00-20:00,11:00-20:00,11:00-20:00,11:00-20:00,11:00-20:00,11:00-20:00,0300 0331222,fsd1.jpg,https://depilexonline.com/,,,,"23-1/A, Peoples Colony 1, Off Ripple Lane, Behind Car and Cars, Faisalabad",depilex.faisalabad@depilexonline.com,,31.41112,73.112631,2
fsd2,Nusrat Beauty Salon ,11:00-20:00,11:00-20:00,11:00-20:00,11:00-20:00,11:00-20:00,11:00-20:00,11:00-20:00,0301 7142353,fsd2.jpg,,,,,"Nusrat Beauty Salon, Mumtaz House 291,Batala Colony, near McDonalds, Faisalabad",nusratshabbir123@gmail.com,,31.4011821,73.1036295,2
fsd3,Allenora Beauty Parlour,11:00-20:00,11:00-20:00,11:00-20:00,11:00-20:00,11:00-20:00,11:00-20:00,11:00-20:00,0301 8666055,fsd3.jpg,,,,,"30/A People's Colony, Faisal Rasheed Road (near D Ground), Faisalabad",info@allenoraofficial.com,,31.4101035,73.1087248,2
fsd4,Hadiqa Kiani Salon,11:00-20:00,11:00-20:00,11:00-20:00,11:00-20:00,11:00-20:00,11:00-20:00,11:00-20:00,0300 6651444,fsd4.jpg,,,,,"House 107, block A, peoples colony no. 1, Near small D Ground, Faisalabad",hksalonfsd@gmail.com,,31.4159461,73.1055826,2
fsd5,Signature By Eram,11:00-20:00,11:00-20:00,11:00-20:00,11:00-20:00,11:00-20:00,11:00-20:00,11:00-20:00,041 8737446,fsd5.jpg,,,,,"79 A people's colony 1, Faisalabad",,,31.4141102,73.1077481,2
fsd6,Allure Beauty Parlour,11:00-20:00,11:00-20:00,11:00-20:00,11:00-20:00,11:00-20:00,11:00-20:00,11:00-20:00,0301 7170759,fsd6.jpg,,,,,"128 A Small d ground Near MCB BANK CHEN ONE ROAD, Faisalabad",,,31.4101035,73.1087248,2
fsd7,Aroosa Beauty Salon,08:00-21:00,08:00-21:00,08:00-21:00,08:00-21:00,08:00-21:00,08:00-21:00,08:00-21:00,041 2635822,fsd7.jpg,,,,,"P-15 street # 1 Muhammad Pura1, Gulberg Rd, Faisalabad",aroosabeautyp@yahoo.com,,31.4226848,73.0595648,2
fsd8,Hollywood Beauty Salon,10:00-22:00,10:00-22:00,10:00-22:00,10:00-22:00,10:00-22:00,10:00-22:00,10:00-22:00,0301 6942020,fsd8.jpg,http://hollywoodsalon.net/,,,,"88, Koh-e-Noor City, Faisalabad",info@hollywoodsalon.net,,31.4128972,73.1176507,2
fsd9,Sola Singhar Salon,11:00-21:00,11:00-21:00,11:00-21:00,11:00-21:00,11:00-21:00,11:00-22:00,11:00-22:00,041 8531992,fsd9.jpg,,,,,"Raja Rd, Gulshan Colony, Faisalabad",info@solasingharonline.com,,31.4413683,73.1026579,2
fsd10,Dee Fashion hair Salon,10:00-22:00,10:00-22:00,10:00-22:00,10:00-22:00,10:00-22:00,10:00-22:00,10:00-22:00,0302 7087511,fsd10.jpg,,,,,"Hakeem Sultan Ahmad Dawoodi Rd, D Ground Block B People's Colony No 1, Faisalabad",,,31.40661,73.109073,1
fsd11,Adore Beauty Salon,11:00-20:00,11:00-20:00,11:00-20:00,11:00-20:00,11:00-20:00,11:00-20:00,11:00-20:00,0300 8660903,fsd11.jpg,,,,,"645-D Imam Hussain Road, Peoples colony 1, Faisalabad",,,31.404443,73.113907,2
fsd12,Deep looks Beauty Clinic,10:00-22:00,10:00-22:00,10:00-22:00,10:00-22:00,10:00-22:00,10:00-22:00,10:00-22:00,0333 6598727,fsd12.jpg,,,,,"475-D, Chen One Rd, D Ground, Peoples Colony, Faisalabad",hamdahafsa@yahoo.com,,31.4057082,73.1119429,2
fsd13,Hair Dot Comb Salon,10:00-22:00,10:00-22:00,10:00-22:00,10:00-22:00,10:00-22:00,10:00-22:00,10:00-22:00,0305 2793875,fsd13.jpg,,,,,"53, Kohinoor City Faisalabad",,,31.4128972,73.1176507,1
fsd14,White Rose Beauty Parlour,10:00-22:00,10:00-22:00,10:00-22:00,10:00-22:00,10:00-22:00,10:00-22:00,10:00-22:00,0300 6627673,fsd14.jpg,,,,,"Street 5, Yaseen Abad, Faisalabad",,,31.3845357,73.0928386,2
fsd15,Delaqua Salon,11:00-20:00,11:00-20:00,11:00-20:00,11:00-20:00,11:00-20:00,11:00-20:00,11:00-20:00,0321 7664078,fsd15.png,,,,,"50-A People's Colony, Opposite To SB Store, Off Chen One Road, Faisalabad",,,31.4115513,73.1058694,2
,,,,,,,,,,,,,,,,,,,,
,,,,,,,,,,,,,,,,,,,,
,,,,,,,,,,,,,,,,,,,,
