khi1,Nabila Salon,Hair,Level 1 Haircut,4000,60,0,0,0
khi1,Nabila Salon,Hair,Level 2 Haircut,7000,60,,,
khi1,Nabila Salon,Hair,Colour Roots coverage,4000,60,,,
khi1,Nabila Salon,Hair,Colour enhancer,4500,60,,,
khi1,Nabila Salon,Hair,Gloss,6000,60,,,
khi1,Nabila Salon,Hair,Hair texture upto shoulder length,20000,60,,,
khi1,Nabila Salon,Hair,Brazilian blowdry,20000,60,,,
khi1,Nabila Salon,Make-up,Party Makeup,10000,60,,,
khi1,Nabila Salon,Make-up,Bridal Makeup,10000,60,,,
khi1,Nabila Salon,Make-up,Level 3 Makeup,15000,60,,,
khi1,Nabila Salon,Make-up,Level 3 Bridal makeup,32000,60,,,
khi1,Nabila Salon,Nails,Scrub,1000,60,,,
khi1,Nabila Salon,Nails,Shape,1000,60,,,
khi1,Nabila Salon,Nails,French polish,1200,60,,,
khi1,Nabila Salon,Nails,Express manicure,1800,60,,,
khi1,Nabila Salon,Nails,Hydrating manicure,2500,60,,,
khi1,Nabila Salon,Nails,Foot massage,1000,60,,,
khi1,Nabila Salon,Nails,Foot shape,1200,60,,,
khi1,Nabila Salon,Nails,Express pedicure,1800,60,,,
khi1,Nabila Salon,Nails,Luxury pedicure,3000,60,,,
khi1,Nabila Salon,Men Make-up,Make-up,5000,60,,,
khi1,Nabila Salon,Men Make-up,Bleach,7000,60,,,
khi1,Nabila Salon,Men Facial,Facial,8000,60,,,
khi1,Nabila Salon,Men hair,Hair cuts,5000,60,,,
khi1,Nabila Salon,Men hair,Hair styles,4000,60,,,
khi1,Nabila Salon,Men hair,Hair straightening,6000,60,,,
khi2,Allenora Annie Signature Salon,Make-up,Bridal Makeup,25000,60,,,
khi2,Allenora Annie Signature Salon,Facial,Facial,1000,60,,,
khi2,Allenora Annie Signature Salon,Facial,Special facial,3500,60,,,
khi2,Allenora Annie Signature Salon,Hair,Haircut and style,2000,60,,,
khi2,Allenora Annie Signature Salon,Hair,Rebonding,5000,60,,,
khi2,Allenora Annie Signature Salon,Hair,Colouring,5000,60,,,
khi2,Allenora Annie Signature Salon,Hair,Hair treatment,2000,60,,,
khi2,Allenora Annie Signature Salon,Nails,Manicure,1200,60,,,
khi2,Allenora Annie Signature Salon,Nails,Pedicure,1200,60,,,
khi2,Allenora Annie Signature Salon,Waxing,Waxing,1000,60,,,
khi2,Allenora Annie Signature Salon,Threading,Threading,400,30,,,
khi3,Nadia Hussain Salon,Make-up,Party Makeup by Stylist,6000,60,,,
khi3,Nadia Hussain Salon,Make-up,Party makeup by nadia hussain,10000,60,,,
khi3,Nadia Hussain Salon,Make-up,Engagement Makeup by stylist,8000,90,,,
khi3,Nadia Hussain Salon,Make-up,Egnagement Makeup by Nadia Hussain,12000,90,,,
khi3,Nadia Hussain Salon,Make-up,Mehandi makeup by stylist,6000,60,,,
khi3,Nadia Hussain Salon,Make-up,Mehandi makeup by nadia hussain,8000,60,,,
khi3,Nadia Hussain Salon,Make-up,Bridal Makeup by stylist,20000,90,,,
khi3,Nadia Hussain Salon,Make-up,Bridal Makeup by nadia hussain,25000,60,,,
khi3,Nadia Hussain Salon,Facial,Cleansing,1500,60,,,
khi3,Nadia Hussain Salon,Facial,Whitening,5000,60,,,
khi3,Nadia Hussain Salon,Facial,Anti aging,6000,60,,,
khi3,Nadia Hussain Salon,Hair,Hair cuts,2500,60,,,
khi3,Nadia Hussain Salon,Bleach,Face,550,60,,,
khi3,Nadia Hussain Salon,Bleach,Arms,500,60,,,
khi3,Nadia Hussain Salon,Bleach,Legs,750,60,,,
khi3,Nadia Hussain Salon,Bleach,Back,600,60,,,
khi3,Nadia Hussain Salon,Nails,Manicure,650,30,,,
khi3,Nadia Hussain Salon,Nails,Pedicure,650,30,,,
khi3,Nadia Hussain Salon,Nails,Derma manicure,850,60,,,
khi3,Nadia Hussain Salon,Nails,Derma pedicure,850,60,,,
khi3,Nadia Hussain Salon,Nails,Paraffin,800,60,,,
khi3,Nadia Hussain Salon,Massage,Neck and shoulder,500,30,,,
khi3,Nadia Hussain Salon,Massage,Feet and legs,500,30,,,
khi3,Nadia Hussain Salon,Waxing,Arms,400,60,,,
khi3,Nadia Hussain Salon,Waxing,Legs,600,60,,,
khi3,Nadia Hussain Salon,Waxing,Back,500,60,,,
khi3,Nadia Hussain Salon,Waxing,Full body,3000,60,,,
khi4,Blush Studio Karachi,Waxing,Arms,400,60,,,
khi4,Blush Studio Karachi,Waxing,Legs,600,60,,,
khi4,Blush Studio Karachi,Waxing,Back,500,60,,,
khi4,Blush Studio Karachi,Waxing,Full body,3000,60,,,
khi4,Blush Studio Karachi,Nails,Manicure,650,30,,,
khi4,Blush Studio Karachi,Nails,Pedicure,650,30,,,
khi4,Blush Studio Karachi,Nails,Derma manicure,850,60,,,
khi4,Blush Studio Karachi,Nails,Derma pedicure,850,60,,,
khi4,Blush Studio Karachi,Nails,Paraffin,800,60,,,
khi4,Blush Studio Karachi,Threading,Threading,400,30,,,
khi4,Blush Studio Karachi,Makeup,Party Makeup ,6000,60,,,
khi4,Blush Studio Karachi,Makeup,Engagement Makeup ,8000,90,,,
khi4,Blush Studio Karachi,Makeup,Mehandi makeup ,6000,60,,,
khi4,Blush Studio Karachi,Makeup,Bridal Makeup,20000,90,,,
khi4,Blush Studio Karachi,Massage,Neck and shoulder,500,30,,,
khi4,Blush Studio Karachi,Massage,Feet and legs,500,30,,,
khi4,Blush Studio Karachi,Hair,Haircut and style,2000,60,,,
khi4,Blush Studio Karachi,Hair,Rebonding,5000,60,,,
khi4,Blush Studio Karachi,Hair,Colouring,5000,60,,,
khi4,Blush Studio Karachi,Hair,Hair treatment,2000,60,,,
khi5,Bina Khan Salon,Makeup,Bridal Makeup,52000,60,,,
khi5,Bina Khan Salon,Makeup,Evening Makeup,15000,60,,,
khi5,Bina Khan Salon,Makeup,Eye Makeup,5000,60,,,
khi5,Bina Khan Salon,Hair,Up style,1500,60,,,
khi5,Bina Khan Salon,Hair,Blowdry,500,60,,,
khi5,Bina Khan Salon,Hair,Ironing,500,60,,,
khi5,Bina Khan Salon,Hair,Curling,1200,60,,,
khi5,Bina Khan Salon,Nails,Shape and paint,300,30,,,
khi5,Bina Khan Salon,Nails,French application,350,30,,,
khi5,Bina Khan Salon,Nails,Opi manicure,1200,60,,,
khi5,Bina Khan Salon,Nails,Opi pedicure,1500,60,,,
khi5,Bina Khan Salon,Waxing,Arms,500,30,,,
khi5,Bina Khan Salon,Waxing,Legs,650,30,,,
khi5,Bina Khan Salon,Waxing,Stomach,200,30,,,
khi5,Bina Khan Salon,Waxing,Back,300,30,,,
khi5,Bina Khan Salon,Waxing,Bikini,1500,30,,,
khi5,Bina Khan Salon,Threading,Eyebrow,200,30,,,
khi5,Bina Khan Salon,Threading,Upper lip,100,30,,,
khi6,Zara Beauty Parlour,Makeup,Bridal Makeup By Rizwana Khan,50000,90,,,
khi6,Zara Beauty Parlour,Makeup,Reception Makeup,45000,90,,,
khi6,Zara Beauty Parlour,Makeup,Bridal Makeup by Zara Khan,35000,90,,,
khi6,Zara Beauty Parlour,Makeup,Reception Makeup by Zara Khan,30000,90,,,
khi6,Zara Beauty Parlour,Makeup,Party Makeup by Zara Khan,15000,90,,,
khi7,Zara Beauty Parlour,Makeup,Bridal Makeup,50000,90,,,
khi7,Zara Beauty Parlour,Makeup,Reception Makeup,20000,90,,,
khi7,Zara Beauty Parlour,Makeup,Engagement Makeup,16000,60,,,
khi7,Zara Beauty Parlour,Makeup,Party Makeup,6000,60,,,
khi7,Zara Beauty Parlour,Makeup,Model Makeup,26000,60,,,
khi8,Pengs Hair and Beauty Salon,Men Hair,Men haircut,1500,60,,,
khi8,Pengs Hair and Beauty Salon,Men Hair,Boy haircut,500,60,,,
khi8,Pengs Hair and Beauty Salon,Men Hair,Hair colouring,2200,60,,,
khi8,Pengs Hair and Beauty Salon,Men Hair,Shave,500,30,,,
khi8,Pengs Hair and Beauty Salon,Men Hair,Rebonding,15000,90,,,
khi8,Pengs Hair and Beauty Salon,Men Face,Hydradermie lift,6000,60,,,
khi8,Pengs Hair and Beauty Salon,Men Face,Hydra peeling,7000,60,,,
khi8,Pengs Hair and Beauty Salon,Men Face,Aromatic treatment,3500,60,,,
khi8,Pengs Hair and Beauty Salon,Men Face,Microdermabrasion,5000,60,,,
khi8,Pengs Hair and Beauty Salon,Men Face,Protein radiance facial,3000,60,,,
khi8,Pengs Hair and Beauty Salon,Men Body,Back massage,1100,60,,,
khi8,Pengs Hair and Beauty Salon,Men Body,Hot stone body massage with essential oil,3000,60,,,
khi8,Pengs Hair and Beauty Salon,Men Hand and Foot,Guinot manicure,700,30,,,
khi8,Pengs Hair and Beauty Salon,Men Hand and Foot,Guinot pedicure,800,30,,,
khi8,Pengs Hair and Beauty Salon,Men Hand and Foot,Foot massage,500,30,,,
khi8,Pengs Hair and Beauty Salon,Men Waxing,Full face,1500,30,,,
khi8,Pengs Hair and Beauty Salon,Men Waxing,Full arms,1600,30,,,
khi8,Pengs Hair and Beauty Salon,Men Waxing,Back,1000,30,,,
khi8,Pengs Hair and Beauty Salon,Men Waxing,Full body,5500,60,,,
khi8,Pengs Hair and Beauty Salon,Women hair,Haircut and blowdry,2000,60,,,
khi8,Pengs Hair and Beauty Salon,Women hair,Under8 haircut and blowdry,1000,60,,,
khi8,Pengs Hair and Beauty Salon,Women hair,"Shampoo, conditioner and blowdry",1000,30,,,
khi8,Pengs Hair and Beauty Salon,Women hair,"Shampoo, conditioner and tong",1500,60,,,
khi8,Pengs Hair and Beauty Salon,Women facial,Eye treatment,4500,60,,,
khi8,Pengs Hair and Beauty Salon,Women facial,Oxygenating facial,4000,60,,,
khi8,Pengs Hair and Beauty Salon,Women facial,Personalized facial,4000,60,,,
khi8,Pengs Hair and Beauty Salon,Women facial,Aromatic treatment,5000,60,,,
khi8,Pengs Hair and Beauty Salon,Women facial,CACI,7000,60,,,
khi8,Pengs Hair and Beauty Salon,Women facial,Guinot Mask,1500,60,,,
khi8,Pengs Hair and Beauty Salon,Women facial,Brightening Mask,1500,60,,,
khi8,Pengs Hair and Beauty Salon,Women Nails,Manicure,1000,30,,,
khi8,Pengs Hair and Beauty Salon,Women Nails,Pedicure,1200,30,,,
khi8,Pengs Hair and Beauty Salon,Women body,Foot massage,1000,30,,,
khi8,Pengs Hair and Beauty Salon,Women body,"Head, shoulder and back massage",1500,60,,,
khi8,Pengs Hair and Beauty Salon,Women body,Hot stone massage,4000,60,,,
khi8,Pengs Hair and Beauty Salon,Women Waxing,Underarm,500,30,,,
khi8,Pengs Hair and Beauty Salon,Women Waxing,Arms,1000,30,,,
khi8,Pengs Hair and Beauty Salon,Women Waxing,Legs,1200,30,,,
khi8,Pengs Hair and Beauty Salon,Women Waxing,Full body,4000,60,,,
khi8,Pengs Hair and Beauty Salon,Women bleaching,Face polishing,1200,30,,,
khi8,Pengs Hair and Beauty Salon,Women bleaching,Hand polishing with mask,2000,60,,,
khi8,Pengs Hair and Beauty Salon,Women bleaching,Foot polishing,1000,30,,,
khi8,Pengs Hair and Beauty Salon,Women Make-up,Eye Makeup,4000,60,,,
khi8,Pengs Hair and Beauty Salon,Women Make-up,Evening Makeup,6000,60,,,
khi8,Pengs Hair and Beauty Salon,Women Make-up,Bridal Makeup,25000,60,,,
khi9,Pengs Hair and Beauty Salon,Men Hair,Men haircut,1500,60,,,
khi9,Pengs Hair and Beauty Salon,Men Hair,Boy haircut,500,60,,,
khi9,Pengs Hair and Beauty Salon,Men Hair,Hair colouring,2200,60,,,
khi9,Pengs Hair and Beauty Salon,Men Hair,Shave,500,30,,,
khi9,Pengs Hair and Beauty Salon,Men Hair,Rebonding,15000,90,,,
khi9,Pengs Hair and Beauty Salon,Men Face,Hydradermie lift,6000,60,,,
khi9,Pengs Hair and Beauty Salon,Men Face,Hydra peeling,7000,60,,,
khi9,Pengs Hair and Beauty Salon,Men Face,Aromatic treatment,3500,60,,,
khi9,Pengs Hair and Beauty Salon,Men Face,Microdermabrasion,5000,60,,,
khi9,Pengs Hair and Beauty Salon,Men Face,Protein radiance facial,3000,60,,,
khi9,Pengs Hair and Beauty Salon,Men Body,Back massage,1100,60,,,
khi9,Pengs Hair and Beauty Salon,Men Body,Hot stone body massage with essential oil,3000,60,,,
khi9,Pengs Hair and Beauty Salon,Men Hand and Foot,Guinot manicure,700,30,,,
khi9,Pengs Hair and Beauty Salon,Men Hand and Foot,Guinot pedicure,800,30,,,
khi9,Pengs Hair and Beauty Salon,Men Hand and Foot,Foot massage,500,30,,,
khi9,Pengs Hair and Beauty Salon,Men Waxing,Full face,1500,30,,,
khi9,Pengs Hair and Beauty Salon,Men Waxing,Full arms,1600,30,,,
khi9,Pengs Hair and Beauty Salon,Men Waxing,Back,1000,30,,,
khi9,Pengs Hair and Beauty Salon,Men Waxing,Full body,5500,60,,,
khi9,Pengs Hair and Beauty Salon,Women hair,Haircut and blowdry,2000,60,,,
khi9,Pengs Hair and Beauty Salon,Women hair,Under8 haircut and blowdry,1000,60,,,
khi9,Pengs Hair and Beauty Salon,Women hair,"Shampoo, conditioner and blowdry",1000,30,,,
khi9,Pengs Hair and Beauty Salon,Women hair,"Shampoo, conditioner and tong",1500,60,,,
khi9,Pengs Hair and Beauty Salon,Women facial,Eye treatment,4500,60,,,
khi9,Pengs Hair and Beauty Salon,Women facial,Oxygenating facial,4000,60,,,
khi9,Pengs Hair and Beauty Salon,Women facial,Personalized facial,4000,60,,,
khi9,Pengs Hair and Beauty Salon,Women facial,Aromatic treatment,5000,60,,,
khi9,Pengs Hair and Beauty Salon,Women facial,CACI,7000,60,,,
khi9,Pengs Hair and Beauty Salon,Women facial,Guinot Mask,1500,60,,,
khi9,Pengs Hair and Beauty Salon,Women facial,Brightening Mask,1500,60,,,
khi9,Pengs Hair and Beauty Salon,Women Nails,Manicure,1000,30,,,
khi9,Pengs Hair and Beauty Salon,Women Nails,Pedicure,1200,30,,,
khi9,Pengs Hair and Beauty Salon,Women body,Foot massage,1000,30,,,
khi9,Pengs Hair and Beauty Salon,Women body,"Head, shoulder and back massage",1500,60,,,
khi9,Pengs Hair and Beauty Salon,Women body,Hot stone massage,4000,60,,,
khi9,Pengs Hair and Beauty Salon,Women Waxing,Underarm,500,30,,,
khi9,Pengs Hair and Beauty Salon,Women Waxing,Arms,1000,30,,,
khi9,Pengs Hair and Beauty Salon,Women Waxing,Legs,1200,30,,,
khi9,Pengs Hair and Beauty Salon,Women Waxing,Full body,4000,60,,,
khi9,Pengs Hair and Beauty Salon,Women bleaching,Face polishing,1200,30,,,
khi9,Pengs Hair and Beauty Salon,Women bleaching,Hand polishing with mask,2000,60,,,
khi9,Pengs Hair and Beauty Salon,Women bleaching,Foot polishing,1000,30,,,
khi9,Pengs Hair and Beauty Salon,Women Makeup,Eye Makeup,4000,60,,,
khi9,Pengs Hair and Beauty Salon,Women Makeup,Evening Makeup,6000,60,,,
khi9,Pengs Hair and Beauty Salon,Women Makeup,Bridal Makeup,25000,60,,,
khi10,Pengs Hair and Beauty Salon,Men Hair,Men haircut,1500,60,,,
khi10,Pengs Hair and Beauty Salon,Men Hair,Boy haircut,500,60,,,
khi10,Pengs Hair and Beauty Salon,Men Hair,Hair colouring,2200,60,,,
khi10,Pengs Hair and Beauty Salon,Men Hair,Shave,500,30,,,
khi10,Pengs Hair and Beauty Salon,Men Hair,Rebonding,15000,90,,,
khi10,Pengs Hair and Beauty Salon,Men Face,Hydradermie lift,6000,60,,,
khi10,Pengs Hair and Beauty Salon,Men Face,Hydra peeling,7000,60,,,
khi10,Pengs Hair and Beauty Salon,Men Face,Aromatic treatment,3500,60,,,
khi10,Pengs Hair and Beauty Salon,Men Face,Microdermabrasion,5000,60,,,
khi10,Pengs Hair and Beauty Salon,Men Face,Protein radiance facial,3000,60,,,
khi10,Pengs Hair and Beauty Salon,Men Body,Back massage,1100,60,,,
khi10,Pengs Hair and Beauty Salon,Men Body,Hot stone body massage with essential oil,3000,60,,,
khi10,Pengs Hair and Beauty Salon,Men Hand and Foot,Guinot manicure,700,30,,,
khi10,Pengs Hair and Beauty Salon,Men Hand and Foot,Guinot pedicure,800,30,,,
khi10,Pengs Hair and Beauty Salon,Men Hand and Foot,Foot massage,500,30,,,
khi10,Pengs Hair and Beauty Salon,Men Waxing,Full face,1500,30,,,
khi10,Pengs Hair and Beauty Salon,Men Waxing,Full arms,1600,30,,,
khi10,Pengs Hair and Beauty Salon,Men Waxing,Back,1000,30,,,
khi10,Pengs Hair and Beauty Salon,Men Waxing,Full body,5500,60,,,
khi10,Pengs Hair and Beauty Salon,Women hair,Haircut and blowdry,2000,60,,,
khi10,Pengs Hair and Beauty Salon,Women hair,Under8 haircut and blowdry,1000,60,,,
khi10,Pengs Hair and Beauty Salon,Women hair,"Shampoo, conditioner and blowdry",1000,30,,,
khi10,Pengs Hair and Beauty Salon,Women hair,"Shampoo, conditioner and tong",1500,60,,,
khi10,Pengs Hair and Beauty Salon,Women facial,Eye treatment,4500,60,,,
khi10,Pengs Hair and Beauty Salon,Women facial,Oxygenating facial,4000,60,,,
khi10,Pengs Hair and Beauty Salon,Women facial,Personalized facial,4000,60,,,
khi10,Pengs Hair and Beauty Salon,Women facial,Aromatic treatment,5000,60,,,
khi10,Pengs Hair and Beauty Salon,Women facial,CACI,7000,60,,,
khi10,Pengs Hair and Beauty Salon,Women facial,Guinot Mask,1500,60,,,
khi10,Pengs Hair and Beauty Salon,Women facial,Brightening Mask,1500,60,,,
khi10,Pengs Hair and Beauty Salon,Women Nails,Manicure,1000,30,,,
khi10,Pengs Hair and Beauty Salon,Women Nails,Pedicure,1200,30,,,
khi10,Pengs Hair and Beauty Salon,Women body,Foot massage,1000,30,,,
khi10,Pengs Hair and Beauty Salon,Women body,"Head, shoulder and back massage",1500,60,,,
khi10,Pengs Hair and Beauty Salon,Women body,Hot stone massage,4000,60,,,
khi10,Pengs Hair and Beauty Salon,Women Waxing,Underarm,500,30,,,
khi10,Pengs Hair and Beauty Salon,Women Waxing,Arms,1000,30,,,
khi10,Pengs Hair and Beauty Salon,Women Waxing,Legs,1200,30,,,
khi10,Pengs Hair and Beauty Salon,Women Waxing,Full body,4000,60,,,
khi10,Pengs Hair and Beauty Salon,Women bleaching,Face polishing,1200,30,,,
khi10,Pengs Hair and Beauty Salon,Women bleaching,Hand polishing with mask,2000,60,,,
khi10,Pengs Hair and Beauty Salon,Women bleaching,Foot polishing,1000,30,,,
khi10,Pengs Hair and Beauty Salon,Women Makeup,Eye Makeup,4000,60,,,
khi10,Pengs Hair and Beauty Salon,Women Makeup,Evening Makeup,6000,60,,,
khi10,Pengs Hair and Beauty Salon,Women Makeup,Bridal Makeup,25000,60,,,
khi11,Pengs Hair and Beauty Salon,Men Hair,Men haircut,1500,60,,,
khi11,Pengs Hair and Beauty Salon,Men Hair,Boy haircut,500,60,,,
khi11,Pengs Hair and Beauty Salon,Men Hair,Hair colouring,2200,60,,,
khi11,Pengs Hair and Beauty Salon,Men Hair,Shave,500,30,,,
khi11,Pengs Hair and Beauty Salon,Men Hair,Rebonding,15000,90,,,
khi11,Pengs Hair and Beauty Salon,Men Face,Hydradermie lift,6000,60,,,
khi11,Pengs Hair and Beauty Salon,Men Face,Hydra peeling,7000,60,,,
khi11,Pengs Hair and Beauty Salon,Men Face,Aromatic treatment,3500,60,,,
khi11,Pengs Hair and Beauty Salon,Men Face,Microdermabrasion,5000,60,,,
khi11,Pengs Hair and Beauty Salon,Men Face,Protein radiance facial,3000,60,,,
khi11,Pengs Hair and Beauty Salon,Men Body,Back massage,1100,60,,,
khi11,Pengs Hair and Beauty Salon,Men Body,Hot stone body massage with essential oil,3000,60,,,
khi11,Pengs Hair and Beauty Salon,Men Hand and Foot,Guinot manicure,700,30,,,
khi11,Pengs Hair and Beauty Salon,Men Hand and Foot,Guinot pedicure,800,30,,,
khi11,Pengs Hair and Beauty Salon,Men Hand and Foot,Foot massage,500,30,,,
khi11,Pengs Hair and Beauty Salon,Men Waxing,Full face,1500,30,,,
khi11,Pengs Hair and Beauty Salon,Men Waxing,Full arms,1600,30,,,
khi11,Pengs Hair and Beauty Salon,Men Waxing,Back,1000,30,,,
khi11,Pengs Hair and Beauty Salon,Men Waxing,Full body,5500,60,,,
khi11,Pengs Hair and Beauty Salon,Women hair,Haircut and blowdry,2000,60,,,
khi11,Pengs Hair and Beauty Salon,Women hair,Under8 haircut and blowdry,1000,60,,,
khi11,Pengs Hair and Beauty Salon,Women hair,"Shampoo, conditioner and blowdry",1000,30,,,
khi11,Pengs Hair and Beauty Salon,Women hair,"Shampoo, conditioner and tong",1500,60,,,
khi11,Pengs Hair and Beauty Salon,Women facial,Eye treatment,4500,60,,,
khi11,Pengs Hair and Beauty Salon,Women facial,Oxygenating facial,4000,60,,,
khi11,Pengs Hair and Beauty Salon,Women facial,Personalized facial,4000,60,,,
khi11,Pengs Hair and Beauty Salon,Women facial,Aromatic treatment,5000,60,,,
khi11,Pengs Hair and Beauty Salon,Women facial,CACI,7000,60,,,
khi11,Pengs Hair and Beauty Salon,Women facial,Guinot Mask,1500,60,,,
khi11,Pengs Hair and Beauty Salon,Women facial,Brightening Mask,1500,60,,,
khi11,Pengs Hair and Beauty Salon,Women Nails,Manicure,1000,30,,,
khi11,Pengs Hair and Beauty Salon,Women Nails,Pedicure,1200,30,,,
khi11,Pengs Hair and Beauty Salon,Women body,Foot massage,1000,30,,,
khi11,Pengs Hair and Beauty Salon,Women body,"Head, shoulder and back massage",1500,60,,,
khi11,Pengs Hair and Beauty Salon,Women body,Hot stone massage,4000,60,,,
khi11,Pengs Hair and Beauty Salon,Women Waxing,Underarm,500,30,,,
khi11,Pengs Hair and Beauty Salon,Women Waxing,Arms,1000,30,,,
khi11,Pengs Hair and Beauty Salon,Women Waxing,Legs,1200,30,,,
khi11,Pengs Hair and Beauty Salon,Women Waxing,Full body,4000,60,,,
khi11,Pengs Hair and Beauty Salon,Women bleaching,Face polishing,1200,30,,,
khi11,Pengs Hair and Beauty Salon,Women bleaching,Hand polishing with mask,2000,60,,,
khi11,Pengs Hair and Beauty Salon,Women bleaching,Foot polishing,1000,30,,,
khi11,Pengs Hair and Beauty Salon,Women Makeup,Eye Makeup,4000,60,,,
khi11,Pengs Hair and Beauty Salon,Women Makeup,Evening Makeup,6000,60,,,
khi11,Pengs Hair and Beauty Salon,Women Makeup,Bridal Makeup,25000,60,,,
khi12,Pengs Hair and Beauty Salon,Men Hair,Men haircut,1500,60,,,
khi12,Pengs Hair and Beauty Salon,Men Hair,Boy haircut,500,60,,,
khi12,Pengs Hair and Beauty Salon,Men Hair,Hair colouring,2200,60,,,
khi12,Pengs Hair and Beauty Salon,Men Hair,Shave,500,30,,,
khi12,Pengs Hair and Beauty Salon,Men Hair,Rebonding,15000,90,,,
khi12,Pengs Hair and Beauty Salon,Men Face,Hydradermie lift,6000,60,,,
khi12,Pengs Hair and Beauty Salon,Men Face,Hydra peeling,7000,60,,,
khi12,Pengs Hair and Beauty Salon,Men Face,Aromatic treatment,3500,60,,,
khi12,Pengs Hair and Beauty Salon,Men Face,Microdermabrasion,5000,60,,,
khi12,Pengs Hair and Beauty Salon,Men Face,Protein radiance facial,3000,60,,,
khi12,Pengs Hair and Beauty Salon,Men Body,Back massage,1100,60,,,
khi12,Pengs Hair and Beauty Salon,Men Body,Hot stone body massage with essential oil,3000,60,,,
khi12,Pengs Hair and Beauty Salon,Men Hand and Foot,Guinot manicure,700,30,,,
khi12,Pengs Hair and Beauty Salon,Men Hand and Foot,Guinot pedicure,800,30,,,
khi12,Pengs Hair and Beauty Salon,Men Hand and Foot,Foot massage,500,30,,,
khi12,Pengs Hair and Beauty Salon,Men Waxing,Full face,1500,30,,,
khi12,Pengs Hair and Beauty Salon,Men Waxing,Full arms,1600,30,,,
khi12,Pengs Hair and Beauty Salon,Men Waxing,Back,1000,30,,,
khi12,Pengs Hair and Beauty Salon,Men Waxing,Full body,5500,60,,,
khi12,Pengs Hair and Beauty Salon,Women hair,Haircut and blowdry,2000,60,,,
khi12,Pengs Hair and Beauty Salon,Women hair,Under8 haircut and blowdry,1000,60,,,
khi12,Pengs Hair and Beauty Salon,Women hair,"Shampoo, conditioner and blowdry",1000,30,,,
khi12,Pengs Hair and Beauty Salon,Women hair,"Shampoo, conditioner and tong",1500,60,,,
khi12,Pengs Hair and Beauty Salon,Women facial,Eye treatment,4500,60,,,
khi12,Pengs Hair and Beauty Salon,Women facial,Oxygenating facial,4000,60,,,
khi12,Pengs Hair and Beauty Salon,Women facial,Personalized facial,4000,60,,,
khi12,Pengs Hair and Beauty Salon,Women facial,Aromatic treatment,5000,60,,,
khi12,Pengs Hair and Beauty Salon,Women facial,CACI,7000,60,,,
khi12,Pengs Hair and Beauty Salon,Women facial,Guinot Mask,1500,60,,,
khi12,Pengs Hair and Beauty Salon,Women facial,Brightening Mask,1500,60,,,
khi12,Pengs Hair and Beauty Salon,Women Nails,Manicure,1000,30,,,
khi12,Pengs Hair and Beauty Salon,Women Nails,Pedicure,1200,30,,,
khi12,Pengs Hair and Beauty Salon,Women body,Foot massage,1000,30,,,
khi12,Pengs Hair and Beauty Salon,Women body,"Head, shoulder and back massage",1500,60,,,
khi12,Pengs Hair and Beauty Salon,Women body,Hot stone massage,4000,60,,,
khi12,Pengs Hair and Beauty Salon,Women Waxing,Underarm,500,30,,,
khi12,Pengs Hair and Beauty Salon,Women Waxing,Arms,1000,30,,,
khi12,Pengs Hair and Beauty Salon,Women Waxing,Legs,1200,30,,,
khi12,Pengs Hair and Beauty Salon,Women Waxing,Full body,4000,60,,,
khi12,Pengs Hair and Beauty Salon,Women bleaching,Face polishing,1200,30,,,
khi12,Pengs Hair and Beauty Salon,Women bleaching,Hand polishing with mask,2000,60,,,
khi12,Pengs Hair and Beauty Salon,Women bleaching,Foot polishing,1000,30,,,
khi12,Pengs Hair and Beauty Salon,Women Makeup,Eye Makeup,4000,60,,,
khi12,Pengs Hair and Beauty Salon,Women Makeup,Evening Makeup,6000,60,,,
khi12,Pengs Hair and Beauty Salon,Women Makeup,Bridal Makeup,25000,60,,,
khi13,Aliya Tipu Signature Salon,Nails,Manicure,600,30,,,
khi13,Aliya Tipu Signature Salon,Nails,Pedicure,800,30,,,
khi13,Aliya Tipu Signature Salon,Body,Foot massage,800,30,,,
khi13,Aliya Tipu Signature Salon,Body,"Head, shoulder and back massage",1100,60,,,
khi13,Aliya Tipu Signature Salon,Body,Hot stone massage,2500,60,,,
khi13,Aliya Tipu Signature Salon,Waxing,Underarm,500,30,,,
khi13,Aliya Tipu Signature Salon,Waxing,Arms,700,30,,,
khi13,Aliya Tipu Signature Salon,Waxing,Legs,900,30,,,
khi13,Aliya Tipu Signature Salon,Waxing,Full body,2500,60,,,
khi13,Aliya Tipu Signature Salon,Makeup,Eye Makeup,4000,60,,,
khi13,Aliya Tipu Signature Salon,Makeup,Evening Makeup,6000,60,,,
khi13,Aliya Tipu Signature Salon,Makeup,Bridal Makeup,25000,60,,,
khi14,Mahrose Beauty parlour,Makeup,Simple Party Makeup,4000,60,,,
khi14,Mahrose Beauty parlour,Makeup,Model Party Makeup,6000,60,,,
khi14,Mahrose Beauty parlour,Makeup,Engagement Party makeup,10000,60,,,
khi14,Mahrose Beauty parlour,Makeup,Bridal Makeup,15000,60,,,
khi14,Mahrose Beauty parlour,Makeup,Valima Makeup,15000,60,,,
khi14,Mahrose Beauty parlour,Mehandi,Per side,300,30,,,
khi14,Mahrose Beauty parlour,Mehandi,Feet,1000,60,,,
khi14,Mahrose Beauty parlour,Mehandi,Bridal,5000,60,,,
khi14,Mahrose Beauty parlour,Mehandi,Red and black per side,800,30,,,
khi14,Mahrose Beauty parlour,Hair treatments,Protein treatment,1500,60,,,
khi14,Mahrose Beauty parlour,Hair treatments,Serum treatment,2000,60,,,
khi14,Mahrose Beauty parlour,Hair treatments,Hair extension,1000,60,,,
khi14,Mahrose Beauty parlour,Hair treatments,Colour application,2000,60,,,
khi14,Mahrose Beauty parlour,Massage,Arms,1000,30,,,
khi14,Mahrose Beauty parlour,Massage,Legs,1500,30,,,
khi14,Mahrose Beauty parlour,Massage,Full body,5000,60,,,
khi14,Mahrose Beauty parlour,Nails,Manicure,600,30,,,
khi14,Mahrose Beauty parlour,Nails,Pedicure,600,30,,,
khi14,Mahrose Beauty parlour,Nails,Whitening manicure,1200,60,,,
khi14,Mahrose Beauty parlour,Nails,Whitening pedicure,1200,60,,,
khi14,Mahrose Beauty parlour,Threading,Upperlip,50,30,,,
khi14,Mahrose Beauty parlour,Threading,Chin,200,30,,,
khi14,Mahrose Beauty parlour,Threading,Face sides,200,30,,,
khi14,Mahrose Beauty parlour,Threading,Full face,800,30,,,
khi14,Mahrose Beauty parlour,Waxing,Upper lips,100,30,,,
khi14,Mahrose Beauty parlour,Waxing,Eyebrows,150,30,,,
khi14,Mahrose Beauty parlour,Waxing,Chin,300,30,,,
khi14,Mahrose Beauty parlour,Facial,Aromatic facial,2500,60,,,
khi14,Mahrose Beauty parlour,Facial,Herbal facial,1200,30,,,
khi14,Mahrose Beauty parlour,Facial,3d facial,5000,60,,,
khi14,Mahrose Beauty parlour,Facial,Golden glow,2000,30,,,
khi14,Mahrose Beauty parlour,Facial,Face polishing,1500,30,,,
khi15,Mahrose Beauty parlour,Make-up,Simple Party Makeup,4000,60,,,
khi15,Mahrose Beauty parlour,Make-up,Model Party Makeup,6000,60,,,
khi15,Mahrose Beauty parlour,Make-up,Engagement Party makeup,10000,60,,,
khi15,Mahrose Beauty parlour,Make-up,Bridal Makeup,15000,60,,,
khi15,Mahrose Beauty parlour,Make-up,Valima Makeup,15000,60,,,
khi15,Mahrose Beauty parlour,Mehandi,Per side,300,30,,,
khi15,Mahrose Beauty parlour,Mehandi,Feet,1000,60,,,
khi15,Mahrose Beauty parlour,Mehandi,Bridal,5000,60,,,
khi15,Mahrose Beauty parlour,Mehandi,Red and black per side,800,30,,,
khi15,Mahrose Beauty parlour,Hair treatments,Protein treatment,1500,60,,,
khi15,Mahrose Beauty parlour,Hair treatments,Serum treatment,2000,60,,,
khi15,Mahrose Beauty parlour,Hair treatments,Hair extension,1000,60,,,
khi15,Mahrose Beauty parlour,Hair treatments,Colour application,2000,60,,,
khi15,Mahrose Beauty parlour,Massage,Arms,1000,30,,,
khi15,Mahrose Beauty parlour,Massage,Legs,1500,30,,,
khi15,Mahrose Beauty parlour,Massage,Full body,5000,60,,,
khi15,Mahrose Beauty parlour,Nails,Manicure,600,30,,,
khi15,Mahrose Beauty parlour,Nails,Pedicure,600,30,,,
khi15,Mahrose Beauty parlour,Nails,Whitening manicure,1200,60,,,
khi15,Mahrose Beauty parlour,Nails,Whitening pedicure,1200,60,,,
khi15,Mahrose Beauty parlour,Threading,Upperlip,50,30,,,
khi15,Mahrose Beauty parlour,Threading,Chin,200,30,,,
khi15,Mahrose Beauty parlour,Threading,Face sides,200,30,,,
khi15,Mahrose Beauty parlour,Threading,Full face,800,30,,,
khi15,Mahrose Beauty parlour,Waxing,Upper lips,100,30,,,
khi15,Mahrose Beauty parlour,Waxing,Eyebrows,150,30,,,
khi15,Mahrose Beauty parlour,Waxing,Chin,300,30,,,
khi15,Mahrose Beauty parlour,Facial,Aromatic facial,2500,60,,,
khi15,Mahrose Beauty parlour,Facial,Herbal facial,1200,30,,,
khi15,Mahrose Beauty parlour,Facial,3d facial,5000,60,,,
khi15,Mahrose Beauty parlour,Facial,Golden glow,2000,30,,,
khi15,Mahrose Beauty parlour,Facial,Face polishing,1500,30,,,
khi16,Mahrose Beauty parlour,Makeup,Simple Party Makeup,4000,60,,,
khi16,Mahrose Beauty parlour,Makeup,Model Party Makeup,6000,60,,,
khi16,Mahrose Beauty parlour,Makeup,Engagement Party makeup,10000,60,,,
khi16,Mahrose Beauty parlour,Makeup,Bridal Makeup,15000,60,,,
khi16,Mahrose Beauty parlour,Makeup,Valima Makeup,15000,60,,,
khi16,Mahrose Beauty parlour,Mehandi,Per side,300,30,,,
khi16,Mahrose Beauty parlour,Mehandi,Feet,1000,60,,,
khi16,Mahrose Beauty parlour,Mehandi,Bridal,5000,60,,,
khi16,Mahrose Beauty parlour,Mehandi,Red and black per side,800,30,,,
khi16,Mahrose Beauty parlour,Hair treatments,Protein treatment,1500,60,,,
khi16,Mahrose Beauty parlour,Hair treatments,Serum treatment,2000,60,,,
khi16,Mahrose Beauty parlour,Hair treatments,Hair extension,1000,60,,,
khi16,Mahrose Beauty parlour,Hair treatments,Colour application,2000,60,,,
khi16,Mahrose Beauty parlour,Massage,Arms,1000,30,,,
khi16,Mahrose Beauty parlour,Massage,Legs,1500,30,,,
khi16,Mahrose Beauty parlour,Massage,Full body,5000,60,,,
khi16,Mahrose Beauty parlour,Nails,Manicure,600,30,,,
khi16,Mahrose Beauty parlour,Nails,Pedicure,600,30,,,
khi16,Mahrose Beauty parlour,Nails,Whitening manicure,1200,60,,,
khi16,Mahrose Beauty parlour,Nails,Whitening pedicure,1200,60,,,
khi16,Mahrose Beauty parlour,Threading,Upperlip,50,30,,,
khi16,Mahrose Beauty parlour,Threading,Chin,200,30,,,
khi16,Mahrose Beauty parlour,Threading,Face sides,200,30,,,
khi16,Mahrose Beauty parlour,Threading,Full face,800,30,,,
khi16,Mahrose Beauty parlour,Waxing,Upper lips,100,30,,,
khi16,Mahrose Beauty parlour,Waxing,Eyebrows,150,30,,,
khi16,Mahrose Beauty parlour,Waxing,Chin,300,30,,,
khi16,Mahrose Beauty parlour,Facial,Aromatic facial,2500,60,,,
khi16,Mahrose Beauty parlour,Facial,Herbal facial,1200,30,,,
khi16,Mahrose Beauty parlour,Facial,3d facial,5000,60,,,
khi16,Mahrose Beauty parlour,Facial,Golden glow,2000,30,,,
khi16,Mahrose Beauty parlour,Facial,Face polishing,1500,30,,,
khi17,Mahrose Beauty parlour,Make-up,Simple Party Makeup,4000,60,,,
khi17,Mahrose Beauty parlour,Make-up,Model Party Makeup,6000,60,,,
khi17,Mahrose Beauty parlour,Make-up,Engagement Party makeup,10000,60,,,
khi17,Mahrose Beauty parlour,Make-up,Bridal Makeup,15000,60,,,
khi17,Mahrose Beauty parlour,Make-up,Valima Makeup,15000,60,,,
khi17,Mahrose Beauty parlour,Mehandi,Per side,300,30,,,
khi17,Mahrose Beauty parlour,Mehandi,Feet,1000,60,,,
khi17,Mahrose Beauty parlour,Mehandi,Bridal,5000,60,,,
khi17,Mahrose Beauty parlour,Mehandi,Red and black per side,800,30,,,
khi17,Mahrose Beauty parlour,Hair treatments,Protein treatment,1500,60,,,
khi17,Mahrose Beauty parlour,Hair treatments,Serum treatment,2000,60,,,
khi17,Mahrose Beauty parlour,Hair treatments,Hair extension,1000,60,,,
khi17,Mahrose Beauty parlour,Hair treatments,Colour application,2000,60,,,
khi17,Mahrose Beauty parlour,Massage,Arms,1000,30,,,
khi17,Mahrose Beauty parlour,Massage,Legs,1500,30,,,
khi17,Mahrose Beauty parlour,Massage,Full body,5000,60,,,
khi17,Mahrose Beauty parlour,Nails,Manicure,600,30,,,
khi17,Mahrose Beauty parlour,Nails,Pedicure,600,30,,,
khi17,Mahrose Beauty parlour,Nails,Whitening manicure,1200,60,,,
khi17,Mahrose Beauty parlour,Nails,Whitening pedicure,1200,60,,,
khi17,Mahrose Beauty parlour,Threading,Upperlip,50,30,,,
khi17,Mahrose Beauty parlour,Threading,Chin,200,30,,,
khi17,Mahrose Beauty parlour,Threading,Face sides,200,30,,,
khi17,Mahrose Beauty parlour,Threading,Full face,800,30,,,
khi17,Mahrose Beauty parlour,Waxing,Upper lips,100,30,,,
khi17,Mahrose Beauty parlour,Waxing,Eyebrows,150,30,,,
khi17,Mahrose Beauty parlour,Waxing,Chin,300,30,,,
khi17,Mahrose Beauty parlour,Facial,Aromatic facial,2500,60,,,
khi17,Mahrose Beauty parlour,Facial,Herbal facial,1200,30,,,
khi17,Mahrose Beauty parlour,Facial,3d facial,5000,60,,,
khi17,Mahrose Beauty parlour,Facial,Golden glow,2000,30,,,
khi17,Mahrose Beauty parlour,Facial,Face polishing,1500,30,,,
khi18,Mahrose Beauty parlour,Make-up,Simple Party Makeup,4000,60,,,
khi18,Mahrose Beauty parlour,Make-up,Model Party Makeup,6000,60,,,
khi18,Mahrose Beauty parlour,Make-up,Engagement Party makeup,10000,60,,,
khi18,Mahrose Beauty parlour,Make-up,Bridal Makeup,15000,60,,,
khi18,Mahrose Beauty parlour,Make-up,Valima Makeup,15000,60,,,
khi18,Mahrose Beauty parlour,Mehandi,Per side,300,30,,,
khi18,Mahrose Beauty parlour,Mehandi,Feet,1000,60,,,
khi18,Mahrose Beauty parlour,Mehandi,Bridal,5000,60,,,
khi18,Mahrose Beauty parlour,Mehandi,Red and black per side,800,30,,,
khi18,Mahrose Beauty parlour,Hair treatments,Protein treatment,1500,60,,,
khi18,Mahrose Beauty parlour,Hair treatments,Serum treatment,2000,60,,,
khi18,Mahrose Beauty parlour,Hair treatments,Hair extension,1000,60,,,
khi18,Mahrose Beauty parlour,Hair treatments,Colour application,2000,60,,,
khi18,Mahrose Beauty parlour,Massage,Arms,1000,30,,,
khi18,Mahrose Beauty parlour,Massage,Legs,1500,30,,,
khi18,Mahrose Beauty parlour,Massage,Full body,5000,60,,,
khi18,Mahrose Beauty parlour,Nails,Manicure,600,30,,,
khi18,Mahrose Beauty parlour,Nails,Pedicure,600,30,,,
khi18,Mahrose Beauty parlour,Nails,Whitening manicure,1200,60,,,
khi18,Mahrose Beauty parlour,Nails,Whitening pedicure,1200,60,,,
khi18,Mahrose Beauty parlour,Threading,Upperlip,50,30,,,
khi18,Mahrose Beauty parlour,Threading,Chin,200,30,,,
khi18,Mahrose Beauty parlour,Threading,Face sides,200,30,,,
khi18,Mahrose Beauty parlour,Threading,Full face,800,30,,,
khi18,Mahrose Beauty parlour,Waxing,Upper lips,100,30,,,
khi18,Mahrose Beauty parlour,Waxing,Eyebrows,150,30,,,
khi18,Mahrose Beauty parlour,Waxing,Chin,300,30,,,
khi18,Mahrose Beauty parlour,Facial,Aromatic facial,2500,60,,,
khi18,Mahrose Beauty parlour,Facial,Herbal facial,1200,30,,,
khi18,Mahrose Beauty parlour,Facial,3d facial,5000,60,,,
khi18,Mahrose Beauty parlour,Facial,Golden glow,2000,30,,,
khi18,Mahrose Beauty parlour,Facial,Face polishing,1500,30,,,
khi19,Mahrose Beauty parlour,Make-up,Simple Party Makeup,4000,60,,,
khi19,Mahrose Beauty parlour,Make-up,Model Party Makeup,6000,60,,,
khi19,Mahrose Beauty parlour,Make-up,Engagement Party makeup,10000,60,,,
khi19,Mahrose Beauty parlour,Make-up,Bridal Makeup,15000,60,,,
khi19,Mahrose Beauty parlour,Make-up,Valima Makeup,15000,60,,,
khi19,Mahrose Beauty parlour,Mehandi,Per side,300,30,,,
khi19,Mahrose Beauty parlour,Mehandi,Feet,1000,60,,,
khi19,Mahrose Beauty parlour,Mehandi,Bridal,5000,60,,,
khi19,Mahrose Beauty parlour,Mehandi,Red and black per side,800,30,,,
khi19,Mahrose Beauty parlour,Hair treatments,Protein treatment,1500,60,,,
khi19,Mahrose Beauty parlour,Hair treatments,Serum treatment,2000,60,,,
khi19,Mahrose Beauty parlour,Hair treatments,Hair extension,1000,60,,,
khi19,Mahrose Beauty parlour,Hair treatments,Colour application,2000,60,,,
khi19,Mahrose Beauty parlour,Massage,Arms,1000,30,,,
khi19,Mahrose Beauty parlour,Massage,Legs,1500,30,,,
khi19,Mahrose Beauty parlour,Massage,Full body,5000,60,,,
khi19,Mahrose Beauty parlour,Nails,Manicure,600,30,,,
khi19,Mahrose Beauty parlour,Nails,Pedicure,600,30,,,
khi19,Mahrose Beauty parlour,Nails,Whitening manicure,1200,60,,,
khi19,Mahrose Beauty parlour,Nails,Whitening pedicure,1200,60,,,
khi19,Mahrose Beauty parlour,Threading,Upperlip,50,30,,,
khi19,Mahrose Beauty parlour,Threading,Chin,200,30,,,
khi19,Mahrose Beauty parlour,Threading,Face sides,200,30,,,
khi19,Mahrose Beauty parlour,Threading,Full face,800,30,,,
khi19,Mahrose Beauty parlour,Waxing,Upper lips,100,30,,,
khi19,Mahrose Beauty parlour,Waxing,Eyebrows,150,30,,,
khi19,Mahrose Beauty parlour,Waxing,Chin,300,30,,,
khi19,Mahrose Beauty parlour,Facial,Aromatic facial,2500,60,,,
khi19,Mahrose Beauty parlour,Facial,Herbal facial,1200,30,,,
khi19,Mahrose Beauty parlour,Facial,3d facial,5000,60,,,
khi19,Mahrose Beauty parlour,Facial,Golden glow,2000,30,,,
khi19,Mahrose Beauty parlour,Facial,Face polishing,1500,30,,,
khi20,Mahrose Beauty parlour,Makeup,Simple Party Makeup,4000,60,,,
khi20,Mahrose Beauty parlour,Makeup,Model Party Makeup,6000,60,,,
khi20,Mahrose Beauty parlour,Makeup,Engagement Party makeup,10000,60,,,
khi20,Mahrose Beauty parlour,Makeup,Bridal Makeup,15000,60,,,
khi20,Mahrose Beauty parlour,Makeup,Valima Makeup,15000,60,,,
khi20,Mahrose Beauty parlour,Mehandi,Per side,300,30,,,
khi20,Mahrose Beauty parlour,Mehandi,Feet,1000,60,,,
khi20,Mahrose Beauty parlour,Mehandi,Bridal,5000,60,,,
khi20,Mahrose Beauty parlour,Mehandi,Red and black per side,800,30,,,
khi20,Mahrose Beauty parlour,Hair treatments,Protein treatment,1500,60,,,
khi20,Mahrose Beauty parlour,Hair treatments,Serum treatment,2000,60,,,
khi20,Mahrose Beauty parlour,Hair treatments,Hair extension,1000,60,,,
khi20,Mahrose Beauty parlour,Hair treatments,Colour application,2000,60,,,
khi20,Mahrose Beauty parlour,Massage,Arms,1000,30,,,
khi20,Mahrose Beauty parlour,Massage,Legs,1500,30,,,
khi20,Mahrose Beauty parlour,Massage,Full body,5000,60,,,
khi20,Mahrose Beauty parlour,Nails,Manicure,600,30,,,
khi20,Mahrose Beauty parlour,Nails,Pedicure,600,30,,,
khi20,Mahrose Beauty parlour,Nails,Whitening manicure,1200,60,,,
khi20,Mahrose Beauty parlour,Nails,Whitening pedicure,1200,60,,,
khi20,Mahrose Beauty parlour,Threading,Upperlip,50,30,,,
khi20,Mahrose Beauty parlour,Threading,Chin,200,30,,,
khi20,Mahrose Beauty parlour,Threading,Face sides,200,30,,,
khi20,Mahrose Beauty parlour,Threading,Full face,800,30,,,
khi20,Mahrose Beauty parlour,Waxing,Upper lips,100,30,,,
khi20,Mahrose Beauty parlour,Waxing,Eyebrows,150,30,,,
khi20,Mahrose Beauty parlour,Waxing,Chin,300,30,,,
khi20,Mahrose Beauty parlour,Facial,Aromatic facial,2500,60,,,
khi20,Mahrose Beauty parlour,Facial,Herbal facial,1200,30,,,
khi20,Mahrose Beauty parlour,Facial,3d facial,5000,60,,,
khi20,Mahrose Beauty parlour,Facial,Golden glow,2000,30,,,
khi20,Mahrose Beauty parlour,Facial,Face polishing,1500,30,,,
khi21,Mahrose Beauty parlour,Makeup,Simple Party Makeup,4000,60,,,
khi21,Mahrose Beauty parlour,Makeup,Model Party Makeup,6000,60,,,
khi21,Mahrose Beauty parlour,Makeup,Engagement Party makeup,10000,60,,,
khi21,Mahrose Beauty parlour,Makeup,Bridal Makeup,15000,60,,,
khi21,Mahrose Beauty parlour,Make-up,Valima Makeup,15000,60,,,
khi21,Mahrose Beauty parlour,Mehandi,Per side,300,30,,,
khi21,Mahrose Beauty parlour,Mehandi,Feet,1000,60,,,
khi21,Mahrose Beauty parlour,Mehandi,Bridal,5000,60,,,
khi21,Mahrose Beauty parlour,Mehandi,Red and black per side,800,30,,,
khi21,Mahrose Beauty parlour,Hair treatments,Protein treatment,1500,60,,,
khi21,Mahrose Beauty parlour,Hair treatments,Serum treatment,2000,60,,,
khi21,Mahrose Beauty parlour,Hair treatments,Hair extension,1000,60,,,
khi21,Mahrose Beauty parlour,Hair treatments,Colour application,2000,60,,,
khi21,Mahrose Beauty parlour,Massage,Arms,1000,30,,,
khi21,Mahrose Beauty parlour,Massage,Legs,1500,30,,,
khi21,Mahrose Beauty parlour,Massage,Full body,5000,60,,,
khi21,Mahrose Beauty parlour,Nails,Manicure,600,30,,,
khi21,Mahrose Beauty parlour,Nails,Pedicure,600,30,,,
khi21,Mahrose Beauty parlour,Nails,Whitening manicure,1200,60,,,
khi21,Mahrose Beauty parlour,Nails,Whitening pedicure,1200,60,,,
khi21,Mahrose Beauty parlour,Threading,Upperlip,50,30,,,
khi21,Mahrose Beauty parlour,Threading,Chin,200,30,,,
khi21,Mahrose Beauty parlour,Threading,Face sides,200,30,,,
khi21,Mahrose Beauty parlour,Threading,Full face,800,30,,,
khi21,Mahrose Beauty parlour,Waxing,Upper lips,100,30,,,
khi21,Mahrose Beauty parlour,Waxing,Eyebrows,150,30,,,
khi21,Mahrose Beauty parlour,Waxing,Chin,300,30,,,
khi21,Mahrose Beauty parlour,Facial,Aromatic facial,2500,60,,,
khi21,Mahrose Beauty parlour,Facial,Herbal facial,1200,30,,,
khi21,Mahrose Beauty parlour,Facial,3d facial,5000,60,,,
khi21,Mahrose Beauty parlour,Facial,Golden glow,2000,30,,,
khi21,Mahrose Beauty parlour,Facial,Face polishing,1500,30,,,
khi22,Mahrose Beauty parlour,Makeup,Simple Party Makeup,4000,60,,,
khi22,Mahrose Beauty parlour,Makeup,Model Party Makeup,6000,60,,,
khi22,Mahrose Beauty parlour,Makeup,Engagement Party makeup,10000,60,,,
khi22,Mahrose Beauty parlour,Makeup,Bridal Makeup,15000,60,,,
khi22,Mahrose Beauty parlour,Makeup,Valima Makeup,15000,60,,,
khi22,Mahrose Beauty parlour,Mehandi,Per side,300,30,,,
khi22,Mahrose Beauty parlour,Mehandi,Feet,1000,60,,,
khi22,Mahrose Beauty parlour,Mehandi,Bridal,5000,60,,,
khi22,Mahrose Beauty parlour,Mehandi,Red and black per side,800,30,,,
khi22,Mahrose Beauty parlour,Hair treatments,Protein treatment,1500,60,,,
khi22,Mahrose Beauty parlour,Hair treatments,Serum treatment,2000,60,,,
khi22,Mahrose Beauty parlour,Hair treatments,Hair extension,1000,60,,,
khi22,Mahrose Beauty parlour,Hair treatments,Colour application,2000,60,,,
khi22,Mahrose Beauty parlour,Massage,Arms,1000,30,,,
khi22,Mahrose Beauty parlour,Massage,Legs,1500,30,,,
khi22,Mahrose Beauty parlour,Massage,Full body,5000,60,,,
khi22,Mahrose Beauty parlour,Nails,Manicure,600,30,,,
khi22,Mahrose Beauty parlour,Nails,Pedicure,600,30,,,
khi22,Mahrose Beauty parlour,Nails,Whitening manicure,1200,60,,,
khi22,Mahrose Beauty parlour,Nails,Whitening pedicure,1200,60,,,
khi22,Mahrose Beauty parlour,Threading,Upperlip,50,30,,,
khi22,Mahrose Beauty parlour,Threading,Chin,200,30,,,
khi22,Mahrose Beauty parlour,Threading,Face sides,200,30,,,
khi22,Mahrose Beauty parlour,Threading,Full face,800,30,,,
khi22,Mahrose Beauty parlour,Waxing,Upper lips,100,30,,,
khi22,Mahrose Beauty parlour,Waxing,Eyebrows,150,30,,,
khi22,Mahrose Beauty parlour,Waxing,Chin,300,30,,,
khi22,Mahrose Beauty parlour,Facial,Aromatic facial,2500,60,,,
khi22,Mahrose Beauty parlour,Facial,Herbal facial,1200,30,,,
khi22,Mahrose Beauty parlour,Facial,3d facial,5000,60,,,
khi22,Mahrose Beauty parlour,Facial,Golden glow,2000,30,,,
khi22,Mahrose Beauty parlour,Facial,Face polishing,1500,30,,,
khi23,Mahrose Beauty parlour,Makeup,Simple Party Makeup,4000,60,,,
khi23,Mahrose Beauty parlour,Makeup,Model Party Makeup,6000,60,,,
khi23,Mahrose Beauty parlour,Makeup,Engagement Party makeup,10000,60,,,
khi23,Mahrose Beauty parlour,Makeup,Bridal Makeup,15000,60,,,
khi23,Mahrose Beauty parlour,Makeup,Valima Makeup,15000,60,,,
khi23,Mahrose Beauty parlour,Mehandi,Per side,300,30,,,
khi23,Mahrose Beauty parlour,Mehandi,Feet,1000,60,,,
khi23,Mahrose Beauty parlour,Mehandi,Bridal,5000,60,,,
khi23,Mahrose Beauty parlour,Mehandi,Red and black per side,800,30,,,
khi23,Mahrose Beauty parlour,Hair treatments,Protein treatment,1500,60,,,
khi23,Mahrose Beauty parlour,Hair treatments,Serum treatment,2000,60,,,
khi23,Mahrose Beauty parlour,Hair treatments,Hair extension,1000,60,,,
khi23,Mahrose Beauty parlour,Hair treatments,Colour application,2000,60,,,
khi23,Mahrose Beauty parlour,Massage,Arms,1000,30,,,
khi23,Mahrose Beauty parlour,Massage,Legs,1500,30,,,
khi23,Mahrose Beauty parlour,Massage,Full body,5000,60,,,
khi23,Mahrose Beauty parlour,Nails,Manicure,600,30,,,
khi23,Mahrose Beauty parlour,Nails,Pedicure,600,30,,,
khi23,Mahrose Beauty parlour,Nails,Whitening manicure,1200,60,,,
khi23,Mahrose Beauty parlour,Nails,Whitening pedicure,1200,60,,,
khi23,Mahrose Beauty parlour,Threading,Upperlip,50,30,,,
khi23,Mahrose Beauty parlour,Threading,Chin,200,30,,,
khi23,Mahrose Beauty parlour,Threading,Face sides,200,30,,,
khi23,Mahrose Beauty parlour,Threading,Full face,800,30,,,
khi23,Mahrose Beauty parlour,Waxing,Upper lips,100,30,,,
khi23,Mahrose Beauty parlour,Waxing,Eyebrows,150,30,,,
khi23,Mahrose Beauty parlour,Waxing,Chin,300,30,,,
khi23,Mahrose Beauty parlour,Facial,Aromatic facial,2500,60,,,
khi23,Mahrose Beauty parlour,Facial,Herbal facial,1200,30,,,
khi23,Mahrose Beauty parlour,Facial,3d facial,5000,60,,,
khi23,Mahrose Beauty parlour,Facial,Golden glow,2000,30,,,
khi23,Mahrose Beauty parlour,Facial,Face polishing,1500,30,,,
khi24,Sephorah Salon,Makeup,Bridal Makeup,30000,90,,,
khi24,Sephorah Salon,Makeup,Evening makeup,10000,60,,,
khi24,Sephorah Salon,Makeup,Eye makeup,4000,60,,,
khi24,Sephorah Salon,Makeup,Engegement makeup,15000,60,,,
khi24,Sephorah Salon,Makeup,Nikah makeup,15000,60,,,
khi24,Sephorah Salon,Skin care,Face gloss,1000,30,,,
khi24,Sephorah Salon,Skin care,Guinot face gloss,2000,30,,,
khi24,Sephorah Salon,Skin care,Full body polish,4000,60,,,
khi24,Sephorah Salon,Skin care,Arms polish,800,30,,,
khi24,Sephorah Salon,Skin care,Legs polish,1200,30,,,
khi24,Sephorah Salon,Facial,Janssen white,4000,60,,,
khi24,Sephorah Salon,Facial,Thalgo cleansing,2500,60,,,
khi24,Sephorah Salon,Facial,Hydrating treatment,5500,60,,,
khi24,Sephorah Salon,Threading,Full face,800,30,,,
khi24,Sephorah Salon,Threading,Side burns,200,30,,,
khi24,Sephorah Salon,Threading,Forehead,250,30,,,
khi24,Sephorah Salon,Threading,Eyebrows,200,30,,,
khi24,Sephorah Salon,Massage,Full body,4000,90,,,
khi24,Sephorah Salon,Massage,Head and shoulders,1000,60,,,
khi24,Sephorah Salon,Massage,Arms and hands,1000,60,,,
khi24,Sephorah Salon,Massage,Full back,1000,60,,,
khi24,Sephorah Salon,Waxing,Ful face,1000,60,,,
khi24,Sephorah Salon,Waxing,Chin,200,30,,,
khi24,Sephorah Salon,Waxing,Nose,100,30,,,
khi24,Sephorah Salon,Waxing,Eyebrows,250,30,,,
khi24,Sephorah Salon,Nails,Manicure,1200,60,,,
khi24,Sephorah Salon,Nails,Paraffin manicure,1500,60,,,
khi24,Sephorah Salon,Nails,Pedicure,2000,60,,,
khi24,Sephorah Salon,Nails,Paraffin pedicure,2500,60,,,
khi24,Sephorah Salon,Men facial,Wet shave,500,30,,,
khi24,Sephorah Salon,Men facial,Trimming,300,30,,,
khi24,Sephorah Salon,Men facial,Facial,5000,60,,,
khi24,Sephorah Salon,Men facial,Deep cleansing,2500,60,,,
khi24,Sephorah Salon,Men mssage,Full body,4000,60,,,
khi24,Sephorah Salon,Men mssage,Head and shoulders,1000,30,,,
khi24,Sephorah Salon,Men mssage,Arms and hands,1000,30,,,
khi24,Sephorah Salon,Men hair,Haircut,1000,60,,,
khi24,Sephorah Salon,Men hair,Colour ,4000,60,,,
khi24,Sephorah Salon,Men hair,Colour correction,5000,60,,,
khi24,Sephorah Salon,Men hair,Protein treatment,1200,60,,,
khi24,Sephorah Salon,Men hair,Hairfall treatment,1200,60,,,
khi24,Sephorah Salon,Men hair,Keratin,10000,90,,,
khi25,Neelos Beauty Salon,Cuts and Colour,Haircut,2500,60,,,
khi25,Neelos Beauty Salon,Cuts and Colour,Trimming,1200,60,,,
khi25,Neelos Beauty Salon,Cuts and Colour,Child cut,500,30,,,
khi25,Neelos Beauty Salon,Cuts and Colour,Perming,3500,60,,,
khi25,Neelos Beauty Salon,Cuts and Colour,Hair glossing,2500,60,,,
khi25,Neelos Beauty Salon,Cuts and Colour,Hair bonding,10000,90,,,
khi25,Neelos Beauty Salon,Hair treatment,Hair oil,800,30,,,
khi25,Neelos Beauty Salon,Hair treatment,Dandruff treatment,1000,30,,,
khi25,Neelos Beauty Salon,Hair treatment,Deep conditioning,1000,30,,,
khi25,Neelos Beauty Salon,Hair treatment,Herbal treatment,1000,30,,,
khi25,Neelos Beauty Salon,Hair treatment,Hair fall treatment,1000,30,,,
khi25,Neelos Beauty Salon,Facials,Face cleansing,2000,60,,,
khi25,Neelos Beauty Salon,Facials,Eye treatment,1200,30,,,
khi25,Neelos Beauty Salon,Facials,Personalised protein facial,3000,60,,,
khi25,Neelos Beauty Salon,Facials,Liftsome treatment,4500,60,,,
khi25,Neelos Beauty Salon,Facials,Aromatic facial,3500,60,,,
khi25,Neelos Beauty Salon,Facials,Chrome white,5000,60,,,
khi25,Neelos Beauty Salon,Facials,Age smart,5000,60,,,
khi25,Neelos Beauty Salon,Facials,Hydraulic,6000,60,,,
khi25,Neelos Beauty Salon,Body,Body bleach,3000,60,,,
khi25,Neelos Beauty Salon,Body,Body skin polish,4000,60,,,
khi25,Neelos Beauty Salon,Body,Body massage,1500,30,,,
khi25,Neelos Beauty Salon,Body,Body mask,2000,30,,,
khi25,Neelos Beauty Salon,Body,Bridal massage,2500,30,,,
khi25,Neelos Beauty Salon,Makeup,Eye makeup,3500,60,,,
khi25,Neelos Beauty Salon,Makeup,Evening makeup,6000,60,,,
khi25,Neelos Beauty Salon,Makeup,Engagement Party makeup,12000,60,,,
khi25,Neelos Beauty Salon,Makeup,Nikah makeup,12000,60,,,
khi25,Neelos Beauty Salon,Nails,Gelish manicure,2000,30,,,
khi25,Neelos Beauty Salon,Nails,Mini gelish manicure,1500,30,,,
khi25,Neelos Beauty Salon,Nails,Gelish pedicure,2500,60,,,
khi25,Neelos Beauty Salon,Nails,Mini pedicure,2000,30,,,
khi25,Neelos Beauty Salon,Nails,Regular pedicure,1000,30,,,
khi25,Neelos Beauty Salon,Nails,French pedicure,1200,30,,,
khi25,Neelos Beauty Salon,Threading and Waxing,Skin polish,1000,30,,,
khi25,Neelos Beauty Salon,Threading and Waxing,Herbal bleach,800,30,,,
khi25,Neelos Beauty Salon,Threading and Waxing,Bikini wax,600,30,,,
khi25,Neelos Beauty Salon,Threading and Waxing,Back and stomach,600,30,,,
khi25,Neelos Beauty Salon,Threading and Waxing,Full face threading,400,30,,,
khi25,Neelos Beauty Salon,Threading and Waxing,Body cleach,3000,60,,,
khi25,Neelos Beauty Salon,Threading and Waxing,Arms bleach,1000,30,,,
khi25,Neelos Beauty Salon,Threading and Waxing,Eyebrow threading,100,30,,,
khi25,Neelos Beauty Salon,Threading and Waxing,Upperlip threading,50,15,,,
khi26,Deluxe Beauty Parlour,Women hair,Haircut and blowdry,1000,60,,,
khi26,Deluxe Beauty Parlour,Women hair,Under8 haircut and blowdry,500,60,,,
khi26,Deluxe Beauty Parlour,Women hair,"Shampoo, conditioner and blowdry",600,30,,,
khi26,Deluxe Beauty Parlour,Women hair,"Shampoo, conditioner and tong",500,60,,,
khi26,Deluxe Beauty Parlour,Women facial,Eye treatment,1500,60,,,
khi26,Deluxe Beauty Parlour,Women facial,Oxygenating facial,3000,60,,,
khi26,Deluxe Beauty Parlour,Women facial,Personalized facial,4000,60,,,
khi26,Deluxe Beauty Parlour,Women facial,Aromatic treatment,4000,60,,,
khi26,Deluxe Beauty Parlour,Nails,Mini gelish manicure,500,30,,,
khi26,Deluxe Beauty Parlour,Nails,Gelish pedicure,600,60,,,
khi26,Deluxe Beauty Parlour,Nails,Mini pedicure,700,30,,,
khi26,Deluxe Beauty Parlour,Nails,Regular pedicure,600,30,,,
khi26,Deluxe Beauty Parlour,Nails,French pedicure,600,30,,,
khi26,Deluxe Beauty Parlour,Massage,Full body,2000,90,,,
khi26,Deluxe Beauty Parlour,Massage,Head and shoulders,1000,60,,,
khi26,Deluxe Beauty Parlour,Massage,Arms and hands,800,60,,,
khi26,Deluxe Beauty Parlour,Massage,Full back,1000,60,,,
khi26,Deluxe Beauty Parlour,Waxing,Ful face,500,60,,,
khi26,Deluxe Beauty Parlour,Waxing,Chin,200,30,,,
khi26,Deluxe Beauty Parlour,Waxing,Nose,100,30,,,
khi26,Deluxe Beauty Parlour,Waxing,Eyebrows,250,30,,,
khi27,Humass Signature Salon,Threading and Waxing,Skin polish,1000,30,,,
khi27,Humass Signature Salon,Threading and Waxing,Herbal bleach,800,30,,,
khi27,Humass Signature Salon,Threading and Waxing,Bikini wax,600,30,,,
khi27,Humass Signature Salon,Threading and Waxing,Back and stomach,600,30,,,
khi27,Humass Signature Salon,Threading and Waxing,Full face threading,400,30,,,
khi27,Humass Signature Salon,Threading and Waxing,Body cleach,2000,60,,,
khi27,Humass Signature Salon,Threading and Waxing,Arms bleach,1000,30,,,
khi27,Humass Signature Salon,Threading and Waxing,Eyebrow threading,100,30,,,
khi27,Humass Signature Salon,Threading and Waxing,Upperlip threading,50,15,,,
khi27,Humass Signature Salon,Nails,Mini gelish manicure,500,30,,,
khi27,Humass Signature Salon,Nails,Gelish pedicure,600,60,,,
khi27,Humass Signature Salon,Nails,Mini pedicure,700,30,,,
khi27,Humass Signature Salon,Nails,Regular pedicure,600,30,,,
khi27,Humass Signature Salon,Nails,French pedicure,600,30,,,
khi27,Humass Signature Salon,Massage,Full body,2000,90,,,
khi27,Humass Signature Salon,Massage,Head and shoulders,1000,60,,,
khi27,Humass Signature Salon,Massage,Arms and hands,800,60,,,
khi27,Humass Signature Salon,Massage,Full back,1000,60,,,
khi27,Humass Signature Salon,Makeup,Bridal Makeup,30000,90,,,
khi27,Humass Signature Salon,Makeup,Evening makeup,10000,60,,,
khi27,Humass Signature Salon,Makeup,Eye makeup,4000,60,,,
khi27,Humass Signature Salon,Makeup,Engegement makeup,15000,60,,,
khi27,Humass Signature Salon,Makeup,Nikah makeup,15000,60,,,
khi28,Libras Beauty Salon,Makeup,Bridal Makeup,25000,90,,,
khi28,Libras Beauty Salon,Makeup,Mehandi makeup,6000,60,,,
khi28,Libras Beauty Salon,Makeup,Nikah makeup,4000,30,,,
khi28,Libras Beauty Salon,Makeup,Party makeup,6000,30,,,
khi28,Libras Beauty Salon,Skin Care,Cleansing,250,30,,,
khi28,Libras Beauty Salon,Skin Care,Face polishing,850,60,,,
khi28,Libras Beauty Salon,Skin Care,Threading,500,30,,,
khi28,Libras Beauty Salon,Skin Care,Herbal facial,1000,30,,,
khi28,Libras Beauty Salon,Skin Care,Whitening facial,1500,30,,,
khi28,Libras Beauty Salon,Skin Care,Waxing,300,30,,,
khi28,Libras Beauty Salon,Nails,Manicure,750,30,,,
khi28,Libras Beauty Salon,Nails,Pedicure,750,30,,,
khi29,Bina Beauty Parlour,Threading,Chin,50,30,,,
khi29,Bina Beauty Parlour,Threading,Forehead,30,15,,,
khi29,Bina Beauty Parlour,Threading,Full face,250,30,,,
khi29,Bina Beauty Parlour,Waxing,Full leg,500,60,,,
khi29,Bina Beauty Parlour,Waxing,Full arm,250,30,,,
khi29,Bina Beauty Parlour,Waxing,Full body,1500,60,,,
khi29,Bina Beauty Parlour,Waxing,Full face,250,60,,,
khi29,Bina Beauty Parlour,Facial,Acne facial,800,30,,,
khi29,Bina Beauty Parlour,Facial,Anti tan facial,800,30,,,
khi29,Bina Beauty Parlour,Facial,Diamond facial,1500,60,,,
khi29,Bina Beauty Parlour,Facial,Gold facial,1500,60,,,
khi29,Bina Beauty Parlour,Facial,Anti aging,1200,60,,,
khi29,Bina Beauty Parlour,Facial,Whitening facial,2000,60,,,
khi29,Bina Beauty Parlour,Nails,Mani and pedi glow,400,30,,,
khi29,Bina Beauty Parlour,Nails,Mani and pedi polishing,800,60,,,
khi29,Bina Beauty Parlour,Nails,Normal mani and pedicure,500,30,,,
khi29,Bina Beauty Parlour,Hair,Hair oiling,350,30,,,
khi29,Bina Beauty Parlour,Hair,Hair polishing,800,60,,,
khi29,Bina Beauty Parlour,Hair,Hair cut,1000,60,,,
khi29,Bina Beauty Parlour,Hair,Hair trim,1000,60,,,
khi29,Bina Beauty Parlour,Hair,Colour change,2000,60,,,
khi29,Bina Beauty Parlour,Mehandi,Bridal mehandi,2000,60,,,
khi29,Bina Beauty Parlour,Mehandi,Feet mehandi,300,30,,,
khi29,Bina Beauty Parlour,Mehandi,Party mehandi,200,30,,,
khi30,Depilex Beauty Clinic,Groom,Makeup,30000,60,,,
khi30,Depilex Beauty Clinic,Groom,Model Makeup,40000,60,,,
khi30,Depilex Beauty Clinic,Body therapy,Manicure and pedicure,8000,60,,,
khi30,Depilex Beauty Clinic,Body therapy,Waxing,10000,60,,,
khi30,Depilex Beauty Clinic,Body therapy,Threading and shave,5000,60,,,
khi30,Depilex Beauty Clinic,Hair dressing,Haircut and style,12000,60,,,
khi30,Depilex Beauty Clinic,Hair dressing,Hair treatments,14000,60,,,
khi30,Depilex Beauty Clinic,Hair dressing,Hair colour,8000,60,,,
khi30,Depilex Beauty Clinic,Hair treatment,Hair colouring,15000,60,,,
khi30,Depilex Beauty Clinic,Hair treatment,Hair highlight,20000,60,,,
khi30,Depilex Beauty Clinic,Hair treatment,Hair dressing,15000,60,,,
khi30,Depilex Beauty Clinic,Hair treatment,Wedding hair,20000,60,,,
khi30,Depilex Beauty Clinic,Hair treatment,Hair cuts,17000,60,,,
khi30,Depilex Beauty Clinic,Makeup,Bridal makeup,50000,60,,,
khi30,Depilex Beauty Clinic,Makeup,Casual makeup,45000,60,,,
khi30,Depilex Beauty Clinic,Makeup,Eye makeup,40000,60,,,
khi30,Depilex Beauty Clinic,Makeup,Party makeup,35000,60,,,
khi30,Depilex Beauty Clinic,Facial,Facial,30000,60,,,
khi30,Depilex Beauty Clinic,Massage,Massage,20000,30,,,
khi31,Depilex Beauty Clinic,Groom,Makeup,30000,60,,,
khi31,Depilex Beauty Clinic,Groom,Model Makeup,40000,60,,,
khi31,Depilex Beauty Clinic,Body therapy,Manicure and pedicure,8000,60,,,
khi31,Depilex Beauty Clinic,Body therapy,Waxing,10000,60,,,
khi31,Depilex Beauty Clinic,Body therapy,Threading and shave,5000,60,,,
khi31,Depilex Beauty Clinic,Hair dressing,Haircut and style,12000,60,,,
khi31,Depilex Beauty Clinic,Hair dressing,Hair treatments,14000,60,,,
khi31,Depilex Beauty Clinic,Hair dressing,Hair colour,8000,60,,,
khi31,Depilex Beauty Clinic,Hair treatment,Hair colouring,15000,60,,,
khi31,Depilex Beauty Clinic,Hair treatment,Hair highlight,20000,60,,,
khi31,Depilex Beauty Clinic,Hair treatment,Hair dressing,15000,60,,,
khi31,Depilex Beauty Clinic,Hair treatment,Wedding hair,20000,60,,,
khi31,Depilex Beauty Clinic,Hair treatment,Hair cuts,17000,60,,,
khi31,Depilex Beauty Clinic,Makeup,Bridal makeup,50000,60,,,
khi31,Depilex Beauty Clinic,Makeup,Casual makeup,45000,60,,,
khi31,Depilex Beauty Clinic,Makeup,Eye makeup,40000,60,,,
khi31,Depilex Beauty Clinic,Makeup,Party makeup,35000,60,,,
khi31,Depilex Beauty Clinic,Facial,Facial,30000,60,,,
khi31,Depilex Beauty Clinic,Massage,Massage,20000,30,,,
khi32,Depilex Beauty Clinic,Groom,Makeup,30000,60,,,
khi32,Depilex Beauty Clinic,Groom,Model Makeup,40000,60,,,
khi32,Depilex Beauty Clinic,Body therapy,Manicure and pedicure,8000,60,,,
khi32,Depilex Beauty Clinic,Body therapy,Waxing,10000,60,,,
khi32,Depilex Beauty Clinic,Body therapy,Threading and shave,5000,60,,,
khi32,Depilex Beauty Clinic,Hair dressing,Haircut and style,12000,60,,,
khi32,Depilex Beauty Clinic,Hair dressing,Hair treatments,14000,60,,,
khi32,Depilex Beauty Clinic,Hair dressing,Hair colour,8000,60,,,
khi32,Depilex Beauty Clinic,Hair treatment,Hair colouring,15000,60,,,
khi32,Depilex Beauty Clinic,Hair treatment,Hair highlight,20000,60,,,
khi32,Depilex Beauty Clinic,Hair treatment,Hair dressing,15000,60,,,
khi32,Depilex Beauty Clinic,Hair treatment,Wedding hair,20000,60,,,
khi32,Depilex Beauty Clinic,Hair treatment,Hair cuts,17000,60,,,
khi32,Depilex Beauty Clinic,Makeup,Bridal makeup,50000,60,,,
khi32,Depilex Beauty Clinic,Makeup,Casual makeup,45000,60,,,
khi32,Depilex Beauty Clinic,Makeup,Eye makeup,40000,60,,,
khi32,Depilex Beauty Clinic,Makeup,Party makeup,35000,60,,,
khi32,Depilex Beauty Clinic,Facial,Facial,30000,60,,,
khi32,Depilex Beauty Clinic,Massage,Massage,20000,30,,,
khi33,Depilex Beauty Clinic,Groom,Makeup,30000,60,,,
khi33,Depilex Beauty Clinic,Groom,Model Makeup,40000,60,,,
khi33,Depilex Beauty Clinic,Body therapy,Manicure and pedicure,8000,60,,,
khi33,Depilex Beauty Clinic,Body therapy,Waxing,10000,60,,,
khi33,Depilex Beauty Clinic,Body therapy,Threading and shave,5000,60,,,
khi33,Depilex Beauty Clinic,Hair dressing,Haircut and style,12000,60,,,
khi33,Depilex Beauty Clinic,Hair dressing,Hair treatments,14000,60,,,
khi33,Depilex Beauty Clinic,Hair dressing,Hair colour,8000,60,,,
khi33,Depilex Beauty Clinic,Hair treatment,Hair colouring,15000,60,,,
khi33,Depilex Beauty Clinic,Hair treatment,Hair highlight,20000,60,,,
khi33,Depilex Beauty Clinic,Hair treatment,Hair dressing,15000,60,,,
khi33,Depilex Beauty Clinic,Hair treatment,Wedding hair,20000,60,,,
khi33,Depilex Beauty Clinic,Hair treatment,Hair cuts,17000,60,,,
khi33,Depilex Beauty Clinic,Makeup,Bridal makeup,50000,60,,,
khi33,Depilex Beauty Clinic,Makeup,Casual makeup,45000,60,,,
khi33,Depilex Beauty Clinic,Makeup,Eye makeup,40000,60,,,
khi33,Depilex Beauty Clinic,Makeup,Party makeup,35000,60,,,
khi33,Depilex Beauty Clinic,Facial,Facial,30000,60,,,
khi33,Depilex Beauty Clinic,Massage,Massage,20000,30,,,
khi34,Depilex Beauty Clinic,Groom,Makeup,30000,60,,,
khi34,Depilex Beauty Clinic,Groom,Model Makeup,40000,60,,,
khi34,Depilex Beauty Clinic,Body therapy,Manicure and pedicure,8000,60,,,
khi34,Depilex Beauty Clinic,Body therapy,Waxing,10000,60,,,
khi34,Depilex Beauty Clinic,Body therapy,Threading and shave,5000,60,,,
khi34,Depilex Beauty Clinic,Hair dressing,Haircut and style,12000,60,,,
khi34,Depilex Beauty Clinic,Hair dressing,Hair treatments,14000,60,,,
khi34,Depilex Beauty Clinic,Hair dressing,Hair colour,8000,60,,,
khi34,Depilex Beauty Clinic,Hair treatment,Hair colouring,15000,60,,,
khi34,Depilex Beauty Clinic,Hair treatment,Hair highlight,20000,60,,,
khi34,Depilex Beauty Clinic,Hair treatment,Hair dressing,15000,60,,,
khi34,Depilex Beauty Clinic,Hair treatment,Wedding hair,20000,60,,,
khi34,Depilex Beauty Clinic,Hair treatment,Hair cuts,17000,60,,,
khi34,Depilex Beauty Clinic,Makeup,Bridal makeup,50000,60,,,
khi34,Depilex Beauty Clinic,Makeup,Casual makeup,45000,60,,,
khi34,Depilex Beauty Clinic,Makeup,Eye makeup,40000,60,,,
khi34,Depilex Beauty Clinic,Makeup,Party makeup,35000,60,,,
khi34,Depilex Beauty Clinic,Facial,Facial,30000,60,,,
khi34,Depilex Beauty Clinic,Massage,Massage,20000,30,,,
