mlt1,Cosmos Bridal Salon,Makeup,Bridal Makeup,20000,90,0,0,0
mlt1,Cosmos Bridal Salon,Makeup,Party Makeup,15000,90,,,
mlt1,Cosmos Bridal Salon,Makeup,Model Makeup,12000,90,,,
mlt1,Cosmos Bridal Salon,Waxing,Waxing,1000,60,,,
mlt1,Cosmos Bridal Salon,Threading,Threading,1000,60,,,
mlt1,Cosmos Bridal Salon,Hair,Haircut,2000,60,,,
mlt1,Cosmos Bridal Salon,Nails,Manicure,500,30,,,
mlt1,Cosmos Bridal Salon,Nails,Pedicure,700,30,,,
mlt1,Cosmos Bridal Salon,Facial,Herbal Facial,2000,90,,,
mlt2,Allenora Annie Signature Salon,Facial,Special facial,3500,60,,,
mlt2,Allenora Annie Signature Salon,Hair,Haircut and style,2000,60,,,
mlt2,Allenora Annie Signature Salon,Hair,Rebonding,1000,60,,,
mlt2,Allenora Annie Signature Salon,Hair,Colouring,1000,60,,,
mlt2,Allenora Annie Signature Salon,Hair,Hair treatments,1500,60,,,
mlt2,Allenora Annie Signature Salon,Nails,Manicure ,1200,30,,,
mlt2,Allenora Annie Signature Salon,Nails,Pedicure,1200,30,,,
mlt2,Allenora Annie Signature Salon,Mehandi,Per side,400,30,,,
mlt2,Allenora Annie Signature Salon,Threading,Threading,400,30,,,
mlt2,Allenora Annie Signature Salon,Waxing,Waxing,500,30,,,
mlt2,Allenora Annie Signature Salon,Massage,Massage,500,30,,,
mlt2,Allenora Annie Signature Salon,Makeup,Bridal Makeup,10000,90,,,
mlt3,Depilex,Groom,Makeup,15000,60,,,
mlt3,Depilex,Groom,Model Makeup,12000,60,,,
mlt3,Depilex,Body therapy,Manicure and pedicure,4000,60,,,
mlt3,Depilex,Body therapy,Waxing,5000,60,,,
mlt3,Depilex,Body therapy,Threading and shave,2500,60,,,
mlt3,Depilex,Hair dressing,Haircut and style,5000,60,,,
mlt3,Depilex,Hair dressing,Hair treatments,5000,60,,,
mlt3,Depilex,Hair dressing,Hair colour,3000,60,,,
mlt3,Depilex,Hair treatment,Hair highlight,2000,60,,,
mlt3,Depilex,Hair treatment,Hair dressing,5000,60,,,
mlt3,Depilex,Hair treatment,Wedding hair,15000,60,,,
mlt3,Depilex,Make-up,Bridal makeup,30000,90,,,
mlt3,Depilex,Make-up,Casual makeup,20000,60,,,
mlt3,Depilex,Make-up,Eye makeup,15000,90,,,
mlt3,Depilex,Make-up,Party makeup,12000,90,,,
mlt3,Depilex,Facial,Facial,6000,60,,,
mlt3,Depilex,Massage,Massage,3000,30,,,
mlt4,Mirrors Salon,Hair,Hair coloring,3000,60,,,
mlt4,Mirrors Salon,Hair,Hair perming,3000,60,,,
mlt4,Mirrors Salon,Hair,Ladies haircut,2000,60,,,
mlt4,Mirrors Salon,Hair,Wedding hair,5000,60,,,
mlt4,Mirrors Salon,Makeup,Signature Makeup,7000,90,,,
mlt4,Mirrors Salon,Makeup,Bridal Makeup,15000,90,,,
mlt4,Mirrors Salon,Makeup,Engagement Makeup,7000,60,,,
mlt4,Mirrors Salon,Face,Acne treatment,3000,60,,,
mlt4,Mirrors Salon,Face,Herbal Massage,4000,60,,,
mlt4,Mirrors Salon,Face,Skin whitening,3000,60,,,
mlt4,Mirrors Salon,Face,Collagen facial,6000,60,,,
mlt4,Mirrors Salon,Face,Eyebrow threading,500,60,,,
mlt4,Mirrors Salon,Face,Eyebrow waxing,500,60,,,
mlt5,Style by Rimi,Face,Acne treatment,1500,60,,,
mlt5,Style by Rimi,Face,Herbal Massage,2000,60,,,
mlt5,Style by Rimi,Face,Skin whitening,2000,60,,,
mlt5,Style by Rimi,Face,Collagen facial,4000,60,,,
mlt5,Style by Rimi,Face,Eyebrow threading,500,60,,,
mlt5,Style by Rimi,Face,Eyebrow waxing,500,60,,,
mlt5,Style by Rimi,Hair,Hair coloring,1500,60,,,
mlt5,Style by Rimi,Hair,Hair perming,1500,60,,,
mlt5,Style by Rimi,Hair,Ladies haircut,1500,60,,,
mlt5,Style by Rimi,Hair,Wedding hair,4000,60,,,
mlt5,Style by Rimi,Nails,Gelish,500,60,,,
mlt5,Style by Rimi,Nails,Nail art,700,60,,,
mlt5,Style by Rimi,Nails,Manicure,500,30,,,
mlt5,Style by Rimi,Nails,Pedicure,800,30,,,
mlt6,Glimmers Beauty Salon,Hair,Hair coloring,2000,60,,,
mlt6,Glimmers Beauty Salon,Hair,Hair perming,1500,60,,,
mlt6,Glimmers Beauty Salon,Hair,Ladies haircut,1500,60,,,
mlt6,Glimmers Beauty Salon,Hair,Wedding hair,5000,60,,,
mlt6,Glimmers Beauty Salon,Makeup,Signature Makeup,7000,90,,,
mlt6,Glimmers Beauty Salon,Makeup,Bridal Makeup,15000,90,,,
mlt6,Glimmers Beauty Salon,Makeup,Engagement Makeup,7000,60,,,
mlt6,Glimmers Beauty Salon,Face,Acne treatment,2000,60,,,
mlt6,Glimmers Beauty Salon,Face,Herbal Massage,2000,60,,,
mlt6,Glimmers Beauty Salon,Face,Skin whitening,2000,60,,,
mlt6,Glimmers Beauty Salon,Face,Collagen facial,3000,60,,,
mlt6,Glimmers Beauty Salon,Face,Eyebrow threading,500,60,,,
mlt6,Glimmers Beauty Salon,Face,Eyebrow waxing,500,60,,,
mlt7,Jia Beauty Salon,Hair,Hair coloring,2000,60,,,
mlt7,Jia Beauty Salon,Hair,Ladies haircut,1500,60,,,
mlt7,Jia Beauty Salon,Hair,Wedding hair,3500,60,,,
mlt7,Jia Beauty Salon,Makeup,Signature Makeup,5000,90,,,
mlt7,Jia Beauty Salon,Makeup,Bridal Makeup,15000,90,,,
mlt7,Jia Beauty Salon,Makeup,Engagement Makeup,5000,60,,,
mlt7,Jia Beauty Salon,Face,Acne treatment,1500,60,,,
mlt7,Jia Beauty Salon,Face,Herbal Massage,1500,60,,,
mlt7,Jia Beauty Salon,Face,Skin whitening,1500,60,,,
mlt7,Jia Beauty Salon,Face,Collagen facial,2500,60,,,
mlt7,Jia Beauty Salon,Threading,Eyebrow threading,500,60,,,
mlt7,Jia Beauty Salon,Waxing,Eyebrow waxing,500,60,,,
mlt8,Choppers Salon,Hair,Men cut,300,60,,,
mlt8,Choppers Salon,Hair,Men hair art,500,60,,,
mlt8,Choppers Salon,Hair,Head shave,300,60,,,
mlt8,Choppers Salon,Hair,Head trim,250,60,,,
mlt8,Choppers Salon,Hair,Wash,100,30,,,
mlt8,Choppers Salon,Hair,Shave,150,30,,,
mlt8,Choppers Salon,Hair,Beard trim,150,30,,,
mlt8,Choppers Salon,Hair,Beard style,250,30,,,
mlt8,Choppers Salon,Hair,Beard art,500,30,,,
mlt8,Choppers Salon,Hair,Children cut,350,30,,,
mlt8,Choppers Salon,Hair,Hair dye short,600,60,,,
mlt8,Choppers Salon,Hair,Side burns colour,250,30,,,
mlt8,Choppers Salon,Hair,Moustache colour,150,30,,,
mlt8,Choppers Salon,Hair,Beard colour,300,30,,,
mlt8,Choppers Salon,Face,Express glow,3000,60,,,
mlt8,Choppers Salon,Face,White glow,2550,60,,,
mlt8,Choppers Salon,Face,Acne defining,3550,60,,,
mlt8,Choppers Salon,Skin,Hand polish,500,30,,,
mlt8,Choppers Salon,Skin,Feet polish,550,30,,,
mlt8,Choppers Salon,Skin,Neck polish,300,30,,,
mlt8,Choppers Salon,Skin,Face polish,500,30,,,
mlt8,Choppers Salon,Body ,Full body polish,2500,60,,,
mlt8,Choppers Salon,Body ,Full body cleansing,3000,60,,,
mlt8,Choppers Salon,Body ,Scalp massage,150,30,,,
mlt8,Choppers Salon,Body ,Head and shoulder,350,30,,,
mlt8,Choppers Salon,Body ,Full body,2500,60,,,
mlt8,Choppers Salon,Waxing and Threading,Cheek threading,100,15,,,
mlt8,Choppers Salon,Waxing and Threading,Forehead threading,100,15,,,
mlt8,Choppers Salon,Waxing and Threading,Eyebrow threading,150,30,,,
mlt8,Choppers Salon,Waxing and Threading,Full face wax,500,30,,,
mlt8,Choppers Salon,Waxing and Threading,Chest wax,1500,30,,,
mlt8,Choppers Salon,Waxing and Threading,Back wax,1000,30,,,
mlt8,Choppers Salon,Nails,Manicure,700,30,,,
mlt8,Choppers Salon,Nails,Pedicure,800,30,,,
mlt9,New Ideas Beauty Parlour,Hair,Hair coloring,2000,60,,,
mlt9,New Ideas Beauty Parlour,Hair,Ladies haircut,1500,60,,,
mlt9,New Ideas Beauty Parlour,Hair,Wedding hair,3500,60,,,
mlt9,New Ideas Beauty Parlour,Makeup,Signature Makeup,5000,90,,,
mlt9,New Ideas Beauty Parlour,Makeup,Bridal Makeup,15000,90,,,
mlt9,New Ideas Beauty Parlour,Makeup,Engagement Makeup,5000,60,,,
mlt9,New Ideas Beauty Parlour,Face,Acne treatment,1500,60,,,
mlt9,New Ideas Beauty Parlour,Face,Herbal Massage,1500,60,,,
mlt9,New Ideas Beauty Parlour,Face,Skin whitening,1500,60,,,
mlt9,New Ideas Beauty Parlour,Face,Collagen facial,2500,60,,,
mlt9,New Ideas Beauty Parlour,Threading,Eyebrow threading,500,60,,,
mlt9,New Ideas Beauty Parlour,Waxing,Eyebrow waxing,500,60,,,
mlt10,Embellish Beauty Salon,Hair,Hair coloring,2000,60,,,
mlt10,Embellish Beauty Salon,Hair,Ladies haircut,1500,60,,,
mlt10,Embellish Beauty Salon,Hair,Wedding hair,3500,60,,,
mlt10,Embellish Beauty Salon,Makeup,Signature Makeup,5000,90,,,
mlt10,Embellish Beauty Salon,Makeup,Bridal Makeup,15000,90,,,
mlt10,Embellish Beauty Salon,Makeup,Engagement Makeup,5000,60,,,
mlt10,Embellish Beauty Salon,Face,Acne treatment,1500,60,,,
mlt10,Embellish Beauty Salon,Face,Herbal Massage,1500,60,,,
mlt10,Embellish Beauty Salon,Face,Skin whitening,1500,60,,,
mlt10,Embellish Beauty Salon,Face,Collagen facial,2500,60,,,
mlt10,Embellish Beauty Salon,Threading,Eyebrow threading,500,60,,,
mlt10,Embellish Beauty Salon,Waxing,Eyebrow waxing,500,60,,,
mlt11,B Parlour,Hair,Hair coloring,2000,60,,,
mlt11,B Parlour,Hair,Ladies haircut,1500,60,,,
mlt11,B Parlour,Hair,Wedding hair,3500,60,,,
mlt11,B Parlour,Makeup,Signature Makeup,5000,90,,,
mlt11,B Parlour,Makeup,Bridal Makeup,15000,90,,,
mlt11,B Parlour,Makeup,Engagement Makeup,5000,60,,,
mlt11,B Parlour,Face,Acne treatment,1500,60,,,
mlt11,B Parlour,Face,Herbal Massage,1500,60,,,
mlt11,B Parlour,Face,Skin whitening,1500,60,,,
mlt11,B Parlour,Face,Collagen facial,2500,60,,,
mlt11,B Parlour,Threading,Eyebrow threading,500,60,,,
mlt11,B Parlour,Waxing,Eyebrow waxing,500,60,,,
mlt12,Fresh and Fair Beauty Parlour,Hair,Hair coloring,2000,60,,,
mlt12,Fresh and Fair Beauty Parlour,Hair,Ladies haircut,1500,60,,,
mlt12,Fresh and Fair Beauty Parlour,Hair,Wedding hair,3500,60,,,
mlt12,Fresh and Fair Beauty Parlour,Makeup,Signature Makeup,5000,90,,,
mlt12,Fresh and Fair Beauty Parlour,Makeup,Bridal Makeup,15000,90,,,
mlt12,Fresh and Fair Beauty Parlour,Makeup,Engagement Makeup,5000,60,,,
mlt12,Fresh and Fair Beauty Parlour,Face,Acne treatment,1500,60,,,
mlt12,Fresh and Fair Beauty Parlour,Face,Herbal Massage,1500,60,,,
mlt12,Fresh and Fair Beauty Parlour,Face,Skin whitening,1500,60,,,
mlt12,Fresh and Fair Beauty Parlour,Face,Collagen facial,2500,60,,,
mlt12,Fresh and Fair Beauty Parlour,Threading,Eyebrow threading,500,60,,,
mlt12,Fresh and Fair Beauty Parlour,Waxing,Eyebrow waxing,500,60,,,
mlt13,Chandni Beauty Parlour,Hair,Hair coloring,1000,60,,,
mlt13,Chandni Beauty Parlour,Hair,Ladies haircut,1500,60,,,
mlt13,Chandni Beauty Parlour,Hair,Wedding hair,2000,60,,,
mlt13,Chandni Beauty Parlour,Face,Acne treatment,1000,60,,,
mlt13,Chandni Beauty Parlour,Face,Herbal Massage,900,60,,,
mlt13,Chandni Beauty Parlour,Face,Skin whitening,1200,60,,,
mlt13,Chandni Beauty Parlour,Face,Collagen facial,2500,60,,,
mlt13,Chandni Beauty Parlour,Makeup,Signature Makeup,4000,90,,,
mlt13,Chandni Beauty Parlour,Makeup,Bridal Makeup,10000,90,,,
mlt13,Chandni Beauty Parlour,Makeup,Engagement Makeup,5000,60,,,
mlt13,Chandni Beauty Parlour,Threading,Eyebrow threading,400,60,,,
mlt13,Chandni Beauty Parlour,Waxing,Eyebrow waxing,500,60,,,
